DATA from a single cal injection with CB=3 (generated from simulation on Feb 16 2023).
 021015D4
 3C02FFF7
 FFFFFFFF
 3C06FFF7
 3C00FFF7
 FFFFFFFF
 3C03FFF7
 3C0EFFF7
 FFFFFFFF
 3C01F7FF
 3C08FF7F
 FFFFFFFF
 3C16F7FF
 3C10F7F7
 FFFFFFFF
 3C14FFF7
 3C1AFF77
 FFFFFFFF
 3C197FFF
 3C2EF7FF
 FFFFFFFF
 3C27FFF7
 3C2AFFF7
 FFFFFFFF
 3C347FFF
 3C397F7F
 FFFFFFFF
 3C3D7FFF
 3C44FF7F
 FFFFFFFF
 3C47F7FF
 3C41FFF7
 FFFFFFFF
 3C43FF7F
 3C4EF7FF
 FFFFFFFF
 3C4DF7FF
 3C52FFF7
 FFFFFFFF
 3C49FFF7
 3C57FFF7
 FFFFFFFF
 3C5BFF7F
 3C66FF7F
 FFFFFFFF
 3C59F7F7
 3C64FF7F
 FFFFFFFF
 3C67F77F
 3C61F77F
 FFFFFFFF
 3C65F77F
 3C6EF7FF
 FFFFFFFF
 3C687FF7
 3C76F7F7
 FFFFFFFF
 3C6BFFF7
 3C72F7FF
 FFFFFFFF
 3C73FF7F
 3C7E777F
 FFFFFFFF
 3C717FFF
 3C7CFF77
 FFFFFFFF
 3C7DFF77
 3C79F77F
 FFFFFFFF
 3C7BF7FF
 3C86FF7F
 FFFFFFFF
 3C8077F7
 3C83F7FF
 FFFFFFFF
 3C87F7F7
 3C8EFF7F
 FFFFFFFF
 3C8FFF7F
 3C8B777F
 FFFFFFFF
 3C8D777F
 3C89FEE7
 FFFFFFFF
 3C9DFFF7
 3C99F7F7
 FFFFFFFF
 3C9B7FFF
 3CAE7FFF
 FFFFFFFF
 3CB97F7F
 3CD6FF7F
 FFFFFFFF
 3CC0FF7F
 3CD4F7F7
 FFFFFFFF
 3CD3FF7F
 3CDC7FF7
 FFFFFFFF
 3CD1F7FF
 3CDA7FF7
 FFFFFFFF
 3CDDF7FF
 3CD9FF7F
 FFFFFFFF
 3CDB7F7F
 3CE9F777
 FFFFFFFF
 3D18FF7F
 3D19777F
 FFFFFFFF
 3D1BFFF7
 3D397FFF
 FFFFFFFF
 3D72FF7F
 FFFFFFFF
 021015D4
 3C02FFF7
 FFFFFFFF
 3C06FFF7
 3C00FFF7
 FFFFFFFF
 3C03FFF7
 3C0EFFF7
 FFFFFFFF
 3C01F7FF
 3C08FF7F
 FFFFFFFF
 3C16F7FF
 3C10F7F7
 FFFFFFFF
 3C14FFF7
 3C1AFF77
 FFFFFFFF
 3C197FFF
 3C2EF7FF
 FFFFFFFF
 3C27FFF7
 3C2AFFF7
 FFFFFFFF
 3C347FFF
 3C397F7F
 FFFFFFFF
 3C3D7FFF
 3C44FF7F
 FFFFFFFF
 3C47F7FF
 3C41FFF7
 FFFFFFFF
 3C43FF7F
 3C4EF7FF
 FFFFFFFF
 3C4DF7FF
 3C52FFF7
 FFFFFFFF
 3C49FFF7
 3C57FFF7
 FFFFFFFF
 3C5BFF7F
 3C66FF7F
 FFFFFFFF
 3C59F7F7
 3C64FF7F
 FFFFFFFF
 3C67F77F
 3C61F77F
 FFFFFFFF
 3C65F77F
 3C6EF7FF
 FFFFFFFF
 3C687FF7
 3C76F7F7
 FFFFFFFF
 3C6BFFF7
 3C72F7FF
 FFFFFFFF
 3C73FF7F
 3C7E777F
 FFFFFFFF
 3C717FFF
 3C7CFF77
 FFFFFFFF
 3C7DFF77
 3C79F77F
 FFFFFFFF
 3C7BF7FF
 3C86FF7F
 FFFFFFFF
 3C8077F7
 3C83F7FF
 FFFFFFFF
 3C87F7F7
 3C8EFF7F
 FFFFFFFF
 3C8FFF7F
 3C8B777F
 FFFFFFFF
 3C8D777F
 3C89FEE7
 FFFFFFFF
 3C9DFFF7
 3C99F7F7
 FFFFFFFF
 3C9B7FFF
 3CAE7FFF
 FFFFFFFF
 3CB97F7F
 3CD6FF7F
 FFFFFFFF
 3CC0FF7F
 3CD4F7F7
 FFFFFFFF
 3CD3FF7F
 3CDC7FF7
 FFFFFFFF
 3CD1F7FF
 3CDA7FF7
 FFFFFFFF
 3CDDF7FF
 3CD9FF7F
 FFFFFFFF
 3CDB7F7F
 3CE9F777
 FFFFFFFF
 3D18FF7F
 3D19777F
 FFFFFFFF
 3D1BFFF7
 3D397FFF
 FFFFFFFF
 3D72FF7F
 FFFFFFFF
