88
11
77
EE
88
11
77
EE
66
99
66
99
66
33
66
33
AA
99
77
11
AA
66
66
AA
66
99
66
99
66
99
66
99
66
99
66
99
66
99
66
99
66
99
66
99
66
99
66
99
66
99
66
99
66
99
66
99
66
99
66
99
66
99
66
99
66
99
66
99
66
99
66
99
55
66
66
AA
55
66
66
CC
55
66
77
11
55
66
77
22
66
99
66
99
66
99
66
99
66
99
66
99
66
99
66
99
66
99
66
99
66
99
66
99
66
99
66
99
66
99
66
99
66
99
66
99
66
99
66
99
66
99
66
99
66
99
66
99
88
11
77
EE
66
99
66
99
66
99
66
99
66
99
66
99
66
99
66
99
66
99
66
99
66
99
66
99
66
99
66
99
66
99
66
99
66
99
66
99
66
99
66
99
66
99
66
99
66
99
66
99
66
99
66
99
66
99
66
99
66
99
66
99
88
11
77
EE
66
99
66
99
66
99
66
99
66
99
66
99
66
99
66
99
66
99
66
99
66
99
66
99
66
99
66
99
66
99
66
99
66
99
66
99
66
99
66
99
66
99
66
99
66
99
66
99
66
99
66
99
66
99
66
99
66
99
66
99
88
11
77
EE
66
99
66
99
66
99
66
99
66
99
66
99
66
99
66
99
66
99
66
99
66
99
66
99
66
99
66
99
66
99
66
99
66
99
66
99
66
99
66
99
66
99
66
99
66
99
66
99
66
99
66
99
66
99
66
99
66
99
66
99
88
11
77
EE
66
99
66
99
66
99
66
99
66
99
66
99
66
99
66
99
66
99
66
99
66
99
66
99
66
99
66
99
66
99
66
99
66
99
66
99
66
99
66
99
66
99
66
99
66
99
66
99
66
99
66
99
66
99
66
99
66
99
66
99
88
11
77
EE
66
99
66
99
66
99
66
99
66
99
66
99
66
99
66
99
66
99
66
99
66
99
66
99
66
99
66
99
66
99
66
99
66
99
66
99
66
99
66
99
66
99
66
99
66
99
66
99
66
99
66
99
66
99
66
99
66
99
66
99
88
11
77
EE
66
99
66
99
66
99
66
99
66
99
66
99
66
99
66
99
66
99
66
99
66
99
66
99
66
99
66
99
66
99
66
99
66
99
66
99
66
99
66
99
66
99
66
99
66
99
66
99
66
99
66
99
66
99
66
99
66
99
66
99
88
11
77
EE
66
99
66
99
66
99
66
99
66
99
66
99
66
99
66
99
66
99
66
99
66
99
66
99
66
99
66
99
66
99
66
99
66
99
66
99
66
99
66
99
66
99
66
99
66
99
66
99
66
99
66
99
66
99
66
99
66
99
66
99
88
11
77
EE
66
99
66
99
66
99
66
99
66
99
66
99
66
99
66
99
66
99
66
99
66
99
66
99
66
99
66
99
66
99
66
99
66
99
66
99
66
99
66
99
66
99
66
99
66
99
66
99
66
99
66
99
66
99
66
99
66
99
66
99
88
11
77
EE
66
99
66
99
66
99
66
99
66
99
66
99
66
99
66
99
66
99
66
99
66
99
66
99
66
99
66
99
66
99
66
99
66
99
66
99
66
99
66
99
66
99
66
99
66
99
66
99
66
99
66
99
66
99
66
99
66
99
66
99
88
11
77
EE
66
99
66
99
66
99
66
99
66
99
66
99
66
99
66
99
66
99
66
99
66
99
66
99
66
99
66
99
66
99
66
99
66
99
66
99
66
99
66
99
66
99
66
99
66
99
66
99
66
99
66
99
66
99
66
99
66
99
66
99
88
11
77
EE
66
99
66
99
66
99
66
99
66
99
66
99
66
99
66
99
66
99
66
99
66
99
66
99
66
99
66
99
66
99
66
99
66
99
66
99
66
99
66
99
66
99
66
99
66
99
66
99
66
99
66
99
66
99
66
99
66
99
66
99
88
11
77
EE
66
99
66
99
66
99
66
99
66
99
66
99
66
99
66
99
66
99
66
99
66
99
66
99
66
99
66
99
66
99
66
99
66
99
66
99
66
99
66
99
66
99
66
99
66
99
66
99
66
99
66
99
66
99
66
99
66
99
66
99
88
11
77
EE
66
99
66
99
66
99
66
99
66
99
66
99
66
99
66
99
66
99
66
99
66
99
66
99
66
99
66
99
66
99
66
99
66
99
66
99
66
99
66
99
66
99
66
99
66
99
66
99
66
99
66
99
66
99
66
99
66
99
66
99
88
11
77
EE
66
99
66
99
66
99
66
99
66
99
66
99
66
99
66
99
66
99
66
99
66
99
66
99
66
99
66
99
66
99
66
99
66
99
66
99
66
99
66
99
66
99
66
99
66
99
66
99
66
99
66
99
66
99
66
99
66
99
66
99
88
11
77
EE
66
99
66
99
66
99
66
99
66
99
66
99
66
99
66
99
66
99
66
99
66
99
66
99
66
99
66
99
66
99
66
99
66
99
66
99
66
99
66
99
66
99
66
99
66
99
66
99
66
99
66
99
66
99
66
99
66
99
66
99
88
11
77
EE
66
99
66
99
66
99
66
99
66
99
66
99
66
99
66
99
66
99
66
99
66
99
66
99
66
99
66
99
66
99
66
99
66
99
66
99
66
99
66
99
66
99
66
99
66
99
66
99
66
99
66
99
66
99
66
99
66
99
66
99
88
11
77
EE
66
99
66
99
66
99
66
99
66
99
66
99
66
99
66
99
66
99
66
99
66
99
66
99
66
99
66
99
66
99
66
99
66
99
66
99
66
99
66
99
66
99
66
99
66
99
66
99
66
99
66
99
66
99
66
99
66
99
66
99
88
11
77
EE
66
99
66
99
66
99
66
99
66
99
66
99
66
99
66
99
66
99
66
99
66
99
66
99
66
99
66
99
66
99
66
99
66
99
66
99
66
99
66
99
66
99
66
99
66
99
66
99
66
99
66
99
66
99
66
99
66
99
66
99
88
11
77
EE
66
99
66
99
66
99
66
99
66
99
66
99
66
99
66
99
66
99
66
99
66
99
66
99
66
99
66
99
66
99
66
99
66
99
66
99
66
99
66
99
66
99
66
99
66
99
66
99
66
99
66
99
66
99
66
99
66
99
66
99
88
11
77
EE
66
99
66
99
66
99
66
99
66
99
66
99
66
99
66
99
66
99
66
99
66
99
66
99
66
99
66
99
66
99
66
99
66
99
66
99
66
99
66
99
66
99
66
99
66
99
66
99
66
99
66
99
66
99
66
99
66
99
66
99
88
11
77
EE
66
99
66
99
66
99
66
99
66
99
66
99
66
99
66
99
66
99
66
99
66
99
66
99
66
99
66
99
66
99
66
99
66
99
66
99
66
99
66
99
66
99
66
99
66
99
66
99
66
99
66
99
66
99
66
99
66
99
66
99
88
11
77
EE
66
99
66
99
66
99
66
99
66
99
66
99
66
99
66
99
66
99
66
99
66
99
66
99
66
99
66
99
66
99
66
99
66
99
66
99
66
99
66
99
66
99
66
99
66
99
66
99
66
99
66
99
66
99
66
99
66
99
66
99
88
11
77
EE
66
99
66
99
66
99
66
99
66
99
66
99
66
99
66
99
66
99
66
99
66
99
66
99
66
99
66
99
66
99
66
99
66
99
66
99
66
99
66
99
66
99
66
99
66
99
66
99
66
99
66
99
66
99
66
99
66
99
66
99
88
11
77
EE
66
99
66
99
66
99
66
99
66
99
66
99
66
99
66
99
66
99
66
99
66
99
66
99
66
99
66
99
66
99
66
99
66
99
66
99
66
99
66
99
66
99
66
99
66
99
66
99
66
99
66
99
66
99
66
99
66
99
66
99
88
11
77
EE
66
99
66
99
66
99
66
99
66
99
66
99
66
99
66
99
66
99
66
99
66
99
66
99
66
99
66
99
66
99
66
99
66
99
66
99
66
99
66
99
66
99
66
99
66
99
66
99
66
99
66
99
66
99
66
99
66
99
66
99
88
11
77
EE
66
99
66
99
66
99
66
99
66
99
66
99
66
99
66
99
66
99
66
99
66
99
66
99
66
99
66
99
66
99
66
99
66
99
66
99
66
99
66
99
66
99
66
99
66
99
66
99
66
99
66
99
66
99
66
99
66
99
66
99
88
11
77
EE
66
99
66
99
66
99
66
99
66
99
66
99
66
99
66
99
66
99
66
99
66
99
66
99
66
99
66
99
66
99
66
99
66
99
66
99
66
99
66
99
66
99
66
99
66
99
66
99
66
99
66
99
66
99
66
99
66
99
66
99
88
11
77
EE
66
99
66
99
66
99
66
99
66
99
66
99
66
99
66
99
66
99
66
99
66
99
66
99
66
99
66
99
66
99
66
99
66
99
66
99
66
99
66
99
66
99
66
99
66
99
66
99
66
99
66
99
66
99
66
99
66
99
66
99
88
11
77
EE
66
99
66
99
66
99
66
99
66
99
66
99
66
99
66
99
66
99
66
99
66
99
66
99
66
99
66
99
66
99
66
99
66
99
66
99
66
99
66
99
66
99
66
99
66
99
66
99
66
99
66
99
66
99
66
99
66
99
66
99
88
11
77
EE
66
99
66
99
66
99
66
99
66
99
66
99
66
99
66
99
66
99
66
99
66
99
66
99
66
99
66
99
66
99
66
99
66
99
66
99
66
99
66
99
66
99
66
99
66
99
66
99
66
99
66
99
66
99
66
99
66
99
66
99
88
11
77
EE
66
99
66
99
66
99
66
99
66
99
66
99
66
99
66
99
66
99
66
99
66
99
66
99
66
99
66
99
66
99
66
99
66
99
66
99
66
99
66
99
66
99
66
99
66
99
66
99
66
99
66
99
66
99
66
99
66
99
66
99
88
11
77
EE
66
99
66
99
66
99
66
99
66
99
66
99
66
99
66
99
66
99
66
99
66
99
66
99
66
99
66
99
66
99
66
99
66
99
66
99
66
99
66
99
66
99
66
99
66
99
66
99
66
99
66
99
66
99
66
99
66
99
66
99
88
11
77
EE
66
99
66
99
66
99
66
99
66
99
66
99
66
99
66
99
66
99
66
99
66
99
66
99
66
99
66
99
66
99
66
99
66
99
66
99
66
99
66
99
66
99
66
99
66
99
66
99
66
99
66
99
66
99
66
99
66
99
66
99
88
11
77
EE
66
99
66
99
66
99
66
99
66
99
66
99
66
99
66
99
66
99
66
99
66
99
66
99
66
99
66
99
66
99
66
99
66
99
66
99
66
99
66
99
66
99
66
99
66
99
66
99
66
99
66
99
66
99
66
99
66
99
66
99
88
11
77
EE
66
99
66
99
66
99
66
99
66
99
66
99
66
99
66
99
66
99
66
99
66
99
66
99
66
99
66
99
66
99
66
99
66
99
66
99
66
99
66
99
66
99
66
99
66
99
66
99
66
99
66
99
66
99
66
99
66
99
66
99
88
11
77
EE
66
99
66
99
66
99
66
99
66
99
66
99
66
99
66
99
66
99
66
99
66
99
66
99
66
99
66
99
66
99
66
99
66
99
66
99
66
99
66
99
66
99
66
99
66
99
66
99
66
99
66
99
66
99
66
99
66
99
66
99
88
11
77
EE
66
99
66
99
66
99
66
99
66
99
66
99
66
99
66
99
66
99
66
99
66
99
66
99
66
99
66
99
66
99
66
99
66
99
66
99
66
99
66
99
66
99
66
99
66
99
66
99
66
99
66
99
66
99
66
99
66
99
66
99
88
11
77
EE
66
99
66
99
66
99
66
99
66
99
66
99
66
99
66
99
66
99
66
99
66
99
66
99
66
99
66
99
66
99
66
99
66
99
66
99
66
99
66
99
66
99
66
99
66
99
66
99
66
99
66
99
66
99
66
99
66
99
66
99
88
11
77
EE
66
99
66
99
66
99
66
99
66
99
66
99
66
99
66
99
66
99
66
99
66
99
66
99
66
99
66
99
66
99
66
99
66
99
66
99
66
99
66
99
66
99
66
99
66
99
66
99
66
99
66
99
66
99
66
99
66
99
66
99
88
11
77
EE
66
99
66
99
66
99
66
99
66
99
66
99
66
99
66
99
66
99
66
99
66
99
66
99
66
99
66
99
66
99
66
99
66
99
66
99
66
99
66
99
66
99
66
99
66
99
66
99
66
99
66
99
66
99
66
99
66
99
66
99
88
11
77
EE
66
99
66
99
66
99
66
99
66
99
66
99
66
99
66
99
66
99
66
99
66
99
66
99
66
99
66
99
66
99
66
99
66
99
66
99
66
99
66
99
66
99
66
99
66
99
66
99
66
99
66
99
66
99
66
99
66
99
66
99
88
11
77
EE
66
99
66
99
66
99
66
99
66
99
66
99
66
99
66
99
66
99
66
99
66
99
66
99
66
99
66
99
66
99
66
99
66
99
66
99
66
99
66
99
66
99
66
99
66
99
66
99
66
99
66
99
66
99
66
99
66
99
66
99
88
11
77
EE
66
99
66
99
66
99
66
99
66
99
66
99
66
99
66
99
66
99
66
99
66
99
66
99
66
99
66
99
66
99
66
99
66
99
66
99
66
99
66
99
66
99
66
99
66
99
66
99
66
99
66
99
66
99
66
99
66
99
66
99
88
11
77
EE
66
99
66
99
66
99
66
99
66
99
66
99
66
99
66
99
66
99
66
99
66
99
66
99
66
99
66
99
66
99
66
99
66
99
66
99
66
99
66
99
66
99
66
99
66
99
66
99
66
99
66
99
66
99
66
99
66
99
66
99
88
11
77
EE
66
99
66
99
66
99
66
99
66
99
66
99
66
99
66
99
66
99
66
99
66
99
66
99
66
99
66
99
66
99
66
99
66
99
66
99
66
99
66
99
66
99
66
99
66
99
66
99
66
99
66
99
66
99
66
99
66
99
66
99
88
11
77
EE
66
99
66
99
66
99
66
99
66
99
66
99
66
99
66
99
66
99
66
99
66
99
66
99
66
99
66
99
66
99
66
99
66
99
66
99
66
99
66
99
66
99
66
99
66
99
66
99
66
99
66
99
66
99
66
99
66
99
66
99
88
11
77
EE
66
99
66
99
66
99
66
99
66
99
66
99
66
99
66
99
66
99
66
99
66
99
66
99
66
99
66
99
66
99
66
99
66
99
66
99
66
99
66
99
66
99
66
99
66
99
66
99
66
99
66
99
66
99
66
99
66
99
66
99
88
11
77
EE
66
99
66
99
66
99
66
99
66
99
66
99
66
99
66
99
66
99
66
99
66
99
66
99
66
99
66
99
66
99
66
99
66
99
66
99
66
99
66
99
66
99
66
99
66
99
66
99
66
99
66
99
66
99
66
99
66
99
66
99
88
11
77
EE
66
99
66
99
66
99
66
99
66
99
66
99
66
99
66
99
66
99
66
99
66
99
66
99
66
99
66
99
66
99
66
99
66
99
66
99
66
99
66
99
66
99
66
99
66
99
66
99
66
99
66
99
66
99
66
99
66
99
66
99
88
11
77
EE
66
99
66
99
66
99
66
99
66
99
66
99
66
99
66
99
66
99
66
99
66
99
66
99
66
99
66
99
66
99
66
99
66
99
66
99
66
99
66
99
66
99
66
99
66
99
66
99
66
99
66
99
66
99
66
99
66
99
66
99
88
11
77
EE
66
99
66
99
66
99
66
99
66
99
66
99
66
99
66
99
66
99
66
99
66
99
66
99
66
99
66
99
66
99
66
99
66
99
66
99
66
99
66
99
66
99
66
99
66
99
66
99
66
99
66
99
66
99
66
99
66
99
66
99
88
11
77
EE
66
99
66
99
66
99
66
99
66
99
66
99
66
99
66
99
66
99
66
99
66
99
66
99
66
99
66
99
66
99
66
99
66
99
66
99
66
99
66
99
66
99
66
99
66
99
66
99
66
99
66
99
66
99
66
99
66
99
66
99
88
11
77
EE
66
99
66
99
66
99
66
99
66
99
66
99
66
99
66
99
66
99
66
99
66
99
66
99
66
99
66
99
66
99
66
99
66
99
66
99
66
99
66
99
66
99
66
99
66
99
66
99
66
99
66
99
66
99
66
99
66
99
66
99
88
11
77
EE
66
99
66
99
66
99
66
99
66
99
66
99
66
99
66
99
66
99
66
99
66
99
66
99
66
99
66
99
66
99
66
99
66
99
66
99
66
99
66
99
66
99
66
99
66
99
66
99
66
99
66
99
66
99
66
99
66
99
66
99
88
11
77
EE
66
99
66
99
66
99
66
99
66
99
66
99
66
99
66
99
66
99
66
99
66
99
66
99
66
99
66
99
66
99
66
99
66
99
66
99
66
99
66
99
66
99
66
99
66
99
66
99
66
99
66
99
66
99
66
99
66
99
66
99
88
11
77
EE
66
99
66
99
66
99
66
99
66
99
66
99
66
99
66
99
66
99
66
99
66
99
66
99
66
99
66
99
66
99
66
99
66
99
66
99
66
99
66
99
66
99
66
99
66
99
66
99
66
99
66
99
66
99
66
99
66
99
66
99
88
11
77
EE
66
99
66
99
66
99
66
99
66
99
66
99
66
99
66
99
66
99
66
99
66
99
66
99
66
99
66
99
66
99
66
99
66
99
66
99
66
99
66
99
66
99
66
99
66
99
66
99
66
99
66
99
66
99
66
99
66
99
66
99
88
11
77
EE
66
99
66
99
66
99
66
99
66
99
66
99
66
99
66
99
66
99
66
99
66
99
66
99
66
99
66
99
66
99
66
99
66
99
66
99
66
99
66
99
66
99
66
99
66
99
66
99
66
99
66
99
66
99
66
99
66
99
66
99
88
11
77
EE
66
99
66
99
66
99
66
99
66
99
66
99
66
99
66
99
66
99
66
99
66
99
66
99
66
99
66
99
66
99
66
99
66
99
66
99
66
99
66
99
66
99
66
99
66
99
66
99
66
99
66
99
66
99
66
99
66
99
66
99
88
11
77
EE
66
99
66
99
66
99
66
99
66
99
66
99
66
99
66
99
66
99
66
99
66
99
66
99
66
99
66
99
66
99
66
99
66
99
66
99
66
99
66
99
66
99
66
99
66
99
66
99
66
99
66
99
66
99
66
99
66
99
66
99
88
11
77
EE
66
99
66
99
66
99
66
99
66
99
66
99
66
99
66
99
66
99
66
99
66
99
66
99
66
99
66
99
66
99
66
99
66
99
66
99
66
99
66
99
66
99
66
99
66
99
66
99
66
99
66
99
66
99
66
99
66
99
66
99
88
11
77
EE
66
99
66
99
66
99
66
99
66
99
66
99
66
99
66
99
66
99
66
99
66
99
66
99
66
99
66
99
66
99
66
99
66
99
66
99
66
99
66
99
66
99
66
99
66
99
66
99
66
99
66
99
66
99
66
99
66
99
66
99
88
11
77
EE
66
99
66
99
66
99
66
99
66
99
66
99
66
99
66
99
66
99
66
99
66
99
66
99
66
99
66
99
66
99
66
99
66
99
66
99
66
99
66
99
66
99
66
99
66
99
66
99
66
99
66
99
66
99
66
99
66
99
66
99
88
11
77
EE
66
99
66
99
66
99
66
99
66
99
66
99
66
99
66
99
66
99
66
99
66
99
66
99
66
99
66
99
66
99
66
99
66
99
66
99
66
99
66
99
66
99
66
99
66
99
66
99
66
99
66
99
66
99
66
99
66
99
66
99
88
11
77
EE
66
99
66
99
66
99
66
99
66
99
66
99
66
99
66
99
66
99
66
99
66
99
66
99
66
99
66
99
66
99
66
99
66
99
66
99
66
99
66
99
66
99
66
99
66
99
66
99
66
99
66
99
66
99
66
99
66
99
66
99
88
11
77
EE
66
99
66
99
66
99
66
99
66
99
66
99
66
99
66
99
66
99
66
99
66
99
66
99
66
99
66
99
66
99
66
99
66
99
66
99
66
99
66
99
66
99
66
99
66
99
66
99
66
99
66
99
66
99
66
99
66
99
66
99
88
11
77
EE
66
99
66
99
66
99
66
99
66
99
66
99
66
99
66
99
66
99
66
99
66
99
66
99
66
99
66
99
66
99
66
99
66
99
66
99
66
99
66
99
66
99
66
99
66
99
66
99
66
99
66
99
66
99
66
99
66
99
66
99
88
11
77
EE
66
99
66
99
66
99
66
99
66
99
66
99
66
99
66
99
66
99
66
99
66
99
66
99
66
99
66
99
66
99
66
99
66
99
66
99
66
99
66
99
66
99
66
99
66
99
66
99
66
99
66
99
66
99
66
99
66
99
66
99
88
11
77
EE
66
99
66
99
66
99
66
99
66
99
66
99
66
99
66
99
66
99
66
99
66
99
66
99
66
99
66
99
66
99
66
99
66
99
66
99
66
99
66
99
66
99
66
99
66
99
66
99
66
99
66
99
66
99
66
99
66
99
66
99
88
11
77
EE
66
99
66
99
66
99
66
99
66
99
66
99
66
99
66
99
66
99
66
99
66
99
66
99
66
99
66
99
66
99
66
99
66
99
66
99
66
99
66
99
66
99
66
99
66
99
66
99
66
99
66
99
66
99
66
99
66
99
66
99
88
11
77
EE
66
99
66
99
66
99
66
99
66
99
66
99
66
99
66
99
66
99
66
99
66
99
66
99
66
99
66
99
66
99
66
99
66
99
66
99
66
99
66
99
66
99
66
99
66
99
66
99
66
99
66
99
66
99
66
99
66
99
66
99
88
11
77
EE
66
99
66
99
66
99
66
99
66
99
66
99
66
99
66
99
66
99
66
99
66
99
66
99
66
99
66
99
66
99
66
99
66
99
66
99
66
99
66
99
66
99
66
99
66
99
66
99
66
99
66
99
66
99
66
99
66
99
66
99
88
11
77
EE
66
99
66
99
66
99
66
99
66
99
66
99
66
99
66
99
66
99
66
99
66
99
66
99
66
99
66
99
66
99
66
99
66
99
66
99
66
99
66
99
66
99
66
99
66
99
66
99
66
99
66
99
66
99
66
99
66
99
66
99
88
11
77
EE
66
99
66
99
66
99
66
99
66
99
66
99
66
99
66
99
66
99
66
99
66
99
66
99
66
99
66
99
66
99
66
99
66
99
66
99
66
99
66
99
66
99
66
99
66
99
66
99
66
99
66
99
66
99
66
99
66
99
66
99
88
11
77
EE
66
99
66
99
66
99
66
99
66
99
66
99
66
99
66
99
66
99
66
99
66
99
66
99
66
99
66
99
66
99
66
99
66
99
66
99
66
99
66
99
66
99
66
99
66
99
66
99
66
99
66
99
66
99
66
99
66
99
66
99
88
11
77
EE
66
99
66
99
66
99
66
99
66
99
66
99
66
99
66
99
66
99
66
99
66
99
66
99
66
99
66
99
66
99
66
99
66
99
66
99
66
99
66
99
66
99
66
99
66
99
66
99
66
99
66
99
66
99
66
99
66
99
66
99
88
11
77
EE
66
99
66
99
66
99
66
99
66
99
66
99
66
99
66
99
66
99
66
99
66
99
66
99
66
99
66
99
66
99
66
99
66
99
66
99
66
99
66
99
66
99
66
99
66
99
66
99
66
99
66
99
66
99
66
99
66
99
66
99
88
11
77
EE
66
99
66
99
66
99
66
99
66
99
66
99
66
99
66
99
66
99
66
99
66
99
66
99
66
99
66
99
66
99
66
99
66
99
66
99
66
99
66
99
66
99
66
99
66
99
66
99
66
99
66
99
66
99
66
99
66
99
66
99
88
11
77
EE
66
99
66
99
66
99
66
99
66
99
66
99
66
99
66
99
66
99
66
99
66
99
66
99
66
99
66
99
66
99
66
99
66
99
66
99
66
99
66
99
66
99
66
99
66
99
66
99
66
99
66
99
66
99
66
99
66
99
66
99
88
11
77
EE
66
99
66
99
66
99
66
99
66
99
66
99
66
99
66
99
66
99
66
99
66
99
66
99
66
99
66
99
66
99
66
99
66
99
66
99
66
99
66
99
66
99
66
99
66
99
66
99
66
99
66
99
66
99
66
99
66
99
66
99
88
11
77
EE
66
99
66
99
66
99
66
99
66
99
66
99
66
99
66
99
66
99
66
99
66
99
66
99
66
99
66
99
66
99
66
99
66
99
66
99
66
99
66
99
66
99
66
99
66
99
66
99
66
99
66
99
66
99
66
99
66
99
66
99
88
11
77
EE
66
99
66
99
66
99
66
99
66
99
66
99
66
99
66
99
66
99
66
99
66
99
66
99
66
99
66
99
66
99
66
99
66
99
66
99
66
99
66
99
66
99
66
99
66
99
66
99
66
99
66
99
66
99
66
99
66
99
66
99
88
11
77
EE
66
99
66
99
66
99
66
99
66
99
66
99
66
99
66
99
66
99
66
99
66
99
66
99
66
99
66
99
66
99
66
99
66
99
66
99
66
99
66
99
66
99
66
99
66
99
66
99
66
99
66
99
66
99
66
99
66
99
66
99
88
11
77
EE
66
99
66
99
66
99
66
99
66
99
66
99
66
99
66
99
66
99
66
99
66
99
66
99
66
99
66
99
66
99
66
99
66
99
66
99
66
99
66
99
66
99
66
99
66
99
66
99
66
99
66
99
66
99
66
99
66
99
66
99
88
11
77
EE
66
99
66
99
66
99
66
99
66
99
66
99
66
99
66
99
66
99
66
99
66
99
66
99
66
99
66
99
66
99
66
99
66
99
66
99
66
99
66
99
66
99
66
99
66
99
66
99
66
99
66
99
66
99
66
99
66
99
66
99
88
11
77
EE
66
99
66
99
66
99
66
99
66
99
66
99
66
99
66
99
66
99
66
99
66
99
66
99
66
99
66
99
66
99
66
99
66
99
66
99
66
99
66
99
66
99
66
99
66
99
66
99
66
99
66
99
66
99
66
99
66
99
66
99
88
11
77
EE
66
99
66
99
66
99
66
99
66
99
66
99
66
99
66
99
66
99
66
99
66
99
66
99
66
99
66
99
66
99
66
99
66
99
66
99
66
99
66
99
66
99
66
99
66
99
66
99
66
99
66
99
66
99
66
99
66
99
66
99
88
11
77
EE
66
99
66
99
66
99
66
99
66
99
66
99
66
99
66
99
66
99
66
99
66
99
66
99
66
99
66
99
66
99
66
99
66
99
66
99
66
99
66
99
66
99
66
99
66
99
66
99
66
99
66
99
66
99
66
99
66
99
66
99
88
11
77
EE
66
99
66
99
66
99
66
99
66
99
66
99
66
99
66
99
66
99
66
99
66
99
66
99
66
99
66
99
66
99
66
99
66
99
66
99
66
99
66
99
66
99
66
99
66
99
66
99
66
99
66
99
66
99
66
99
66
99
66
99
88
11
77
EE
66
99
66
99
66
99
66
99
66
99
66
99
66
99
66
99
66
99
66
99
66
99
66
99
66
99
66
99
66
99
66
99
66
99
66
99
66
99
66
99
66
99
66
99
66
99
66
99
66
99
66
99
66
99
66
99
66
99
66
99
88
11
77
EE
66
99
66
99
66
99
66
99
66
99
66
99
66
99
66
99
66
99
66
99
66
99
66
99
66
99
66
99
66
99
66
99
66
99
66
99
66
99
66
99
66
99
66
99
66
99
66
99
66
99
66
99
66
99
66
99
66
99
66
99
88
11
77
EE
66
99
66
99
66
99
66
99
66
99
66
99
66
99
66
99
66
99
66
99
66
99
66
99
66
99
66
99
66
99
66
99
66
99
66
99
66
99
66
99
66
99
66
99
66
99
66
99
66
99
66
99
66
99
66
99
66
99
66
99
88
11
77
EE
66
99
66
99
66
99
66
99
66
99
66
99
66
99
66
99
66
99
66
99
66
99
66
99
66
99
66
99
66
99
66
99
66
99
66
99
66
99
66
99
66
99
66
99
66
99
66
99
66
99
66
99
66
99
66
99
66
99
66
99
88
11
77
EE
66
99
66
99
66
99
66
99
66
99
66
99
66
99
66
99
66
99
66
99
66
99
66
99
66
99
66
99
66
99
66
99
66
99
66
99
66
99
66
99
66
99
66
99
66
99
66
99
66
99
66
99
66
99
66
99
66
99
66
99
88
11
77
EE
66
99
66
99
66
99
66
99
66
99
66
99
66
99
66
99
66
99
66
99
66
99
66
99
66
99
66
99
66
99
66
99
66
99
66
99
66
99
66
99
66
99
66
99
66
99
66
99
66
99
66
99
66
99
66
99
66
99
66
99
88
11
77
EE
66
99
66
99
66
99
66
99
66
99
66
99
66
99
66
99
66
99
66
99
66
99
66
99
66
99
66
99
66
99
66
99
66
99
66
99
66
99
66
99
66
99
66
99
66
99
66
99
66
99
66
99
66
99
66
99
66
99
66
99
88
11
77
EE
66
99
66
99
66
99
66
99
66
99
66
99
66
99
66
99
66
99
66
99
66
99
66
99
66
99
66
99
66
99
66
99
66
99
66
99
66
99
66
99
66
99
66
99
66
99
66
99
66
99
66
99
66
99
66
99
66
99
66
99
88
11
77
EE
66
99
66
99
66
99
66
99
66
99
66
99
66
99
66
99
66
99
66
99
66
99
66
99
66
99
66
99
66
99
66
99
66
99
66
99
66
99
66
99
66
99
66
99
66
99
66
99
66
99
66
99
66
99
66
99
66
99
66
99
88
11
77
EE
66
99
66
99
66
99
66
99
66
99
66
99
66
99
66
99
66
99
66
99
66
99
66
99
66
99
66
99
66
99
66
99
66
99
66
99
66
99
66
99
66
99
66
99
66
99
66
99
66
99
66
99
66
99
66
99
66
99
66
99
88
11
77
EE
66
99
66
99
66
99
66
99
66
99
66
99
66
99
66
99
66
99
66
99
66
99
66
99
66
99
66
99
66
99
66
99
66
99
66
99
66
99
66
99
66
99
66
99
66
99
66
99
66
99
66
99
66
99
66
99
66
99
66
99
88
11
77
EE
66
99
66
99
66
99
66
99
66
99
66
99
66
99
66
99
66
99
66
99
66
99
66
99
66
99
66
99
66
99
66
99
66
99
66
99
66
99
66
99
66
99
66
99
66
99
66
99
66
99
66
99
66
99
66
99
66
99
66
99
88
11
77
EE
66
99
66
99
66
99
66
99
66
99
66
99
66
99
66
99
66
99
66
99
66
99
66
99
66
99
66
99
66
99
66
99
66
99
66
99
66
99
66
99
66
99
66
99
66
99
66
99
66
99
66
99
66
99
66
99
66
99
66
99
88
11
77
EE
66
99
66
99
66
99
66
99
66
99
66
99
66
99
66
99
66
99
66
99
66
99
66
99
66
99
66
99
66
99
66
99
66
99
66
99
66
99
66
99
66
99
66
99
66
99
66
99
66
99
66
99
66
99
66
99
66
99
66
99
88
11
77
EE
66
99
66
99
66
99
66
99
66
99
66
99
66
99
66
99
66
99
66
99
66
99
66
99
66
99
66
99
66
99
66
99
66
99
66
99
66
99
66
99
66
99
66
99
66
99
66
99
66
99
66
99
66
99
66
99
66
99
66
99
88
11
77
EE
66
99
66
99
66
99
66
99
66
99
66
99
66
99
66
99
66
99
66
99
66
99
66
99
66
99
66
99
66
99
66
99
66
99
66
99
66
99
66
99
66
99
66
99
66
99
66
99
66
99
66
99
66
99
66
99
66
99
66
99
88
11
77
EE
66
99
66
99
66
99
66
99
66
99
66
99
66
99
66
99
66
99
66
99
66
99
66
99
66
99
66
99
66
99
66
99
66
99
66
99
66
99
66
99
66
99
66
99
66
99
66
99
66
99
66
99
66
99
66
99
66
99
66
99
88
11
77
EE
66
99
66
99
66
99
66
99
66
99
66
99
66
99
66
99
66
99
66
99
66
99
66
99
66
99
66
99
66
99
66
99
66
99
66
99
66
99
66
99
66
99
66
99
66
99
66
99
66
99
66
99
66
99
66
99
66
99
66
99
88
11
77
EE
66
99
66
99
66
99
66
99
66
99
66
99
66
99
66
99
66
99
66
99
66
99
66
99
66
99
66
99
66
99
66
99
66
99
66
99
66
99
66
99
66
99
66
99
66
99
66
99
66
99
66
99
66
99
66
99
66
99
66
99
88
11
77
EE
66
99
66
99
66
99
66
99
66
99
66
99
66
99
66
99
66
99
66
99
66
99
66
99
66
99
66
99
66
99
66
99
66
99
66
99
66
99
66
99
66
99
66
99
66
99
66
99
66
99
66
99
66
99
66
99
66
99
66
99
88
11
77
EE
66
99
66
99
66
99
66
99
66
99
66
99
66
99
66
99
66
99
66
99
66
99
66
99
66
99
66
99
66
99
66
99
66
99
66
99
66
99
66
99
66
99
66
99
66
99
66
99
66
99
66
99
66
99
66
99
66
99
66
99
88
11
77
EE
66
99
66
99
66
99
66
99
66
99
66
99
66
99
66
99
66
99
66
99
66
99
66
99
66
99
66
99
66
99
66
99
66
99
66
99
66
99
66
99
66
99
66
99
66
99
66
99
66
99
66
99
66
99
66
99
66
99
66
99
88
11
77
EE
66
99
66
99
66
99
66
99
66
99
66
99
66
99
66
99
66
99
66
99
66
99
66
99
66
99
66
99
66
99
66
99
66
99
66
99
66
99
66
99
66
99
66
99
66
99
66
99
66
99
66
99
66
99
66
99
66
99
66
99
88
11
77
EE
66
99
66
99
66
99
66
99
66
99
66
99
66
99
66
99
66
99
66
99
66
99
66
99
66
99
66
99
66
99
66
99
66
99
66
99
66
99
66
99
66
99
66
99
66
99
66
99
66
99
66
99
66
99
66
99
66
99
66
99
88
11
77
EE
66
99
66
99
66
99
66
99
66
99
66
99
66
99
66
99
66
99
66
99
66
99
66
99
66
99
66
99
66
99
66
99
66
99
66
99
66
99
66
99
66
99
66
99
66
99
66
99
66
99
66
99
66
99
66
99
66
99
66
99
88
11
77
EE
66
99
66
99
66
99
66
99
66
99
66
99
66
99
66
99
66
99
66
99
66
99
66
99
66
99
66
99
66
99
66
99
66
99
66
99
66
99
66
99
66
99
66
99
66
99
66
99
66
99
66
99
66
99
66
99
66
99
66
99
88
11
77
EE
66
99
66
99
66
99
66
99
66
99
66
99
66
99
66
99
66
99
66
99
66
99
66
99
66
99
66
99
66
99
66
99
66
99
66
99
66
99
66
99
66
99
66
99
66
99
66
99
66
99
66
99
66
99
66
99
66
99
66
99
88
11
77
EE
66
99
66
99
66
99
66
99
66
99
66
99
66
99
66
99
66
99
66
99
66
99
66
99
66
99
66
99
66
99
66
99
66
99
66
99
66
99
66
99
66
99
66
99
66
99
66
99
66
99
66
99
66
99
66
99
66
99
66
99
88
11
77
EE
66
99
66
99
66
99
66
99
66
99
66
99
66
99
66
99
66
99
66
99
66
99
66
99
66
99
66
99
66
99
66
99
66
99
66
99
66
99
66
99
66
99
66
99
66
99
66
99
66
99
66
99
66
99
66
99
66
99
66
99
88
11
77
EE
66
99
66
99
66
99
66
99
66
99
66
99
66
99
66
99
66
99
66
99
66
99
66
99
66
99
66
99
66
99
66
99
66
99
66
99
66
99
66
99
66
99
66
99
66
99
66
99
66
99
66
99
66
99
66
99
66
99
66
99
88
11
77
EE
66
99
66
99
66
99
66
99
66
99
66
99
66
99
66
99
66
99
66
99
66
99
66
99
66
99
66
99
66
99
66
99
66
99
66
99
66
99
66
99
66
99
66
99
66
99
66
99
66
99
66
99
66
99
66
99
66
99
66
99
88
11
77
EE
66
99
66
99
66
99
66
99
66
99
66
99
66
99
66
99
66
99
66
99
66
99
66
99
66
99
66
99
66
99
66
99
66
99
66
99
66
99
66
99
66
99
66
99
66
99
66
99
66
99
66
99
66
99
66
99
66
99
66
99
88
11
77
EE
66
99
66
99
66
99
66
99
66
99
66
99
66
99
66
99
66
99
66
99
66
99
66
99
66
99
66
99
66
99
66
99
66
99
66
99
66
99
66
99
66
99
66
99
66
99
66
99
66
99
66
99
66
99
66
99
66
99
66
99
88
11
77
EE
66
99
66
99
66
99
66
99
66
99
66
99
66
99
66
99
66
99
66
99
66
99
66
99
66
99
66
99
66
99
66
99
66
99
66
99
66
99
66
99
66
99
66
99
66
99
66
99
66
99
66
99
66
99
66
99
66
99
66
99
88
11
77
EE
66
99
66
99
66
99
66
99
66
99
66
99
66
99
66
99
66
99
66
99
66
99
66
99
66
99
66
99
66
99
66
99
66
99
66
99
66
99
66
99
66
99
66
99
66
99
66
99
66
99
66
99
66
99
66
99
66
99
66
99
88
11
77
EE
66
99
66
99
66
99
66
99
66
99
66
99
66
99
66
99
66
99
66
99
66
99
66
99
66
99
66
99
66
99
66
99
66
99
66
99
66
99
66
99
66
99
66
99
66
99
66
99
66
99
66
99
66
99
66
99
66
99
66
99
88
11
77
EE
66
99
66
99
66
99
66
99
66
99
66
99
66
99
66
99
66
99
66
99
66
99
66
99
66
99
66
99
66
99
66
99
66
99
66
99
66
99
66
99
66
99
66
99
66
99
66
99
66
99
66
99
66
99
66
99
66
99
66
99
88
11
77
EE
66
99
66
99
66
99
66
99
66
99
66
99
66
99
66
99
66
99
66
99
66
99
66
99
66
99
66
99
66
99
66
99
66
99
66
99
66
99
66
99
66
99
66
99
66
99
66
99
66
99
66
99
66
99
66
99
66
99
66
99
88
11
77
EE
66
99
66
99
66
99
66
99
66
99
66
99
66
99
66
99
66
99
66
99
66
99
66
99
66
99
66
99
66
99
66
99
66
99
66
99
66
99
66
99
66
99
66
99
66
99
66
99
66
99
66
99
66
99
66
99
66
99
66
99
88
11
77
EE
66
99
66
99
66
99
66
99
66
99
66
99
66
99
66
99
66
99
66
99
66
99
66
99
66
99
66
99
66
99
66
99
66
99
66
99
66
99
66
99
66
99
66
99
66
99
66
99
66
99
66
99
66
99
66
99
66
99
66
99
88
11
77
EE
66
99
66
99
66
99
66
99
66
99
66
99
66
99
66
99
66
99
66
99
66
99
66
99
66
99
66
99
66
99
66
99
66
99
66
99
66
99
66
99
66
99
66
99
66
99
66
99
66
99
66
99
66
99
66
99
66
99
66
99
88
11
77
EE
66
99
66
99
66
99
66
99
66
99
66
99
66
99
66
99
66
99
66
99
66
99
66
99
66
99
66
99
66
99
66
99
66
99
66
99
66
99
66
99
66
99
66
99
66
99
66
99
66
99
66
99
66
99
66
99
66
99
66
99
88
11
77
EE
66
99
66
99
66
99
66
99
66
99
66
99
66
99
66
99
66
99
66
99
66
99
66
99
66
99
66
99
66
99
66
99
66
99
66
99
66
99
66
99
66
99
66
99
66
99
66
99
66
99
66
99
66
99
66
99
66
99
66
99
88
11
77
EE
66
99
66
99
66
99
66
99
66
99
66
99
66
99
66
99
66
99
66
99
66
99
66
99
66
99
66
99
66
99
66
99
66
99
66
99
66
99
66
99
66
99
66
99
66
99
66
99
66
99
66
99
66
99
66
99
66
99
66
99
88
11
77
EE
66
99
66
99
66
99
66
99
66
99
66
99
66
99
66
99
66
99
66
99
66
99
66
99
66
99
66
99
66
99
66
99
66
99
66
99
66
99
66
99
66
99
66
99
66
99
66
99
66
99
66
99
66
99
66
99
66
99
66
99
88
11
77
EE
66
99
66
99
66
99
66
99
66
99
66
99
66
99
66
99
66
99
66
99
66
99
66
99
66
99
66
99
66
99
66
99
66
99
66
99
66
99
66
99
66
99
66
99
66
99
66
99
66
99
66
99
66
99
66
99
66
99
66
99
88
11
77
EE
66
99
66
99
66
99
66
99
66
99
66
99
66
99
66
99
66
99
66
99
66
99
66
99
66
99
66
99
66
99
66
99
66
99
66
99
66
99
66
99
66
99
66
99
66
99
66
99
66
99
66
99
66
99
66
99
66
99
66
99
88
11
77
EE
66
99
66
99
66
99
66
99
66
99
66
99
66
99
66
99
66
99
66
99
66
99
66
99
66
99
66
99
66
99
66
99
66
99
66
99
66
99
66
99
66
99
66
99
66
99
66
99
66
99
66
99
66
99
66
99
66
99
66
99
88
11
77
EE
66
99
66
99
66
99
66
99
66
99
66
99
66
99
66
99
66
99
66
99
66
99
66
99
66
99
66
99
66
99
66
99
66
99
66
99
66
99
66
99
66
99
66
99
66
99
66
99
66
99
66
99
66
99
66
99
66
99
66
99
88
11
77
EE
66
99
66
99
66
99
66
99
66
99
66
99
66
99
66
99
66
99
66
99
66
99
66
99
66
99
66
99
66
99
66
99
66
99
66
99
66
99
66
99
66
99
66
99
66
99
66
99
66
99
66
99
66
99
66
99
66
99
66
99
88
11
77
EE
66
99
66
99
66
99
66
99
66
99
66
99
66
99
66
99
66
99
66
99
66
99
66
99
66
99
66
99
66
99
66
99
66
99
66
99
66
99
66
99
66
99
66
99
66
99
66
99
66
99
66
99
66
99
66
99
66
99
66
99
88
11
77
EE
66
99
66
99
66
99
66
99
66
99
66
99
66
99
66
99
66
99
66
99
66
99
66
99
66
99
66
99
66
99
66
99
66
99
66
99
66
99
66
99
66
99
66
99
66
99
66
99
66
99
66
99
66
99
66
99
66
99
66
99
88
11
77
EE
66
99
66
99
66
99
66
99
66
99
66
99
66
99
66
99
66
99
66
99
66
99
66
99
66
99
66
99
66
99
66
99
66
99
66
99
66
99
66
99
66
99
66
99
66
99
66
99
66
99
66
99
66
99
66
99
66
99
66
99
88
11
77
EE
66
99
66
99
66
99
66
99
66
99
66
99
66
99
66
99
66
99
66
99
66
99
66
99
66
99
66
99
66
99
66
99
66
99
66
99
66
99
66
99
66
99
66
99
66
99
66
99
66
99
66
99
66
99
66
99
66
99
66
99
88
11
77
EE
66
99
66
99
66
99
66
99
66
99
66
99
66
99
66
99
66
99
66
99
66
99
66
99
66
99
66
99
66
99
66
99
66
99
66
99
66
99
66
99
66
99
66
99
66
99
66
99
66
99
66
99
66
99
66
99
66
99
66
99
88
11
77
EE
66
99
66
99
66
99
66
99
66
99
66
99
66
99
66
99
66
99
66
99
66
99
66
99
66
99
66
99
66
99
66
99
66
99
66
99
66
99
66
99
66
99
66
99
66
99
66
99
66
99
66
99
66
99
66
99
66
99
66
99
88
11
77
EE
66
99
66
99
66
99
66
99
66
99
66
99
66
99
66
99
66
99
66
99
66
99
66
99
66
99
66
99
66
99
66
99
66
99
66
99
66
99
66
99
66
99
66
99
66
99
66
99
66
99
66
99
66
99
66
99
66
99
66
99
88
11
77
EE
66
99
66
99
66
99
66
99
66
99
66
99
66
99
66
99
66
99
66
99
66
99
66
99
66
99
66
99
66
99
66
99
66
99
66
99
66
99
66
99
66
99
66
99
66
99
66
99
66
99
66
99
66
99
66
99
66
99
66
99
88
11
77
EE
66
99
66
99
66
99
66
99
66
99
66
99
66
99
66
99
66
99
66
99
66
99
66
99
66
99
66
99
66
99
66
99
66
99
66
99
66
99
66
99
66
99
66
99
66
99
66
99
66
99
66
99
66
99
66
99
66
99
66
99
88
11
77
EE
66
99
66
99
66
99
66
99
66
99
66
99
66
99
66
99
66
99
66
99
66
99
66
99
66
99
66
99
66
99
66
99
66
99
66
99
66
99
66
99
66
99
66
99
66
99
66
99
66
99
66
99
66
99
66
99
66
99
66
99
88
11
77
EE
66
99
66
99
66
99
66
99
66
99
66
99
66
99
66
99
66
99
66
99
66
99
66
99
66
99
66
99
66
99
66
99
66
99
66
99
66
99
66
99
66
99
66
99
66
99
66
99
66
99
66
99
66
99
66
99
66
99
66
99
88
11
77
EE
66
99
66
99
66
99
66
99
66
99
66
99
66
99
66
99
66
99
66
99
66
99
66
99
66
99
66
99
66
99
66
99
66
99
66
99
66
99
66
99
66
99
66
99
66
99
66
99
66
99
66
99
66
99
66
99
66
99
66
99
88
11
77
EE
66
99
66
99
66
99
66
99
66
99
66
99
66
99
66
99
66
99
66
99
66
99
66
99
66
99
66
99
66
99
66
99
66
99
66
99
66
99
66
99
66
99
66
99
66
99
66
99
66
99
66
99
66
99
66
99
66
99
66
99
88
11
77
EE
66
99
66
99
66
99
66
99
66
99
66
99
66
99
66
99
66
99
66
99
66
99
66
99
66
99
66
99
66
99
66
99
66
99
66
99
66
99
66
99
66
99
66
99
66
99
66
99
66
99
66
99
66
99
66
99
66
99
66
99
88
11
77
EE
66
99
66
99
66
99
66
99
66
99
66
99
66
99
66
99
66
99
66
99
66
99
66
99
66
99
66
99
66
99
66
99
66
99
66
99
66
99
66
99
66
99
66
99
66
99
66
99
66
99
66
99
66
99
66
99
66
99
66
99
88
11
77
EE
66
99
66
99
66
99
66
99
66
99
66
99
66
99
66
99
66
99
66
99
66
99
66
99
66
99
66
99
66
99
66
99
66
99
66
99
66
99
66
99
66
99
66
99
66
99
66
99
66
99
66
99
66
99
66
99
66
99
66
99
88
11
77
EE
66
99
66
99
66
99
66
99
66
99
66
99
66
99
66
99
66
99
66
99
66
99
66
99
66
99
66
99
66
99
66
99
66
99
66
99
66
99
66
99
66
99
66
99
66
99
66
99
66
99
66
99
66
99
66
99
66
99
66
99
88
11
77
EE
66
99
66
99
66
99
66
99
66
99
66
99
66
99
66
99
66
99
66
99
66
99
66
99
66
99
66
99
66
99
66
99
66
99
66
99
66
99
66
99
66
99
66
99
66
99
66
99
66
99
66
99
66
99
66
99
66
99
66
99
88
11
77
EE
66
99
66
99
66
99
66
99
66
99
66
99
66
99
66
99
66
99
66
99
66
99
66
99
66
99
66
99
66
99
66
99
66
99
66
99
66
99
66
99
66
99
66
99
66
99
66
99
66
99
66
99
66
99
66
99
66
99
66
99
88
11
77
EE
66
99
66
99
66
99
66
99
66
99
66
99
66
99
66
99
66
99
66
99
66
99
66
99
66
99
66
99
66
99
66
99
66
99
66
99
66
99
66
99
66
99
66
99
66
99
66
99
66
99
66
99
66
99
66
99
66
99
66
99
88
11
77
EE
66
99
66
99
66
99
66
99
66
99
66
99
66
99
66
99
66
99
66
99
66
99
66
99
66
99
66
99
66
99
66
99
66
99
66
99
66
99
66
99
66
99
66
99
66
99
66
99
66
99
66
99
66
99
66
99
66
99
66
99
88
11
77
EE
66
99
66
99
66
99
66
99
66
99
66
99
66
99
66
99
66
99
66
99
66
99
66
99
66
99
66
99
66
99
66
99
66
99
66
99
66
99
66
99
66
99
66
99
66
99
66
99
66
99
66
99
66
99
66
99
66
99
66
99
88
11
77
EE
66
99
66
99
66
99
66
99
66
99
66
99
66
99
66
99
66
99
66
99
66
99
66
99
66
99
66
99
66
99
66
99
66
99
66
99
66
99
66
99
66
99
66
99
66
99
66
99
66
99
66
99
66
99
66
99
66
99
66
99
88
11
77
EE
66
99
66
99
66
99
66
99
66
99
66
99
66
99
66
99
66
99
66
99
66
99
66
99
66
99
66
99
66
99
66
99
66
99
66
99
66
99
66
99
66
99
66
99
66
99
66
99
66
99
66
99
66
99
66
99
66
99
66
99
88
11
77
EE
66
99
66
99
66
99
66
99
66
99
66
99
66
99
66
99
66
99
66
99
66
99
66
99
66
99
66
99
66
99
66
99
66
99
66
99
66
99
66
99
66
99
66
99
66
99
66
99
66
99
66
99
66
99
66
99
66
99
66
99
88
11
77
EE
66
99
66
99
66
99
66
99
66
99
66
99
66
99
66
99
66
99
66
99
66
99
66
99
66
99
66
99
66
99
66
99
66
99
66
99
66
99
66
99
66
99
66
99
66
99
66
99
66
99
66
99
66
99
66
99
66
99
66
99
88
11
77
EE
66
99
66
99
66
99
66
99
66
99
66
99
66
99
66
99
66
99
66
99
66
99
66
99
66
99
66
99
66
99
66
99
66
99
66
99
66
99
66
99
66
99
66
99
66
99
66
99
66
99
66
99
66
99
66
99
66
99
66
99
88
11
77
EE
66
99
66
99
66
99
66
99
66
99
66
99
66
99
66
99
66
99
66
99
66
99
66
99
66
99
66
99
66
99
66
99
66
99
66
99
66
99
66
99
66
99
66
99
66
99
66
99
66
99
66
99
66
99
66
99
66
99
66
99
88
11
77
EE
66
99
66
99
66
99
66
99
66
99
66
99
66
99
66
99
66
99
66
99
66
99
66
99
66
99
66
99
66
99
66
99
66
99
66
99
66
99
66
99
66
99
66
99
66
99
66
99
66
99
66
99
66
99
66
99
66
99
66
99
88
11
77
EE
66
99
66
99
66
99
66
99
66
99
66
99
66
99
66
99
66
99
66
99
66
99
66
99
66
99
66
99
66
99
66
99
66
99
66
99
66
99
66
99
66
99
66
99
66
99
66
99
66
99
66
99
66
99
66
99
66
99
66
99
88
11
77
EE
66
99
66
99
66
99
66
99
66
99
66
99
66
99
66
99
66
99
66
99
66
99
66
99
66
99
66
99
66
99
66
99
66
99
66
99
66
99
66
99
66
99
66
99
66
99
66
99
66
99
66
99
66
99
66
99
66
99
66
99
88
11
77
EE
66
99
66
99
66
99
66
99
66
99
66
99
66
99
66
99
66
99
66
99
66
99
66
99
66
99
66
99
66
99
66
99
66
99
66
99
66
99
66
99
66
99
66
99
66
99
66
99
66
99
66
99
66
99
66
99
66
99
66
99
88
11
77
EE
66
99
66
99
66
99
66
99
66
99
66
99
66
99
66
99
66
99
66
99
66
99
66
99
66
99
66
99
66
99
66
99
66
99
66
99
66
99
66
99
66
99
66
99
66
99
66
99
66
99
66
99
66
99
66
99
66
99
66
99
88
11
77
EE
66
99
66
99
66
99
66
99
66
99
66
99
66
99
66
99
66
99
66
99
66
99
66
99
66
99
66
99
66
99
66
99
66
99
66
99
66
99
66
99
66
99
66
99
66
99
66
99
66
99
66
99
66
99
66
99
66
99
66
99
88
11
77
EE
66
99
66
99
66
99
66
99
66
99
66
99
66
99
66
99
66
99
66
99
66
99
66
99
66
99
66
99
66
99
66
99
66
99
66
99
66
99
66
99
66
99
66
99
66
99
66
99
66
99
66
99
66
99
66
99
66
99
66
99
88
11
77
EE
66
99
66
99
66
99
66
99
66
99
66
99
66
99
66
99
66
99
66
99
66
99
66
99
66
99
66
99
66
99
66
99
66
99
66
99
66
99
66
99
66
99
66
99
66
99
66
99
66
99
66
99
66
99
66
99
66
99
66
99
88
11
77
EE
66
99
66
99
66
99
66
99
66
99
66
99
66
99
66
99
66
99
66
99
66
99
66
99
66
99
66
99
66
99
66
99
66
99
66
99
66
99
66
99
66
99
66
99
66
99
66
99
66
99
66
99
66
99
66
99
66
99
66
99
88
11
77
EE
66
99
66
99
66
99
66
99
66
99
66
99
66
99
66
99
66
99
66
99
66
99
66
99
66
99
66
99
66
99
66
99
66
99
66
99
66
99
66
99
66
99
66
99
66
99
66
99
66
99
66
99
66
99
66
99
66
99
66
99
88
11
77
EE
66
99
66
99
66
99
66
99
66
99
66
99
66
99
66
99
66
99
66
99
66
99
66
99
66
99
66
99
66
99
66
99
66
99
66
99
66
99
66
99
66
99
66
99
66
99
66
99
66
99
66
99
66
99
66
99
66
99
66
99
88
11
77
EE
66
99
66
99
66
99
66
99
66
99
66
99
66
99
66
99
66
99
66
99
66
99
66
99
66
99
66
99
66
99
66
99
66
99
66
99
66
99
66
99
66
99
66
99
66
99
66
99
66
99
66
99
66
99
66
99
66
99
66
99
88
11
77
EE
66
99
66
99
66
99
66
99
66
99
66
99
66
99
66
99
66
99
66
99
66
99
66
99
66
99
66
99
66
99
66
99
66
99
66
99
66
99
66
99
66
99
66
99
66
99
66
99
66
99
66
99
66
99
66
99
66
99
66
99
88
11
77
EE
66
99
66
99
66
99
66
99
66
99
66
99
66
99
66
99
66
99
66
99
66
99
66
99
66
99
66
99
66
99
66
99
66
99
66
99
66
99
66
99
66
99
66
99
66
99
66
99
66
99
66
99
66
99
66
99
66
99
66
99
88
11
77
EE
66
99
66
99
66
99
66
99
66
99
66
99
66
99
66
99
66
99
66
99
66
99
66
99
66
99
66
99
66
99
66
99
66
99
66
99
66
99
66
99
66
99
66
99
66
99
66
99
66
99
66
99
66
99
66
99
66
99
66
99
88
11
77
EE
66
99
66
99
66
99
66
99
66
99
66
99
66
99
66
99
66
99
66
99
66
99
66
99
66
99
66
99
66
99
66
99
66
99
66
99
66
99
66
99
66
99
66
99
66
99
66
99
66
99
66
99
66
99
66
99
66
99
66
99
88
11
77
EE
66
99
66
99
66
99
66
99
66
99
66
99
66
99
66
99
66
99
66
99
66
99
66
99
66
99
66
99
66
99
66
99
66
99
66
99
66
99
66
99
66
99
66
99
66
99
66
99
66
99
66
99
66
99
66
99
66
99
66
99
88
11
77
EE
66
99
66
99
66
99
66
99
66
99
66
99
66
99
66
99
66
99
66
99
66
99
66
99
66
99
66
99
66
99
66
99
66
99
66
99
66
99
66
99
66
99
66
99
66
99
66
99
66
99
66
99
66
99
66
99
66
99
66
99
88
11
77
EE
66
99
66
99
66
99
66
99
66
99
66
99
66
99
66
99
66
99
66
99
66
99
66
99
66
99
66
99
66
99
66
99
66
99
66
99
66
99
66
99
66
99
66
99
66
99
66
99
66
99
66
99
66
99
66
99
66
99
66
99
88
11
77
EE
66
99
66
99
66
99
66
99
66
99
66
99
66
99
66
99
66
99
66
99
66
99
66
99
66
99
66
99
66
99
66
99
66
99
66
99
66
99
66
99
66
99
66
99
66
99
66
99
66
99
66
99
66
99
66
99
66
99
66
99
88
11
77
EE
66
99
66
99
66
99
66
99
66
99
66
99
66
99
66
99
66
99
66
99
66
99
66
99
66
99
66
99
66
99
66
99
66
99
66
99
66
99
66
99
66
99
66
99
66
99
66
99
66
99
66
99
66
99
66
99
66
99
66
99
88
11
77
EE
66
99
66
99
66
99
66
99
66
99
66
99
66
99
66
99
66
99
66
99
66
99
66
99
66
99
66
99
66
99
66
99
66
99
66
99
66
99
66
99
66
99
66
99
66
99
66
99
66
99
66
99
66
99
66
99
66
99
66
99
88
11
77
EE
66
99
66
99
66
99
66
99
66
99
66
99
66
99
66
99
66
99
66
99
66
99
66
99
66
99
66
99
66
99
66
99
66
99
66
99
66
99
66
99
66
99
66
99
66
99
66
99
66
99
66
99
66
99
66
99
66
99
66
99
88
11
77
EE
66
99
66
99
66
99
66
99
66
99
66
99
66
99
66
99
66
99
66
99
66
99
66
99
66
99
66
99
66
99
66
99
66
99
66
99
66
99
66
99
66
99
66
99
66
99
66
99
66
99
66
99
66
99
66
99
66
99
66
99
88
11
77
EE
66
99
66
99
66
99
66
99
66
99
66
99
66
99
66
99
66
99
66
99
66
99
66
99
66
99
66
99
66
99
66
99
66
99
66
99
66
99
66
99
66
99
66
99
66
99
66
99
66
99
66
99
66
99
66
99
66
99
66
99
88
11
77
EE
66
99
66
99
66
99
66
99
66
99
66
99
66
99
66
99
66
99
66
99
66
99
66
99
66
99
66
99
66
99
66
99
66
99
66
99
66
99
66
99
66
99
66
99
66
99
66
99
66
99
66
99
66
99
66
99
66
99
66
99
88
11
77
EE
66
99
66
99
66
99
66
99
66
99
66
99
66
99
66
99
66
99
66
99
66
99
66
99
66
99
66
99
66
99
66
99
66
99
66
99
66
99
66
99
66
99
66
99
66
99
66
99
66
99
66
99
66
99
66
99
66
99
66
99
88
11
77
EE
66
99
66
99
66
99
66
99
66
99
66
99
66
99
66
99
66
99
66
99
66
99
66
99
66
99
66
99
66
99
66
99
66
99
66
99
66
99
66
99
66
99
66
99
66
99
66
99
66
99
66
99
66
99
66
99
66
99
66
99
88
11
77
EE
66
99
66
99
66
99
66
99
66
99
66
99
66
99
66
99
66
99
66
99
66
99
66
99
66
99
66
99
66
99
66
99
66
99
66
99
66
99
66
99
66
99
66
99
66
99
66
99
66
99
66
99
66
99
66
99
66
99
66
99
88
11
77
EE
66
99
66
99
66
99
66
99
66
99
66
99
66
99
66
99
66
99
66
99
66
99
66
99
66
99
66
99
66
99
66
99
66
99
66
99
66
99
66
99
66
99
66
99
66
99
66
99
66
99
66
99
66
99
66
99
66
99
66
99
88
11
77
EE
66
99
66
99
66
99
66
99
66
99
66
99
66
99
66
99
66
99
66
99
66
99
66
99
66
99
66
99
66
99
66
99
66
99
66
99
66
99
66
99
66
99
66
99
66
99
66
99
66
99
66
99
66
99
66
99
66
99
66
99
88
11
77
EE
66
99
66
99
66
99
66
99
66
99
66
99
66
99
66
99
66
99
66
99
66
99
66
99
66
99
66
99
66
99
66
99
66
99
66
99
66
99
66
99
66
99
66
99
66
99
66
99
66
99
66
99
66
99
66
99
66
99
66
99
88
11
77
EE
66
99
66
99
66
99
66
99
66
99
66
99
66
99
66
99
66
99
66
99
66
99
66
99
66
99
66
99
66
99
66
99
66
99
66
99
66
99
66
99
66
99
66
99
66
99
66
99
66
99
66
99
66
99
66
99
66
99
66
99
88
11
77
EE
66
99
66
99
66
99
66
99
66
99
66
99
66
99
66
99
66
99
66
99
66
99
66
99
66
99
66
99
66
99
66
99
66
99
66
99
66
99
66
99
66
99
66
99
66
99
66
99
66
99
66
99
66
99
66
99
66
99
66
99
88
11
77
EE
66
99
66
99
66
99
66
99
66
99
66
99
66
99
66
99
66
99
66
99
66
99
66
99
66
99
66
99
66
99
66
99
66
99
66
99
66
99
66
99
66
99
66
99
66
99
66
99
66
99
66
99
66
99
66
99
66
99
66
99
88
11
77
EE
66
99
66
99
66
99
66
99
66
99
66
99
66
99
66
99
66
99
66
99
66
99
66
99
66
99
66
99
66
99
66
99
66
99
66
99
66
99
66
99
66
99
66
99
66
99
66
99
66
99
66
99
66
99
66
99
66
99
66
99
88
11
77
EE
66
99
66
99
66
99
66
99
66
99
66
99
66
99
66
99
66
99
66
99
66
99
66
99
66
99
66
99
66
99
66
99
66
99
66
99
66
99
66
99
66
99
66
99
66
99
66
99
66
99
66
99
66
99
66
99
66
99
66
99
88
11
77
EE
66
99
66
99
66
99
66
99
66
99
66
99
66
99
66
99
66
99
66
99
66
99
66
99
66
99
66
99
66
99
66
99
66
99
66
99
66
99
66
99
66
99
66
99
66
99
66
99
66
99
66
99
66
99
66
99
66
99
66
99
88
11
77
EE
66
99
66
99
66
99
66
99
66
99
66
99
66
99
66
99
66
99
66
99
66
99
66
99
66
99
66
99
66
99
66
99
66
99
66
99
66
99
66
99
66
99
66
99
66
99
66
99
66
99
66
99
66
99
66
99
66
99
66
99
88
11
77
EE
66
99
66
99
66
99
66
99
66
99
66
99
66
99
66
99
66
99
66
99
66
99
66
99
66
99
66
99
66
99
66
99
66
99
66
99
66
99
66
99
66
99
66
99
66
99
66
99
66
99
66
99
66
99
66
99
66
99
66
99
88
11
77
EE
66
99
66
99
66
99
66
99
66
99
66
99
66
99
66
99
66
99
66
99
66
99
66
99
66
99
66
99
66
99
66
99
66
99
66
99
66
99
66
99
66
99
66
99
66
99
66
99
66
99
66
99
66
99
66
99
66
99
66
99
88
11
77
EE
66
99
66
99
66
99
66
99
66
99
66
99
66
99
66
99
66
99
66
99
66
99
66
99
66
99
66
99
66
99
66
99
66
99
66
99
66
99
66
99
66
99
66
99
66
99
66
99
66
99
66
99
66
99
66
99
66
99
66
99
88
11
77
EE
66
99
66
99
66
99
66
99
66
99
66
99
66
99
66
99
66
99
66
99
66
99
66
99
66
99
66
99
66
99
66
99
66
99
66
99
66
99
66
99
66
99
66
99
66
99
66
99
66
99
66
99
66
99
66
99
66
99
66
99
88
11
77
EE
66
99
66
99
66
99
66
99
66
99
66
99
66
99
66
99
66
99
66
99
66
99
66
99
66
99
66
99
66
99
66
99
66
99
66
99
66
99
66
99
66
99
66
99
66
99
66
99
66
99
66
99
66
99
66
99
66
99
66
99
88
11
77
EE
66
99
66
99
66
99
66
99
66
99
66
99
66
99
66
99
66
99
66
99
66
99
66
99
66
99
66
99
66
99
66
99
66
99
66
99
66
99
66
99
66
99
66
99
66
99
66
99
66
99
66
99
66
99
66
99
66
99
66
99
88
11
77
EE
66
99
66
99
66
99
66
99
66
99
66
99
66
99
66
99
66
99
66
99
66
99
66
99
66
99
66
99
66
99
66
99
66
99
66
99
66
99
66
99
66
99
66
99
66
99
66
99
66
99
66
99
66
99
66
99
66
99
66
99
88
11
77
EE
66
99
66
99
66
99
66
99
66
99
66
99
66
99
66
99
66
99
66
99
66
99
66
99
66
99
66
99
66
99
66
99
66
99
66
99
66
99
66
99
66
99
66
99
66
99
66
99
66
99
66
99
66
99
66
99
66
99
66
99
88
11
77
EE
66
99
66
99
66
99
66
99
66
99
66
99
66
99
66
99
66
99
66
99
66
99
66
99
66
99
66
99
66
99
66
99
66
99
66
99
66
99
66
99
66
99
66
99
66
99
66
99
66
99
66
99
66
99
66
99
66
99
66
99
88
11
77
EE
66
99
66
99
66
99
66
99
66
99
66
99
66
99
66
99
66
99
66
99
66
99
66
99
66
99
66
99
66
99
66
99
66
99
66
99
66
99
66
99
66
99
66
99
66
99
66
99
66
99
66
99
66
99
66
99
66
99
66
99
88
11
77
EE
66
99
66
99
66
99
66
99
66
99
66
99
66
99
66
99
66
99
66
99
66
99
66
99
66
99
66
99
66
99
66
99
66
99
66
99
66
99
66
99
66
99
66
99
66
99
66
99
66
99
66
99
66
99
66
99
66
99
66
99
88
11
77
EE
66
99
66
99
66
99
66
99
66
99
66
99
66
99
66
99
66
99
66
99
66
99
66
99
66
99
66
99
66
99
66
99
66
99
66
99
66
99
66
99
66
99
66
99
66
99
66
99
66
99
66
99
66
99
66
99
66
99
66
99
88
11
77
EE
66
99
66
99
66
99
66
99
66
99
66
99
66
99
66
99
66
99
66
99
66
99
66
99
66
99
66
99
66
99
66
99
66
99
66
99
66
99
66
99
66
99
66
99
66
99
66
99
66
99
66
99
66
99
66
99
66
99
66
99
88
11
77
EE
66
99
66
99
66
99
66
99
66
99
66
99
66
99
66
99
66
99
66
99
66
99
66
99
66
99
66
99
66
99
66
99
66
99
66
99
66
99
66
99
66
99
66
99
66
99
66
99
66
99
66
99
66
99
66
99
66
99
66
99
88
11
77
EE
66
99
66
99
66
99
66
99
66
99
66
99
66
99
66
99
66
99
66
99
66
99
66
99
66
99
66
99
66
99
66
99
66
99
66
99
66
99
66
99
66
99
66
99
66
99
66
99
66
99
66
99
66
99
66
99
66
99
66
99
88
11
77
EE
66
99
66
99
66
99
66
99
66
99
66
99
66
99
66
99
66
99
66
99
66
99
66
99
66
99
66
99
66
99
66
99
66
99
66
99
66
99
66
99
66
99
66
99
66
99
66
99
66
99
66
99
66
99
66
99
66
99
66
99
88
11
77
EE
66
99
66
99
66
99
66
99
66
99
66
99
66
99
66
99
66
99
66
99
66
99
66
99
66
99
66
99
66
99
66
99
66
99
66
99
66
99
66
99
66
99
66
99
66
99
66
99
66
99
66
99
66
99
66
99
66
99
66
99
88
11
77
EE
66
99
66
99
66
99
66
99
66
99
66
99
66
99
66
99
66
99
66
99
66
99
66
99
66
99
66
99
66
99
66
99
66
99
66
99
66
99
66
99
66
99
66
99
66
99
66
99
66
99
66
99
66
99
66
99
66
99
66
99
88
11
77
EE
66
99
66
99
66
99
66
99
66
99
66
99
66
99
66
99
66
99
66
99
66
99
66
99
66
99
66
99
66
99
66
99
66
99
66
99
66
99
66
99
66
99
66
99
66
99
66
99
66
99
66
99
66
99
66
99
66
99
66
99
88
11
77
EE
66
99
66
99
66
99
66
99
66
99
66
99
66
99
66
99
66
99
66
99
66
99
66
99
66
99
66
99
66
99
66
99
66
99
66
99
66
99
66
99
66
99
66
99
66
99
66
99
66
99
66
99
66
99
66
99
66
99
66
99
88
11
77
EE
66
99
66
99
66
99
66
99
66
99
66
99
66
99
66
99
66
99
66
99
66
99
66
99
66
99
66
99
66
99
66
99
66
99
66
99
66
99
66
99
66
99
66
99
66
99
66
99
66
99
66
99
66
99
66
99
66
99
66
99
88
11
77
EE
66
99
66
99
66
99
66
99
66
99
66
99
66
99
66
99
66
99
66
99
66
99
66
99
66
99
66
99
66
99
66
99
66
99
66
99
66
99
66
99
66
99
66
99
66
99
66
99
66
99
66
99
66
99
66
99
66
99
66
99
88
11
77
EE
66
99
66
99
66
99
66
99
66
99
66
99
66
99
66
99
66
99
66
99
66
99
66
99
66
99
66
99
66
99
66
99
66
99
66
99
66
99
66
99
66
99
66
99
66
99
66
99
66
99
66
99
66
99
66
99
66
99
66
99
88
11
77
EE
66
99
66
99
66
99
66
99
66
99
66
99
66
99
66
99
66
99
66
99
66
99
66
99
66
99
66
99
66
99
66
99
66
99
66
99
66
99
66
99
66
99
66
99
66
99
66
99
66
99
66
99
66
99
66
99
66
99
66
99
88
11
77
EE
66
99
66
99
66
99
66
99
66
99
66
99
66
99
66
99
66
99
66
99
66
99
66
99
66
99
66
99
66
99
66
99
66
99
66
99
66
99
66
99
66
99
66
99
66
99
66
99
66
99
66
99
66
99
66
99
66
99
66
99
88
11
77
EE
66
99
66
99
66
99
66
99
66
99
66
99
66
99
66
99
66
99
66
99
66
99
66
99
66
99
66
99
66
99
66
99
66
99
66
99
66
99
66
99
66
99
66
99
66
99
66
99
66
99
66
99
66
99
66
99
66
99
66
99
88
11
77
EE
66
99
66
99
66
99
66
99
66
99
66
99
66
99
66
99
66
99
66
99
66
99
66
99
66
99
66
99
66
99
66
99
66
99
66
99
66
99
66
99
66
99
66
99
66
99
66
99
66
99
66
99
66
99
66
99
66
99
66
99
88
11
77
EE
66
99
66
99
66
99
66
99
66
99
66
99
66
99
66
99
66
99
66
99
66
99
66
99
66
99
66
99
66
99
66
99
66
99
66
99
66
99
66
99
66
99
66
99
66
99
66
99
66
99
66
99
66
99
66
99
66
99
66
99
88
11
77
EE
66
99
66
99
66
99
66
99
66
99
66
99
66
99
66
99
66
99
66
99
66
99
66
99
66
99
66
99
66
99
66
99
66
99
66
99
66
99
66
99
66
99
66
99
66
99
66
99
66
99
66
99
66
99
66
99
66
99
66
99
88
11
77
EE
66
99
66
99
66
99
66
99
66
99
66
99
66
99
66
99
66
99
66
99
66
99
66
99
66
99
66
99
66
99
66
99
66
99
66
99
66
99
66
99
66
99
66
99
66
99
66
99
66
99
66
99
66
99
66
99
66
99
66
99
88
11
77
EE
66
99
66
99
66
99
66
99
66
99
66
99
66
99
66
99
66
99
66
99
66
99
66
99
66
99
66
99
66
99
66
99
66
99
66
99
66
99
66
99
66
99
66
99
66
99
66
99
66
99
66
99
66
99
66
99
66
99
66
99
88
11
77
EE
66
99
66
99
66
99
66
99
66
99
66
99
66
99
66
99
66
99
66
99
66
99
66
99
66
99
66
99
66
99
66
99
66
99
66
99
66
99
66
99
66
99
66
99
66
99
66
99
66
99
66
99
66
99
66
99
66
99
66
99
88
11
77
EE
66
99
66
99
66
99
66
99
66
99
66
99
66
99
66
99
66
99
66
99
66
99
66
99
66
99
66
99
66
99
66
99
66
99
66
99
66
99
66
99
66
99
66
99
66
99
66
99
66
99
66
99
66
99
66
99
66
99
66
99
88
11
77
EE
66
99
66
99
66
99
66
99
66
99
66
99
66
99
66
99
66
99
66
99
66
99
66
99
66
99
66
99
66
99
66
99
66
99
66
99
66
99
66
99
66
99
66
99
66
99
66
99
66
99
66
99
66
99
66
99
66
99
66
99
88
11
77
EE
66
99
66
99
66
99
66
99
66
99
66
99
66
99
66
99
66
99
66
99
66
99
66
99
66
99
66
99
66
99
66
99
66
99
66
99
66
99
66
99
66
99
66
99
66
99
66
99
66
99
66
99
66
99
66
99
66
99
66
99
88
11
77
EE
66
99
66
99
66
99
66
99
66
99
66
99
66
99
66
99
66
99
66
99
66
99
66
99
66
99
66
99
66
99
66
99
66
99
66
99
66
99
66
99
66
99
66
99
66
99
66
99
66
99
66
99
66
99
66
99
66
99
66
99
88
11
77
EE
66
99
66
99
66
99
66
99
66
99
66
99
66
99
66
99
66
99
66
99
66
99
66
99
66
99
66
99
66
99
66
99
66
99
66
99
66
99
66
99
66
99
66
99
66
99
66
99
66
99
66
99
66
99
66
99
66
99
66
99
88
11
77
EE
66
99
66
99
66
99
66
99
66
99
66
99
66
99
66
99
66
99
66
99
66
99
66
99
66
99
66
99
66
99
66
99
66
99
66
99
66
99
66
99
66
99
66
99
66
99
66
99
66
99
66
99
66
99
66
99
66
99
66
99
88
11
77
EE
66
99
66
99
66
99
66
99
66
99
66
99
66
99
66
99
66
99
66
99
66
99
66
99
66
99
66
99
66
99
66
99
66
99
66
99
66
99
66
99
66
99
66
99
66
99
66
99
66
99
66
99
66
99
66
99
66
99
66
99
88
11
77
EE
66
99
66
99
66
99
66
99
66
99
66
99
66
99
66
99
66
99
66
99
66
99
66
99
66
99
66
99
66
99
66
99
66
99
66
99
66
99
66
99
66
99
66
99
66
99
66
99
66
99
66
99
66
99
66
99
66
99
66
99
88
11
77
EE
66
99
66
99
66
99
66
99
66
99
66
99
66
99
66
99
66
99
66
99
66
99
66
99
66
99
66
99
66
99
66
99
66
99
66
99
66
99
66
99
66
99
66
99
66
99
66
99
66
99
66
99
66
99
66
99
66
99
66
99
88
11
77
EE
66
99
66
99
66
99
66
99
66
99
66
99
66
99
66
99
66
99
66
99
66
99
66
99
66
99
66
99
66
99
66
99
66
99
66
99
66
99
66
99
66
99
66
99
66
99
66
99
66
99
66
99
66
99
66
99
66
99
66
99
88
11
77
EE
66
99
66
99
66
99
66
99
66
99
66
99
66
99
66
99
66
99
66
99
66
99
66
99
66
99
66
99
66
99
66
99
66
99
66
99
66
99
66
99
66
99
66
99
66
99
66
99
66
99
66
99
66
99
66
99
66
99
66
99
88
11
77
EE
66
99
66
99
66
99
66
99
66
99
66
99
66
99
66
99
66
99
66
99
66
99
66
99
66
99
66
99
66
99
66
99
66
99
66
99
66
99
66
99
66
99
66
99
66
99
66
99
66
99
66
99
66
99
66
99
66
99
66
99
88
11
77
EE
66
99
66
99
66
99
66
99
66
99
66
99
66
99
66
99
66
99
66
99
66
99
66
99
66
99
66
99
66
99
66
99
66
99
66
99
66
99
66
99
66
99
66
99
66
99
66
99
66
99
66
99
66
99
66
99
66
99
66
99
88
11
77
EE
66
99
66
99
66
99
66
99
66
99
66
99
66
99
66
99
66
99
66
99
66
99
66
99
66
99
66
99
66
99
66
99
66
99
66
99
66
99
66
99
66
99
66
99
66
99
66
99
66
99
66
99
66
99
66
99
66
99
66
99
88
11
77
EE
66
99
66
99
66
99
66
99
66
99
66
99
66
99
66
99
66
99
66
99
66
99
66
99
66
99
66
99
66
99
66
99
66
99
66
99
66
99
66
99
66
99
66
99
66
99
66
99
66
99
66
99
66
99
66
99
66
99
66
99
88
11
77
EE
66
99
66
99
66
99
66
99
66
99
66
99
66
99
66
99
66
99
66
99
66
99
66
99
66
99
66
99
66
99
66
99
66
99
66
99
66
99
66
99
66
99
66
99
66
99
66
99
88
11
77
EE
