9c3e024a
472e06c5
2142b3a7
1062e99a
ba434b05
cb721f16
f2a91953
3c58a357
5691bd62
6e21160d
162b47ad
e49a765e
94bbd7a5
66ed3a46
2a52748b
4dc68c8b
b386b5f6
99b10bd0
d7e8a06d
737b494d
a4c34a93
d166f57f
6bbd023f
b9da8976
c4a9608b
964fc3dd
7ffa9d6f
0b43c099
41bffde9
18dcd66a
e9ce4c82
c0a98188
dd6591e9
90f2aa45
22f8f976
2a3ad82e
949be27f
79078f18
760428c2
1a3be393
014efbec
72a09a4d
e2d6fff1
056f4ea1
d5ed418d
b9dbfcfd
9808f722
4da6b3b2
11a9a143
b495b1f5
bb405ed8
a09c68f5
d855a3bb
e2db386c
18ab5626
f5a92612
89cfb6fd
7f8b01ad
e644aa57
237e24ac
cedb1a60
6e7f50a8
3dc699ae
b78eac56
73225dbd
520c8b3d
b288dd90
be2da0d1
2753cfdb
8a54aa23
c91997ed
b4a89138
f63b3a93
d6f365f0
b386d48f
976fd2a0
98217e10
26b128f5
0db959d6
119455e3
5c1e2f5b
e8eb506b
7cc09e12
bb0b668b
ebc72319
f5438b38
8f37e9ba
887f287b
8645fa44
aa31a544
ed012886
056cd4da
dc1aeead
baa340da
9adb004a
27396029
89fe5d22
1f42fdb6
0fdb5d26
b12c36ce
6ed788b7
62750722
b6dc61d7
7beb5c1b
8679cbe4
a60eed5d
95cea39a
22ba3688
91fb4dcd
892c142f
f97044f0
61581a9d
ef34e733
05b24bbd
6accaba7
2b1d8387
7f5f34f5
bd98e06c
8f2d833b
003fe9e9
2f582c43
d18ba2fc
c46a01ec
e1383192
b4d082d6
b6e80327
0a72196a
a804d5f9
f23594c0
7ba91f3e
3b749888
24e71025
ad5ffb0a
5cabbf1b
e750e57a
475550da
89cdbd0c
181696f9
02afcb8a
fde8300d
e49c48b7
d871384d
9e2f32e1
a1dc9abc
8d2a2017
438f3f88
d766befb
fc984bf0
8b4cbd9e
31c11973
8a1a6eee
a5d49a05
7c41b947
1ff7808d
4a0fd6c9
a9dd0f3f
33a41283
064921fa
3c4f0427
188c3821
cac1f418
7866e2e6
a4efa7b2
8d2c59b9
97e0294a
900a6b8d
db2282c5
a1ca299c
d0ebb8a6
eb2aac11
5dcddf1d
827c37fa
521d09bd
31b47521
ff48733b
e86f7726
69730d50
66aa2ba0
3f038151
019e43d3
58b8db97
b5bbbf5c
40576485
e189e9f7
47868cad
f6bcd9d2
6e9394b4
cf3b3a94
a35ed6d1
daffc2bf
590012fc
d14c996b
6f698981
a217e86b
d60993ee
16d2beba
ef8257be
30f4e5ce
b9390191
e83c2c5b
ece50708
ae3b0f1c
8be72d0d
6df73fb9
8abc3b49
03b683e4
e79c6bd1
c91b869b
6225b1df
dc0962d5
3378f90c
aa0f94a1
0502ef10
f07bcbce
7b0192ee
e0813c42
6f6329f1
292475b5
14cd98c8
08cd3d98
dce3c266
50bda86d
0297b8af
395bcd0c
770b8ae8
3fa61502
4857e228
9b057bd5
944803ba
228d9958
98c52a60
9a91f71c
bc67875e
20c04208
6979f5c9
89d0dc7c
735cfd0b
e64c79b9
b03d4847
fa81813f
2029877f
68af8631
bd2c28fa
453b154f
afe0118e
e7f2dce2
3972e157
b19fa957
3cf6daa9
b535299f
9bb73008
6cc8ab81
ff4564d1
cf5f02d5
8cb1e29d
5ee38cb7
81b15813
813919e3
93d51db4
f4b69b7a
076b8002
f7674bea
0fd3b38a
826b133e
a67e0d21
b9fdcd45
60bd2cfd
3d7daea0
78ac3104
87e3b24e
4af8f191
591ed50d
46bd927f
174e2bf2
27e501e4
8df15521
19fb06a2
4f99ac1c
f036dee2
f7e2da72
cc428146
474b862e
4a186626
639d6ec8
edef1931
1da01b04
bce16664
485fc0f9
068c3cba
fd7f498e
1d3b86ac
91fa0522
8a9b328a
6ea51fb1
ed6e49ce
4ab74c3a
3071f890
a868fb5f
4f4f5a4a
2ea91259
d1e8f62a
bb9991e6
0bd051a3
42e4e648
6ca4d3f2
73a632ef
3374f340
516d158a
97678e2e
afcb0b2e
612f04fc
8b6a5d74
6cb5fb72
549493bf
7275fd02
3516a688
a6455b6e
40888bc7
9375f2a3
878572f8
769ce881
88b0ddad
2d0ad076
5155786d
6a85add9
2f8221ab
0fc54c82
3c19905a
c55ac4eb
ec13bae2
be5e4763
b0471017
e3bd55b3
0f967b7a
2bb2d00d
4470d229
9ef728bd
53c2ccc2
5d856eb3
5d0246fa
016feb16
ad24d076
9709c342
e90684ef
decacf7c
e7872b63
1fa6aa5f
c9fd6565
474feccf
2d75f1ad
ea087bea
41aa1ee1
742fc6d3
7a1bf9f4
e4029995
5fcd9e02
ea94b8ed
7cacaa72
d3b27bab
13e37e10
ed005752
4e516125
7899dd0b
a9ae5eb9
0c4e8eb1
a1e2ccd7
9c2b2e2c
780298ee
d48ae7dd
b63bdb9e
a6740a66
a9b087ef
54144767
f425f5d6
f2be7d94
413be211
e1c74680
1b52baad
5c79c174
e54c8831
7deeb15e
348f63ce
71f15244
d4bab9ae
7d7f7916
177afe23
4cfc2c1f
313ceabc
c45a5f86
6a44ad24
0790da30
2c455d18
815b81ac
4d574d4a
bb8eb162
7003c316
97d717c6
8b139dfc
e9b5f5a6
4f4ab488
8998bf3e
b0e879dd
72ab97d7
e03ecaf2
5f97661b
7ac301eb
75ac8137
598ac7b5
98393656
42606135
04a22d44
bc84430a
c9a8886e
4d20e4bc
44aee117
8c2c1ca6
6559ba96
d1f366bb
78132aa6
528a6222
cd9d678a
3dc0ec9f
4daf45e2
12a81e56
3ed1a11b
e1de8db3
62d9878a
169ba3f5
ed3c4fc2
8d48a179
32de6fd7
2f9278a4
c679d92f
0aa4f6a0
f018db36
824f7662
9acd2d8e
0ca404bf
6bd490eb
016220be
c8c9aaf1
c4bb8f79
f478f002
9362b3f7
46c6b14e
d27b8228
cb022969
74902419
0498de9f
7ba5981f
46303b3f
84fe0e91
ecc1ccff
6c33bda6
b7aad628
0e563aa7
efaa499d
aabc50cb
d431c7f2
cc6d4412
c26a498e
cf509f79
bfc730a3
49f67b48
2a56f109
3b7319cd
2812e91f
51a1b92b
52fe5129
8fb26e1d
b6bccfaf
f5fd9846
86618533
7c9aa762
af3bfe24
78fde9d6
9066e4a3
6496aea0
4a6a9f65
194fdf3a
6e23e63f
09cae24a
9c83bb61
f9e06577
0be37255
3583a6c8
1456c89e
383047e5
791e51a7
f0b8f17f
5e04c5ba
54601597
3ce4b0d6
f58f2b2b
a5a019f1
932462b6
a2a7d567
2e967880
99e07a2f
08cb3834
898634ab
328f5052
cdfa5419
5c8dfc06
d30b5a6f
7861c4c0
0709857e
a9da2882
cfccbbbb
b37e1661
21120597
ff5db114
dadff79d
dedf6937
6310166f
839dca9d
46c0a81d
037a4ef8
728b3cf7
c74b3287
57506ae5
7a1f37a7
86bba1cc
6efea309
6dcd6397
6d3181f6
6f70a1b6
29c6f4c2
98ae7d18
fc7c50dc
2118efa7
a9c73cb2
abba59e4
c524bfb2
4ebf1c13
8b6c8516
12aa737a
3dc10585
686e5621
1ea464fa
680bd063
97724806
6cb2c70d
7412d9e8
db03a7bf
b5401f42
cde5ec75
f56706d4
3518793c
7c6ae179
2954f2cf
6a3abdeb
0b919cb6
522e167e
d5bf2729
9c8bb87e
c8cbc8b8
179fe208
d4939faa
05846942
9d32f889
a70c0d55
97e19235
ed8a2590
64e237b9
e970681d
92d19b65
0eb7f914
9f9ed9a8
1eae5a25
2de2c637
1764d231
c5a7cad5
bb1a10b9
30a1217a
e88e2313
b76651e8
a57c9c17
8237a0b2
7a75ed29
7a4731dd
f50668ef
0a899eee
8e584247
cfdec2c8
6a117683
9dd9243d
a62e642c
424154e8
7a626c1b
b0687fb1
a9463a7a
a6435807
a92f2bc3
b9e517ef
730174a7
2e69fe4d
638b9922
a9ce611a
a9ea0ec3
2ecaf4ad
ff3779d1
738ed563
1bce00bf
43273031
e3418594
ffab439c
fe678fc8
e8467218
020cde6a
be82b9eb
1592a7d8
3cb3e063
b5342463
0cfbd9c9
22c43bdb
5dd392f7
d1ed547c
32903d89
24cc0fdd
bb48fce2
231d59a5
d0c95b9b
037dfef0
c2936956
37aea6b8
8359c2da
b8afc769
58ed7096
637c216d
c5b96126
08c08a6c
c897935f
8214fd05
26b91c08
d58288dc
6ffb459e
5ee8f164
309b2807
8bfabb97
0a777d0f
bad2fade
20aab90e
1ba5a6ba
8da6422c
cdf46f08
cc02d8f2
ce726800
f94ab61c
e6fffe2c
8ad81e30
36e0a199
b19a9353
dd6b95e5
314780f7
3cdb7fea
8fa662cc
38a8990e
e46a788f
0d414ed2
9f252857
bd2aa5c1
ee0d1029
32564692
79a869b0
6c5f39df
62c8a49a
2a420cb5
dc816ca4
fecec986
3f2e2c2b
2ff3043b
0878db70
e2b47a06
4d9a9523
28616d4e
952fbc80
215c4310
500b21a2
9dec3486
452619d3
dde1db6f
f5f1dea8
79e74e10
0fe4febe
9273137f
8369bf27
19f08327
b8a8bd69
ec946625
3952d5de
a3cacb39
7a6ac2a4
be1586f6
f4d003f4
eda3076e
b77b79ec
188b8b57
81be89fc
e6007a3c
e59a9f30
e3ab6a81
c1d825d9
8fe1c50e
f145be12
4c391270
1d7dfb00
0816e1ec
57dbbbc3
530dad1c
9c123aef
0b55ef55
b6a6040e
1e9f3bb9
2d6f0f7e
9b825a6d
79bd36c5
62dc3b92
fd62024b
883bc629
72e4395b
9159078a
63cb393a
d157c582
d9cb384f
d4cfc49c
a55de31f
02b6f0b9
edde6a88
7794b7e7
ca966a8c
8abc76a9
be5be6f3
ff19dd5c
eb9fe7d1
5fe86a03
a3e60820
ff574c2a
d1dac9e9
e01c2f3e
e51ae899
9eb07e3f
685d8fa2
f4b3cd69
c28c2448
ffdd9094
b9930ba7
f785c0cc
d6f48ae7
0e377688
a15e0d95
a327c78c
bea42c6e
75232add
d6a82c6b
dc99f9cb
5d3bde6e
5421015a
e515ae0d
b1669f79
57b82f54
2d432b82
d19873b9
f8ba3414
c57e4fdc
6eb9ee6b
b9d38e10
e39c0b7c
9549591a
78ad9265
d9a9ca83
ed7812f8
db6a101b
0ddae295
bb27ec75
fc14a4a9
8880cd16
90eead7f
0344a633
f0407843
6db24307
82f71e6f
48e54bf6
f1eacb8f
712c4a0a
804c5de5
96848686
efe879cb
cb7f9c52
191148a2
e6e54d85
c0d94a78
b2b0b4f9
31f1c453
e012b771
36fc60ff
48504923
1066af4d
3af4b166
a0f71dbb
aa8569e4
d2a4d16b
de684d25
9fa22627
008ae30a
e9a227b6
360299ad
41397a50
307e986d
3b8f9a33
df27a69f
a11630f0
cd962b02
2905c41a
dd1ba2b8
8d32cc7c
a0aa91b0
e97c9282
eb7953a0
57bc9487
773aec9a
d832d501
3e1e8776
7ba25f50
5b1f393a
8c0c7a99
2ceb89e0
abd0dc56
3eef3f1f
fbf2f2fc
610c1431
6e67b9cc
08778c6f
9b8b1783
b0b47296
b5aea302
401df42d
f28bde9e
17260562
3fb202f3
c37f8e26
165c8eff
24f3cc7c
993ce195
717059aa
b983289b
82595b3a
af1dfe6d
a8c23d54
2a84859a
22369700
1c0e8d2e
22677747
5cacb0c8
6599222d
aa001536
375722d0
3a6ff7d2
7d2f1af8
4f85231a
af366970
31be5eba
1a9e082c
46e8d79a
954276af
a3c7fd44
0fb10915
0b6afe5d
daa2a52f
9842a097
5a347ba9
cf871182
f0826714
7f5d13c1
1cd47f6e
155f566f
116568aa
661890f2
415924e2
18a9a3b5
d1a36aee
5034bea3
e6aae1a4
56b8bf4e
a201ded2
f4daf405
45f45959
370ca329
d9ab7cc6
9c36e723
f98fab73
8c96b5ea
216398ee
6bfaef6e
610e7b95
897e31db
da254510
82761f1f
2a14bd3c
f9aaffac
3f370632
7467e040
ea4a4ce7
698ac168
d7100bf4
6276e698
8b31848b
1cb5af4e
f696126f
54006867
5ecb26c5
8e162a06
ce75674c
ecd502a7
51201e4f
83f8b3a4
31c018a1
f7ea0fa8
cdfa7f18
af3ba36a
b3b06c5b
46dd7d1e
6eb5ab0a
e30ab057
b02f35f6
1b4b59a1
6e7ffacd
6409654f
a8ade864
e7470f01
8ad535c9
f4b55a79
fc9db6b7
77aabeb2
a9a73f28
23ff2554
642bed50
95c0429c
c8ba4d38
12607556
f16dbdbf
8d7fe394
6b732388
1dcb80c1
a7a6d8a1
fc6bdf73
39be9688
6f212878
8b3dfa8c
ca571975
aa49bba7
9ea4b387
6ba65d29
c9beeb58
29f684ce
4fea4ec0
f9f79294
80dc17c6
d57893d9
292ac024
bb1b68bf
a911cfff
ee64a84e
d293ddaa
c123a35c
ab834f7d
bc6fb356
fd2d4102
6d85afed
7a2b32b1
2ee7e8b2
ebfa20f6
b70b776f
583c94d4
c71b68dc
28fda779
1fa2f30c
7d4b3b08
3c119559
c4e08a31
7dfb25d8
2cf9a09b
37a42152
f9f7f824
523eeed3
97db516b
aa650091
cae1f782
96a579e7
6f32380c
87e4076a
f52c4a79
937ca08f
3c02ce99
e41089f0
04d482cd
b55a7584
0f95b210
1f6a02bd
7351e424
d95dc3e7
75746dea
28d7a438
f356bb4e
ed2df89a
1b19ea0f
b65c5500
17400499
4bbf9033
6d855f50
c70145af
38b5f10b
334d4137
5c8744b1
4a784b5f
d8f06623
09a7761a
bba798c9
d50078b7
dfb38ce5
47bea46d
990f91a3
44d40b85
4f0f30b3
26dcee12
db4225f7
20b44045
569a45b0
bbeea5ce
85ece47b
18ad0db0
c1503196
7bb5317f
6063efde
44e378b9
b875a84f
38cb719f
9a3de346
525adf1d
214e4b04
3f1da78d
1b565f98
3df3f2ce
01584572
712f1056
65c30987
39e974e7
d042624d
ee5b2f0e
4df8011d
64bd2cdd
144b63a4
a47cf848
1cfc0ac9
65d36ab0
0a088004
46f92760
f7a57b0b
5dadec94
b76e6fca
54207650
c18fceeb
a5650bed
250ef5bf
8e507db4
aa089241
82504d0c
15588428
7e263d8b
c927da6d
fc156278
ee924c19
998567ac
e7ca4364
85925b4b
cbcebf1c
5cb2d741
36d0e0b9
0842f971
34180a8d
4f44e654
00339a9b
74cc075f
0f91c790
b65d30c6
344e1fb9
51395595
9aac2327
f23065a2
78990e56
d636aa60
93297a26
7a0c0dad
84abf0e5
521105b0
e90f24c5
ebf6d1e6
3a437212
6b5a39c6
d09228b8
43daf965
5a17a4aa
9996b86d
bdf1f8a4
8293560b
af6a42a2
7867f1af
1ad95886
73e464d0
15d0e724
1f676fff
b53151e6
0d2e6643
bf164753
b16bed8c
7637ea1d
e9d4c138
dca42a76
29ab4351
e621658d
06e62626
ec05c0cc
7d414007
a234ac0e
518d98a8
807cf394
54cbf583
6feabbe6
05408dba
1fa4ad5b
c542291e
15a7457e
101d52c3
4f3e5f4c
c189f813
05852518
3e756781
f00f291e
b62d7bb7
8f03c70e
05c49a0b
7baf93bd
02b7876e
7cdce0f3
b38949c5
b0878b3c
97fe9a56
8e790c56
d6fb7e9a
c3d19853
6eb26d94
1dbffc99
0117b46d
9deb62fb
6f455aaa
650b2902
819cf8b3
573b4e24
d4e258a1
b454db5f
4abf2104
a1e1ee46
0be1e1d2
905fb035
7f1ee243
c914a836
d883ada5
ec86d02b
4e6d9e74
d6257ef3
cce7d5f9
81cc589e
24f5382d
8482d676
45c38346
06ae060c
fb7343f5
611ff52a
59a19005
07471d7f
930fb3be
21165291
e96320a7
c3b0e777
c299c277
2008a131
16097132
08e423c3
7df7e979
25f38169
d76c7b1a
e997cee3
77b2e869
c9ea8aad
2dc96749
d497b919
337cad49
d1a6e9ad
24910ea1
d6ac590a
2fe65975
fff8f454
97614901
c6e0b499
279572c2
34b1a3ce
ac33d5a6
2f683569
0665775a
4c12f45a
73c87997
ebdc29da
4671146a
d4a5ed68
7a3c85df
6ac6c064
6c54db97
cf50268f
23f39cf9
bb99582c
f2da78bb
6ee765ba
2e2e0430
d235cc84
ea8ca195
440b8c0c
f27eaf4d
9188fe52
0933b005
cf4bfdbc
d9cadf26
0fd7bf07
07b64f5e
01446a55
7d601d14
2ff2c79b
48162c44
c9a162ee
32031dc1
6c2c1f35
64052f4c
b02155cd
764b4644
83dda54c
0cb4581e
bbea1b73
ee3975b2
dd59de95
2bd8eee0
8dd8ca05
59ed06a8
fb185079
e2877603
0e551875
62d4087e
8d82bb69
142f63cc
3d80ce7f
b4cfd685
a681fd72
293b3985
8829b743
156118a2
52589dca
949aa641
50c70be4
d92604b4
be5e7846
6fdd625e
e6e93ba0
4ab15057
ae9e6ba6
cd591c5d
aab4b7f7
e48e664b
d8996d6a
5653b14f
749bb7ff
7f763169
be2896ae
56bd4752
1ca47c66
1eff31e7
bd549cd9
f1cbb8c1
abbebd53
fd46b342
531dfef6
f9dc06d0
5b8a4b7d
1795eb83
868d6931
f0c9e3e0
493ce27c
dddb6ecb
3c62dd6e
2a940185
87da0ef1
fe934cef
dfe7e7b3
164b95a3
93dd77f0
ff600c72
49c6478b
5c30b4b7
225c9045
da086d66
eaf964fa
18fae285
0b220df4
58cefd6b
c235e467
918bc91c
78ed1cd9
d20583c1
a53f87a4
900f66fd
2df245ad
66c41215
4dc1f86d
7277830a
ced04d98
52551a58
a50e5a95
542902a7
1a4dfb50
4599fc2c
0cfc86fc
3e78c0b3
b1d71e42
895c8fba
3c355d37
e354fec9
58a47a83
a78d3628
cb946e56
295a9c0b
17524978
c389a875
cd2017ee
d0c36ab7
65691f58
62d71681
eaa09e0d
2eaefb8f
a89eb7af
75bc3826
df51a4eb
567d8f5a
60f17072
cb193c12
4e628bb2
b90f0ede
a1703cac
ffb20f27
a6fd13c8
68ed08f3
8a050a02
f7148507
ee533a6d
f2bef600
d594fda4
2b85c9f4
abed99a6
42096479
5e497e96
1c396568
e30e8dc3
77e7d195
bcd6b1db
b4a37238
78b3ab83
560b7a50
8d3b5868
08f138a0
038f9264
cf124dc8
f16de7b4
115c6a7c
fefe7363
aab9d8f6
48b2eafb
30f9d611
f54f770a
7f77c6a4
d00995c8
bb106e87
e4ef7ee5
65759fc1
3c5d05c7
7a279291
266c1379
c2920f1b
da201388
c993e5b4
66659f45
4aaae889
c4fca185
1499168c
8d40527c
7b36b0f1
ea38bca6
5a628d44
f0a6fb7f
2d74a0b3
b5f90db3
b08e7a5d
c6489c07
b3406eea
7750604c
e0e28089
5776758e
1c845828
31691acd
d827fd9b
903dbf23
4d5f89f2
ea6d5df0
2c2c4f5b
80c7c925
6f457894
e94a30ea
be251d82
281c5c25
2341e0b1
262c72a2
6c8c53fd
d5af680f
362fe10f
f32a1603
e50784d3
98ea03bc
39b4393e
dd9a99cf
042d5ede
4d74945b
2df357cc
63a86135
1844a8ac
c0b4c8e5
922ad0ad
c0430649
644d2b5e
96f2129d
ef99cce0
54fca26f
08b6b054
71dbe709
4113e8b4
9f3c7cea
33611577
87a1067c
93d687fb
4437c87d
a74b6450
7db211bc
d968dc0f
054bca5e
2e777515
7baa4b02
2d948072
3bb21920
87e25f2f
2b6276b6
8f69a389
ed60d82f
cedaf0e2
c1eaef1d
22e5a55f
903f8318
93cfadb9
8fb1d652
4f49aa93
923ac1f1
d395ba21
cb45d5c1
7ac7d9a8
50e03ffb
7cdeeced
72bd90c1
b70b19da
ab428997
9de733d2
07f66ae0
367cdb0e
9179906e
e0ef4172
2768714e
b7fac76e
e83ca988
c8dc0f96
76d6e68b
46fb54a0
b993111e
3fe9ec2b
1e296415
eb11d079
642a29f6
8daf13c5
84fa30f1
38334039
a72688b7
9fe7908b
1feb6f30
bbf6fd0f
9f6d8995
78a0663a
dc024e1c
8768628b
f920cda7
377ab8d9
5c609a28
9a05bdd8
d73d04fa
ac70430f
0e888446
389374b2
caf9687d
8e563798
910a290a
2eaafc9d
95bfc5f7
3985563b
a06755f4
7efd4010
fc4aa5cd
04b4205d
22283492
41e490c8
6ba3a005
20593d16
b8aa2a28
0356fc6e
9ea30978
e2988969
5641db9c
f99861f9
aa6175ec
6a7d186b
5872605c
5561fefd
b90cb53a
ad673c9f
099de034
e8624aa7
02aa326b
c8215008
ff073614
83eb253a
822294da
a3b61c53
917c96a4
12c33eaf
a2410bde
7bf76842
8acd0653
9e331e0f
7e676cb6
e48f2e24
6e9a88f9
5ac5d755
a2a26c7e
068c3182
793861b8
a9ff80e4
c9229c5a
ed9c9f74
2d2695e5
63df6469
1a146665
097b4cbd
6bfaca16
890136b2
9295ee8b
d95a21de
3ee68cb3
7ebd6ea5
889700a7
3812a1d8
c700812a
8d099dcc
e5122af2
4efb55db
29bf5362
9c25821b
2acd7f95
a84c470d
66076179
ab973366
dca139d7
426576f1
21b35793
2199b2b9
d2a5ca55
d365f878
00b50ead
68da3d47
5de486ac
285e5e26
885c447e
c21d924e
baa54948
be1761ce
0e0b9f28
7dc5c8cf
34871066
421e5603
6b50094e
27393aac
1613087f
2bbd3ba2
dfa5596f
7e6c5fa8
adaaa0d8
379e8402
cea1c2c1
7875096c
94a41693
3179dc5e
a458d5dd
38d574ef
0af17769
fad2ac35
06920fc9
b7a9e745
2da52c68
d808be08
be6943d2
84d4d20c
eefbb701
4b3a5fa0
c612952b
63c6f326
3d38afcb
af71ae3c
4663a3ec
e939d203
bf472bc7
d24283ac
7bfd1eee
3001c44c
eab1f89f
22691c32
9559e36b
bedb6fd8
e2e32d99
e1878c18
e5f1fd0a
6c1a3970
dbc7ee33
a7ca74fa
a5b17566
a6749710
e85bbfea
1add1cd1
70b644b3
7e118635
52da6831
74af0a61
351cdd01
3f2da97d
d1524b41
a56bdeb8
b5f603a7
0cf6689a
8ce640a1
f099a48c
9e9c46d6
1212a16b
82cd6423
f68069ea
7d2d020c
bcd74a5e
c48e4b6f
70f75197
fb5ccd5f
a0811aee
9b1c9577
75273b2a
ea33c4ea
c7a7fe5a
ae4f9d53
5723704b
9356448d
5791aa8b
644e8000
3cb23518
b9161919
47797d92
1eba3d2a
be98ad51
61a29afd
413a1021
54aeb3dc
030b5f72
5e0b582f
899af195
94ae3790
53654f36
60b195a6
ad64abcd
44f92fbe
30e8c04b
335f9a63
6b15ab7f
f304da9b
1ea33592
067a3ab5
2730643d
0def7b27
ec80b46d
512e1d39
1ee3d1db
88dc3f8e
7be973a7
4b3420e3
b336a064
c2a461ca
a68a547c
cf0b08ac
fb228248
a6cecfe0
320353ed
9cf4f8ae
01a540a5
984f4063
e4efacf9
b5067967
1129ace7
e3ef0528
f6c641ec
aa8b300c
bfdf8556
aeecef41
521a249c
4e67f91c
19904bd8
287359e6
297f7a56
642121de
3b350d82
1d8a8764
152bc5a5
eba2e3a3
996bb11a
8ba28fe1
1bac7fd6
32b5282e
50a29dc6
a27ed3ab
e96d2379
65988c2f
2a790620
9bfdbe71
b7df995e
767818d7
d2c365dc
2bb6e8cf
c223b011
94a81c24
2af15121
aff95aaa
3fc2e8af
804233c7
abeeaa9f
8181952b
f12a6952
4d41a00a
bb8035e4
c1c2a951
0a63bf1e
be15fab7
3964fb16
8f27be90
190822b7
d24b42e7
4a6b0edc
4a20566a
28d5fdef
9654e61a
0284f48a
694b62b3
b37fed17
cd50d650
6b997917
fd3a5759
6b894c54
7f126725
22d35c74
63b7d4e0
069a18ac
4b7e7a33
88a3b4f9
ae23e451
d619be28
cad54e61
1b92f03b
9dd92ff1
c4ddb12a
257091fe
1b202d6b
a8048ffb
65fef91d
3dfa00cc
65bfdaab
a992d32b
0ca4558d
08ab609a
5056b327
469e22fc
8be6a038
f7e7dc98
a785e7ee
4a3e0b79
8eca081e
8123d29c
e3a2c4f3
ebcdf8ac
43dbd462
0b1e272e
0cbb7a45
f29c3f5d
e94e9c2b
46a95690
814a901b
fde24d40
1957e525
f1099fb3
0786d160
5d024048
c8439685
4b5abb43
c69cc522
30956ddf
f8d41898
b60b7a13
811a8c37
479eda06
1a0b0c18
75d34db9
a88a2821
ae677ca3
b454f1a4
e98f610a
777bddfe
1c18cc4e
f0a3d387
e66d8981
97ca0eba
a6770ebe
2672d02d
387c0eec
68517cd4
f1f04c14
d6172569
156eef0d
4da6e5e6
d0483d1d
a2a1fb73
8a52922c
62cb7e31
b318443a
64d21729
2cb62b88
1586b783
0f687bee
5cc5ab8c
01a9dc32
d4f419ce
43f7b926
d3edf640
bc126497
bfadaea7
8ef99fac
b5c5ac60
b8c3181d
7d2befba
62cf1420
0e7b4eda
44e67fa7
8b3d2bb4
83a664ed
69d5f53f
ab53a42c
0289f41f
2adb463a
270af755
aadff6d9
da7acabd
de8c54f8
f943b376
a46e6f56
2f690bb4
4668a1a7
2cb38a07
031a3ba7
c8b92c07
74c5b8ee
8828a286
93f8ed38
c1c3d413
4ea16b86
559a1183
e696be15
88525360
4271bbaf
31040ed9
f97b0563
fdbc501d
304b81fa
351d2413
f8d20eae
203e2838
db609c42
818b33c3
970ad0f1
6ef9b951
0810fcc8
baffdd6e
e552331a
0af76ff7
d826df75
8884e812
38a9fe8a
13e554dc
cf960208
296b668d
fd74964f
a64aaa84
f09a41af
6791bb6b
de17d200
ac146ad5
e12b2a3f
6a29492b
4d07b754
f4252e17
6a0167d9
6c8c1d9b
48a03b98
7e52202e
c73c9097
f8acd73b
733d0f14
060f09c2
c1c3f6c4
81731107
a07bd5c0
94f1e565
207624fb
fd9ebab4
4b7cc0e2
83cd52ee
72f5f881
4becc51c
e5a47a76
30be9938
03e8792f
97e86372
cc998688
c7e07c21
f386e0a2
6efe01de
767fab22
00db2231
214de830
152285e2
7459eba3
e31272d0
0273a67f
492614d2
d9a2c9a0
ff0d9c49
5bd035a6
55742c8f
71a91c6a
f0ba1c79
2f7099ee
4f267fde
0197d8f6
8363360c
627b4bba
67835d63
fa9bbdb2
8828dbe1
70fb8ab4
a24dd3d2
55e830e7
6da9cd3d
2d35ddee
16adc83c
24568571
be9b48c0
fdb7198a
43422f93
1e5038fb
18ed8f29
988ff92f
df5462e4
1f1038d8
3dd73bbd
dd1d661c
a6e2be16
cf851094
43be15ba
b670d64e
ce8f09a7
c16a2368
2772e018
42f18ff2
7fabc966
ae372ac3
49e0f2e4
9cd25c4d
ec368849
2c52df9a
e7f02181
89be41be
bfc164b0
7ac3eb59
a42bccdb
d9b2a47c
2f5028f7
d26a6ed6
8eebbba0
262878f5
3ea8aaf3
a30aa316
935b2a7c
175482f8
0bb90dc4
87e16487
59d32ce1
700b2803
ad8acb87
07c27e27
0b2f594e
323b4d82
11ec8945
a795bf22
3d1b5e85
fd216b99
730b78ea
18f084c6
9779e2e3
e8afbfa0
986e79e1
5acb2443
61cbfb87
8d11d36e
da997091
66700427
ee5c2114
74f6fa36
25a66e3a
547d6fbc
9bab5c12
999b2d71
3248ecff
212bf6ca
f1122219
77c7e4eb
293d9c61
09ead00a
537264f9
9b84b98c
c4bf9825
3e29c704
01ae32c8
709ca759
8a08d18a
a10f71f0
35cdbae5
69edf9de
3608db0b
9184998e
e7ae92be
a72a4fa7
25a775ac
bf3229c8
8c093c2a
e0e59816
d5f20931
b8d33869
c7f93540
8ea86a06
dfd404d6
3db74e6f
965ea3fd
b46848a8
9b300f4a
ba88f2ce
165db54e
1f7a7a2b
c2d4e815
aac196cc
279be1f7
36ec26b3
8225697e
0968486c
dd5223c0
4f15d6a4
2505b6ef
b91db887
2387e027
9f9e38a5
aab1cd65
b2b64759
f9858d78
8097550e
5c089c22
8fcd4b35
96b37c24
ffd8bf3b
6ec92e10
60366146
3942ba36
a07c913c
56038d22
99e314d5
dfaa27a3
f4de9910
0bef9473
c5ec6e28
f5ca514b
4abc062d
e16a32a7
bd30d6bb
532cac14
8ea4fded
1960e4b7
1cc36eb8
f8990b26
d04aa709
c41b3646
90487d06
cc991b89
83e19ce1
5a94c7e1
cfb48476
4ad3b8db
202d2eb8
c37bfcfe
26a35672
49f283bf
8d159e65
40b21279
2478bf5d
37a9d642
08f06138
5b9c84c9
2653cdc7
dd5aeb03
018c7508
542e28d8
b52ac691
2eb81806
dd4ad55e
e8ef25c7
420e5a6c
6d535ac0
f2d6916f
b54cc72d
f0b86719
c2342ef1
38ac0a6b
1bdeb917
5cdc4e95
2645ff52
e782b4b3
c92c3474
1fbba221
29cc9a90
f9e914da
34f55d85
f2f88c5e
f5bca419
0063b66f
894e704b
31a9f8a4
66fed04f
48b27748
89a91dcf
2f642698
9e7e7ee1
ba0c957e
c6a4ec51
1faa1e36
7da6911e
e19f2e45
49c83e39
3b560428
c5123081
a102caed
5894977b
6680e4fb
7d3e6045
15b0d097
5962d9d9
50a1b81e
24a75e31
1509d24c
285505a6
72890e40
49b7fd2d
24957ffa
89a6f9b8
54532cd4
42c71626
5703aecf
3edf6fd2
89a18344
04e5bc92
6f9b469e
0764ff07
7b579b9f
f5f15f6b
82fb5150
ead40010
459e7b0e
a562bdf0
fc6280b4
ae55fa0e
005ac1f7
e25f8d63
c11e48a8
941858ad
4a2098a1
17209ae5
e29eeddd
00f8e125
93432840
dd47b3c9
b5a3f6ac
20a1ed60
0274f2aa
be1fec79
7231a3ea
5c47df46
d7a21c8b
87562563
3d2f4fc2
bcecc194
338d2f76
9ad1dfd4
83e7566f
a0dd0ee3
09b4dc48
59b4745e
bf66ac46
ba60e6bd
d53605ac
39baf4df
857caf28
972a72af
c381666c
80bb0a0f
0e5638dc
3eb6f3fc
8b7cd624
18b09fa7
a5c13a7e
c6faed66
6370da96
a3c41beb
3c5c4b65
ea122aee
6731bf4b
7de602a7
d2a507b6
91c7d569
70189883
ae9dcaca
a01ec6df
8c9cba4e
163a23a5
efe7da58
af51c9b3
d22304ae
2b748abf
7526a35a
091278a6
ff68117a
62202e67
4bb157f0
1cb93adf
431b0d76
c665a172
8ad3fc2e
2dda9e96
ba292fdf
dbba85ec
4d7f20f6
69e1bf50
acc6ff98
3df0e1f4
007101e0
37a13a20
b70bce9f
3b56f694
2f214288
9d3bfdbd
b25ab577
28d9dcac
b21e7b9c
5c69f7db
0f898d3e
288045b2
1f9c93c0
503b68fa
87e521b1
7eb94754
216c47b4
4196ad62
9904f012
a820dfe2
0e630145
730b3828
889795cb
24f7ada1
a52ca664
9fa84356
37b85228
519fedc7
00de9563
fa7eb35a
c0cbb762
0a8b5042
ca1e6409
89d00b04
b25b097d
5f599dc9
df258663
01764e5f
34506e89
3cfecdc4
577da962
acc76291
d283b7ca
64df68c6
ccf2e922
5680f518
5f839925
ba249049
6acdd9c8
a17d627a
489f66e1
0b122817
f9704a6b
82a6295a
a2c5eae0
46adf35f
5c7df5e0
63668a0f
37eef312
866ab7ca
f7ac0447
d82ad2bd
592c51d8
f2dca3f9
7ebc73c8
dd83262f
0fa9fd01
86837bee
3a5c91a7
b4682ad3
66132e6e
e04448bf
5242c4ca
7ae2bce0
c0113df9
cfab43eb
1db40a3d
0c8f7dba
bdd6e46e
158c7cbd
b46080df
062f086a
2e0a1a74
57ec923a
cb6a110c
63aff7a5
aae8d73d
e82aabfe
1ba7628b
7da77126
19af7a0f
497bcc95
28eafd52
dd28bca8
006e3963
868bfcf2
cb198dc2
11da43b7
37066681
c63fb85e
73447a20
0cc227db
7475666b
31984705
913fb08e
9f4cef81
0ec72ce9
b5499b86
9f18f0f9
dcde6411
a812b3be
bd224843
5e5175a5
ad8fac8f
37cc47b4
e8e02ed0
a6b5bbbe
3bb1f7d7
b444d827
2abd4f17
57d8f8e6
5ba11909
0ea24c55
1ce140b6
c0aaa7d0
0c79be7f
e2ac467c
13c2c9cd
14cd8652
acc1a416
658e05e2
e264a1e5
a9916c6d
edb6fb0c
efe01da0
c29b6ab8
3e6097b9
59c0b596
3ea59bcf
3074a829
8cc186a7
1453acca
7fd243a7
21c54372
56a4d8d3
a4f9747e
9d9bf180
70ac72b2
ee064e3e
53bb271e
5aad7e76
b49f2b32
2ef5b8fe
d0e55859
daadf941
22b8de6d
9fa9497d
1d42344b
adcbd68b
f1f5a317
e07eea7e
94aa0eaa
f009acea
1fd8ee76
d6122557
c6e5ee67
ce013a6b
1db9e6e0
3603823a
bb856fc3
1545de82
5ddc5ede
50e4eead
33ed9f92
54299dd9
17b3edeb
a8b691f6
f6fa85f2
7084e0ac
88941d57
5e5f204e
256ffae5
c2f8dbb9
39fe9231
f316469c
7668b83c
7f5eb8bd
f8aa289b
ab17df8c
0b608355
777859c6
b36a693b
94dc28b9
6ada85bd
1177e69d
dd59be26
5990c521
9b9a2d86
09c19f02
b51d494f
5d437e89
cf45be32
80d04a42
9150b693
284c0c72
33594a63
3cd96b86
13edbbbb
eedf4ebc
e1062e0e
cb9468d9
17f5c2f9
a17df270
01bc947c
a85ef94a
2599fa95
291d185f
130d9349
92201338
941174b5
a3953f33
1bc6e126
e5e99141
2f1ce14c
719b7a22
57f6da33
761a2158
66d6af75
db9fa0d5
d787389c
10e1a940
367bf913
8edb081f
ae78fcb8
d2c79efc
abe6a842
d524e880
9b001659
537a36a5
1da8d88e
7d989558
7df344ad
717298fe
f19cf39b
68cabcc1
8a7f5ce8
ec3f301d
e402d116
cd1b04d2
8aabdcee
b8f51aba
1e99a466
d25e98e3
f1ad6d21
541154e7
ef6b5bbf
32e2f8c9
25192acf
4abd06c7
e4b68a67
c822376a
8e28a963
376462fa
26522383
0b5506a5
639beb53
a7e1a7a0
9eda7e91
be551736
ced1948e
7a361ba6
f1ef992d
f1194da3
851b0c48
201657be
71f0c3ce
a64d8386
f840ad34
b9a01839
1e7991c8
a10fbf59
03db035b
599a5811
901b012e
2e159c99
96a639d1
2c8c9e85
82f5842d
7eaf139a
39e71cf0
72182a6d
e648c753
d1aefaad
cd64a2c8
4bbe8689
b26ff389
aa33e8e3
e22a216b
6457cace
d7103d53
d8f9fa8b
c8efa9c0
9804a7b6
6ab69e5a
6c9da62e
075fab75
d5d47178
2f505d65
e5199cda
3fe75a90
3de609e0
a86f5a07
2e304208
a84e9913
e7dc2db8
38fa3f28
a1db2fd6
068b0f1d
f6b1eb74
8395ad2a
d15f1c10
d665fc23
1d9aeaf5
8ee8ef04
a369de86
cc163cb5
75fbe215
a17ea8a2
556e9e0b
51f66aeb
53411b80
c96d9bd8
b4750ec3
279a7674
36c32108
91c0018d
ec7af089
87da5021
026ce5b0
7fa1742b
1eb18bbd
ec2a0aba
4dfeaedb
9e3b5c14
ac21f017
e9ed801d
ae6af7be
9004d499
48073983
4ced47cc
6eadfe97
28e32731
1f959ce1
16bdd82a
81e511fd
7e9d688b
4a1bb123
ac7387d6
cdde53e9
2c5e93cb
05568fdf
206b97af
e995afb8
d14db021
e854d8b5
442f2877
efee1ab8
69057073
8e397ea0
ad901b87
a2ce7ea0
9bd0df45
6dd0e43b
fffb1c24
c2f19eae
95c0ba83
7832614a
83b3b107
26217174
6f2900ca
d82945eb
fa1c580f
77686624
f20624c4
64fe6e0c
538e3771
49cf7ca9
67a011aa
c8440ab5
8038d8e9
de80b2e9
fbe2b6d4
9cf6dff2
1dce8822
36631831
9a38642e
7efc9f31
ffd55948
373619b5
6d1056f7
b9d7137d
3e7c09ac
27ee09d7
3f8df1a1
147f5b8b
3af74b59
6228c316
05b0cfb6
d19ee907
80afcc7c
842ac79e
34f490f8
aa3703ab
331d6120
79a2bc53
a1cf737f
ce833283
a3103193
3dbca422
f89de079
2c618ddf
b5482489
d6ab99a9
10691fae
13aed60e
d1982d4d
2d8cb2ff
bf1412b7
25042273
aad3a976
b7b89b0e
56614b25
670e6a38
e4a73562
01251a8a
ff73c4ad
07adf3aa
20bf9c29
ae9ee819
ff6e8dee
e210770e
7989d6d5
a7f469a9
ac4a976e
ab9e0d03
647db9ec
38482beb
6827fad6
7132f168
ce3f241f
a74968ce
2abfe14e
1383f322
85605418
a97d9280
c8e81f03
d7bd5832
a2c25681
6284e387
240ab463
ebdc3d1a
85cc2fa1
308137b7
1e0f4b68
939c7cd7
31f88acf
425f3136
8106d7b2
bab39003
f51aad24
2bc38d69
d9fdfbb9
e8942860
440eb842
c1708158
61696fe8
a53ca131
e2dc857d
acba7d5c
9311238c
380e1d58
f70a24d2
dae2409d
19cf89a6
58b6ea15
4fd4f7b3
11aeca2f
24c7a6a5
e85b2161
1e8e441c
6c9e2923
e6d20f94
84dda53d
a7629782
34212510
b73368a9
63d2895f
678763d4
83cc323f
8237db50
43cdba8b
8f5c53d9
2bc7ace6
9850de44
d14ac1bb
4725412d
ca227a3a
9ca103e1
bf1eeb7a
a4cbb16e
4ca7227d
6c1c4575
f4ca1ff0
4ade7250
b48443cb
7e6fa53e
adf26afd
a6b2aedf
a1f5ca85
656d961f
5dee137a
c47a76bc
63830b41
1432d253
98baadb5
eedfa66b
515db492
39edafee
5cc7bffc
42cfd8da
725a982d
9832ea93
23659bac
a562b5a1
e40b0b90
95e1f8ec
09fa49f5
260cd639
84379939
7bc50c52
a7d47111
951f6711
ab899eaa
d9216091
2a747a1d
da82e14b
084aa0ad
0dae81da
2254cd90
37f8b433
ef892159
667cd17e
f626aafe
d8b61aba
31bb14a0
d679758a
71020ea7
a2afd8ba
559ca392
77d745e2
7f91e504
8c4b96cd
f0a87863
e24138e7
cd68f2da
47f53a05
620a06a7
79e2a555
6e511a22
b59d7ddb
e07a37f8
5467e0a5
ff0b9bbe
6c918f92
2e60921e
9e0bc96b
e93534c3
e2c90c24
f2b6de89
5b09d920
6fc3fb0c
ead263fb
7a4a1403
98851ebd
a56d4a06
4ca4dc7f
55f2e9dc
9a3adec1
b1638074
0bbe25cb
2c3dd90b
274b9c5a
464e350a
c28d253f
e1821626
57bfeb15
4b0abd93
5143ba72
690378e9
f0e34084
e0cfff3f
07f72866
127c0864
5356d038
f5a92d2d
2c867a0e
b41491ef
cf0f8314
a8aa993d
7aa966ce
e395c764
cdf147cf
8adaceef
38d1c94e
02489617
2a1c05c6
e6a8dff5
42b12f91
80ab26c3
e3d2af55
20aa6529
97baa198
72def7d9
b7937668
9448aa24
4d7d42dd
0ea6eb64
b9537ea6
23b1da14
8626328e
123aa229
356a35b1
71ca0497
8a1bbe15
33b6c420
2a223a31
3b38a9da
5afe3f47
5f3f4a82
745c6bd0
b31c1a10
b39b3306
39a695dc
6d2ee329
745300ac
bbb45b17
136f6256
aab416c0
1da34d4d
f791b9a7
7ccf77ae
8c227ccc
1bb17e11
f50bf43e
b3ed66f7
06f2cd48
455516ea
f563a00b
202bdf6f
42cee2dc
b51c9191
952b2a63
d9038c8d
952bf683
c6f25d22
55385e8c
fa0f4e0a
4a734b2f
24d1d901
397dbddb
2dc12ecd
798074fe
c2be2ced
e7823973
7d510fc2
c1d93520
e3f110b6
8df4b080
39b7b130
9f50674a
65b53b3a
50351ed0
19a5ad2a
6b5d2659
7b28fd35
996ff46d
74a56ca3
a045140e
0d1a90a0
0357cdc1
9b784146
d5b1601b
3a2b2b5c
568b1425
1ab26643
7a3c1b65
2dd2ea42
01575f26
5926e491
82596117
b1684010
964ea55b
17a89d6a
292181ff
cedbbee2
15ef7223
9d903a3b
913dea24
c4a1dad6
a63df2a1
2151d621
6aafc2f9
05a83db8
3206eb8e
869bd65e
c6994586
46dc7527
6ae0b75e
fe723318
bc79acb6
6b7d0ad2
80d60df3
de90c733
e024895a
70fc612c
b4152c16
999c1853
6ccd9a85
f077e3fb
c71226d6
ea9db6af
dcfd94ab
fa351437
982f9662
399d54b2
a68af388
20c60e53
a8ee9f7e
5da49275
3052b429
bed50e09
11d6ea35
2e590be4
07f211e9
fa730748
8bddf8ba
660d8a74
e0ed90b8
70b6d586
52e1662e
b7a3a9d6
394da5b8
793bdbf1
48e6c430
5a0eb466
9641446d
671bb8cf
52a7cb27
edade891
b98a648f
f90099c9
9f5ac8b4
031cae85
bfad0517
3abf6187
754d0ec3
251e3d67
b442632c
fe8bfc8b
32197731
aedbd14a
c1501ef2
483fbe57
b221f0fb
a81fa42b
e84a0068
940ad613
690a43e2
491f759a
eef8a19e
5c80a8e7
18ba5db1
bb86fac8
5b6f9966
dc4213b7
d7fa5724
1fcac7d3
1cc2ef32
15221cef
a2cbbc2b
25f0ab02
78426d66
de36911d
493698c5
2dcd8a9d
1919c2ef
82542530
4e9249b4
b9651a20
0054e1a1
07518870
c74016f9
ad3b2707
0f5b324e
2825dde9
d3e365ab
a8b02f2f
ebe73852
d4b14167
c51a77ef
c5b49853
3658bf4d
cd96a549
e3059b91
625fc471
b9dac28a
e1ad865b
98dc7b32
ac540791
5ca3da23
6f2914aa
9a78940f
b2f96677
34f5355f
c0a4dce0
a8b95705
0e3a4629
993efc77
b9deedf2
e0116908
f0be9248
c41c6dca
0f29289e
27644008
fc9db1a7
7af35ec7
8bba5969
dcfca055
075465a7
6d5bee60
2e0cc136
955b426a
6ece87ac
842649c9
68e944f9
9599f844
66dcd961
d268faa2
542c0ef8
fe17fd22
b62fece4
a59467d9
05e414c4
e9998786
6e7573e3
9d68528f
821b2f14
e5d2d507
22c6d134
23fc461b
e2f8c976
80887dc9
805c4fff
1e821873
df6ad7bf
988bcbd6
79341f55
6064f7e5
48b8ece7
7c7e0edd
f939b97a
f8925ba8
6c6f4eae
cc7e6d5e
51879df8
29c1524f
d43f7e59
19f14f49
8d6f9e93
33ee79e4
0f6916c6
dc70d8f9
d2dfc40d
2ae5f95d
3ff47a3c
41c2e5b7
ab0d0244
65f3c836
1a4a5f07
4c1df41e
d89dd847
dec39b9e
a36ba594
33e08531
d7cd3503
e7e33d17
778d8772
578c02fc
8e366611
0e9b66bb
13d95e96
a46f139c
d5d51bdd
98f35a46
7b702bc6
6d0948f6
70482673
9f2cbe3c
3f1d3ecf
24d83f1c
e4e05899
45c11563
a7ae17ec
f74a0835
458aba4b
9a93128a
59768a15
babad8e8
cdb5dece
7a2d1d64
76e8ba88
4b237048
be8cbda1
07661245
94d9621d
b51374bd
6345ac60
09b19549
059496da
5c323249
32f354cd
98450e5d
5add2f1c
ecefc926
2f34c788
7eb9df45
4bdba06d
1b1ad350
4275dbf4
4bebac15
5fb15a22
208006eb
f622c800
3ca8ae0b
996884d1
0a629e9a
194d4e1b
ef005314
e6932893
705437ad
0a2769a4
f3934c8a
ef2d47c9
cd0a5beb
e97b7df0
e7030dd1
56801eca
babfbe2c
bf3497d6
a9b130d6
1f101dfa
ac4ecf9c
a66b2f49
1a174557
3d966c51
2a4e5b61
dc1879b7
8500b369
44dd1f41
960b4c0e
a4afa3b7
62eecb69
dbcd44fa
1f254097
48c0cc32
54da4912
952577b7
116b0392
89dfad76
3f5556fe
26e57dce
091e6d5c
8953403a
2a845c68
8821431a
7906c829
497cf917
fed3a2ec
1c30f8ba
37b6613c
9e145081
02f5c801
e1c472f0
2cb4e25f
74517572
75ac6f93
f82d8110
fd341968
8ba68b03
62567698
db999b0d
6cd0716a
473fd8ee
798963fa
9ac54a56
65a3b784
a0e774bd
987ab60c
e95b3682
81d9d688
3a8b94c3
59807fa0
fe8b880a
4878ed1d
40eb3dd2
092ea7af
077aaa33
4569c7a4
3a4ac515
90815740
8f908ff6
a852bc17
16e5e1b5
8ea0b392
05ec8ae1
6309cf65
9c25c289
9252e4b8
d1725db5
7d46f2a3
fddde629
0491c4cc
cfd7ec6b
cf3ba73a
cae09ad6
16cf03e1
c4243998
82162c00
8e47b76e
26a4e3d3
53763f8b
aa07c62a
f2b7f71d
be7d2954
a5a18b83
ac9e418f
9bce84bb
6e2e7ebb
e15f574b
39faa455
b06989fb
1fa2098f
fb174fa2
ef2e8d5c
60036d34
4895e3f1
9a1299a3
6ac57bb5
309cf889
c61dbe57
5d2c8642
cf6b56a8
f7afd187
a7588320
382eb43b
f5f8c0c8
7f51bfdf
3f72840a
629444b1
f3ed62cb
afb9bdae
5b095d76
2b375e4b
0b83b973
fb10656c
01c5b7de
767ea41b
f36180a5
b28df57f
64c111b3
6b2ab67e
95a48e5a
e22855ee
7739f505
d592ba0d
f1759929
48168417
83fd999c
acd06835
f18ff1fa
a648b947
a5ac3bf0
ebeb621f
b2b64abe
81d9b180
70244730
9d79ee23
1b0acffe
d1a858fb
af842bc1
65daacd6
60e05140
376b0720
b01aa180
e6d045f9
a658702c
91c8efd4
6a2fa6be
f6baa220
9ef926be
7be5d04e
58b19d0f
997167dd
25e2e94a
79849800
65ebb6ab
987b776b
22b62f12
32262cec
05f59685
d160364f
14f76fc7
31891f4e
c1b9491c
fff1284e
2240ce23
c803a484
639615b0
c60b834c
d8effdaa
47d44333
5a70dfb8
04a90b5a
7f04827e
9fbf37e6
cf775352
9690c5c5
5e581618
ac22705e
e9d925c6
18b3a97c
7e9b3b18
be7dca5a
65ed4a15
b1b05703
540c41f7
ac28f715
bb120e94
44eb181c
fb029f74
5c5a7890
0a07dbb4
ef5094e9
7a0a1367
2547ac1f
133395aa
6af0c9db
a60c22c5
186b06d3
124e19d2
209e32a3
c9f1d23b
4e727de2
03ba1a8a
03200518
9ee038a2
bb3dba3e
c74e14f6
ac553502
91b365f0
44703459
2495671e
6b8a6ff2
bb83f4d1
41f9f8e9
2ae7a1e8
6b0a41db
b3919fa6
5d7dbe86
ce60c5ba
94bcc9e7
3cbbe58d
b852c1b8
fbe209ab
5951eb9c
e26aac44
5b6f8c96
acab6402
fdae9cc2
cfe3fa81
fb8e3dd1
fde3d679
401d2cf5
2cb7be9c
7f44948d
f387d8aa
33b08b33
6c1a463b
42febe15
df21b5c6
5d147187
10a17e6e
8ccb48ce
3d0e72c4
2c2b0bda
b2ff7af9
1a098216
537bbcbe
c6c98cbb
68d858ff
deb2a39a
f26aeab8
6fe48dda
7a99429d
e4787146
e766113c
e1badf76
e811ce70
fcbda18d
b962b9cc
d21c2e06
704292d1
2d8eaa65
64efea64
362346db
6ce5b7e0
d4e767b3
3a310dbe
a800a862
fd44dbbe
a5f0a0ab
eb5f43ba
08dc9f16
10e055ef
07e83b35
a782aaed
e44cb4ba
a9598884
1999f816
fa7404bd
92e3694d
8ef12a6d
88f17686
fd88da63
cc69f9d9
a32c13c0
2a4e05bd
1ef9fb40
7a6f2027
44e2fb87
b5507383
4b8e8e46
94a2ff28
377c6297
de344ca6
58d56abb
f068a0d0
fa9d1697
7ef74384
87265188
2937ab60
e235cbe0
a20baceb
c21806d9
b51bc2bf
4aea7182
76095ecc
6e4b007a
98a6c946
d9814882
2e8154c9
d9098a27
99198858
83529142
9ea13cc0
9466565a
b387fb22
6b3cea5f
c3adad53
9c2f7ea6
31f922c6
91ef1026
b902a3f1
0dad832c
78e9b7d5
4ce44628
26b2a8f6
da573bd3
86333910
0cb0a4a2
43014e2a
8a2bca82
650a4793
e78e2d05
f769de2f
7b1964b0
686b7cb8
09e27eb8
dea42496
ba58b99f
a136f2c7
b45f0283
708790ce
a3c96bff
6f3e9e92
aac160b9
babc6bc0
aab345ae
4b93da8b
2a8f9709
fca8b79e
06a0a5c4
058838ab
4d89781c
0d254844
cb2e6b74
f031129a
51e0b1c2
4e39d9c6
9826a749
00d18f27
10c5d9b7
de90909a
63cb26e7
662cec3d
7b7e209e
78737cc7
8b1057ee
65f24453
4dce36b9
96c2a22f
87cec54a
03f9c59a
d8ebadd1
acf42c7b
666337f5
6570f62d
9c999e14
a8216e16
c3c9a3bd
4e0f15bd
e23c25f5
629e41cc
d97363d7
08af247c
7cb26338
de99feb6
57497870
aeba37c9
4cc0db65
73ce82fd
7eb45152
c4ab627e
42274088
b69d79a4
262f4630
21b05e99
6ae4bb2d
29daf595
3cdf5fa8
37d45d6b
98ee10ad
ca74a768
3844308f
173ad506
bbd8959b
f0daeb9f
ae7534ca
c2725124
a5b37584
b56e740f
c88daf71
51065b89
aa0a6438
d4b1ac58
29921f5b
670e61be
94e5f386
afac700e
ed890e12
fdb1c2f2
d6d241de
a27747ae
da8eb84d
f0193d9d
31b8afc0
cf0b058c
9ab8486e
76fd04e9
77428a1d
0b6befd3
4e348ab9
5b19e771
91fc2b21
8856890c
9cd2b0d9
e366f991
a6edebe2
86acefef
9fd3ed24
8305170f
6f38dad8
6067ec9b
9fad62f0
8a515f08
82928d9d
ee2ca9ce
e7de8087
8ca777ae
3e2e4695
232fecc0
a875f68b
1f0b16b1
c2d0ee9c
b82a7b7b
6352fd3d
7e8280cc
ab9092d6
73c1a302
d230cda1
391109ab
b3905290
c65c22ea
6166071d
b10a2c91
283df4cf
10b2bfaf
655715ae
d5e1f859
625baa11
74db1966
5510cc9b
ff1bbd16
82f74461
7abe3d5e
e8481909
04934571
a9e39932
f1e79003
763970e7
1fc372dc
5a86ebc8
921a2010
86203099
29e10169
fffa1952
2aefeaad
70ba9ac7
f846f7e2
8e8c9100
7528380a
ea98a39a
57f6cce9
9d8aab23
4ba20bcf
9e16e649
4defb78b
73ff5791
1f42871c
9dc947e5
fb66956a
37621df8
e332e7ad
8fe7919e
9df98910
3142e02f
89843073
03bd0824
2643d9b4
29dc055f
5bc93540
326fc7b4
1af273e0
fcf19fac
a78742c0
194a744d
476f083b
b204fac4
ad086186
42192c89
f7f66ce2
65693246
b14ba4bb
75cb81a2
60e429f6
8d886835
e3f4cabc
8277793b
46632a0c
aad4a220
7f6df085
b97594ff
fdaf5ce6
69a79851
b6262f0b
52e2960c
e4c71e92
504b0341
04d175c8
ba365caa
a9633281
61b07b33
d690484f
ab0cbb19
4ed29da7
9a14c8da
3ee5f3e2
eb8dfb5a
1f2aa5da
b1e7a1f3
1ff2b2e8
56780628
8b001689
1d7e9a93
f48fd7a4
fad5b0d0
9a8010ae
0edfaa80
ff066535
eca90add
2a9007db
70eefea9
54b80ac8
5c4c40a4
9f2b8aa7
afba5e2b
206f7755
ede59188
4c418796
1ec1b076
770719b9
d6f503b4
b29ee11c
b5350438
20358b49
4f50283b
3a1f5c80
e89ebd21
eef99750
191c213a
848bff11
0c800454
d66e3012
e26b792d
efebd4d2
b0406577
70fe1509
bfbe295d
1660918b
5569a5f2
72182be6
afa35330
ec701a23
22430b02
816e66cf
b570071b
898649a6
dec4b29c
55dba663
2361c416
7bfc0ae9
dd61bf62
cc7a4662
1f6dcb0f
f79ab74b
af237da4
dc7530f6
27d8e0d5
bc5cbe0d
fab06304
c3368032
ce1fbb0c
2a0e3c50
05b0b3dc
88e12465
53a8cc5a
bcbb97cd
22eb7820
2d280a22
45ee6e17
c3a254f8
7b86ae52
46188cdb
1e512ee3
0c07e52c
23a61822
166f81ca
7e66be99
93c72ff8
d546b290
c4185cd4
75e1a225
aabf3d96
554ff2b9
80997e9c
0ffe32f6
3f8016d9
859c25b8
8ac7a38a
85d7d673
2eb9d343
64e01438
8bcf043c
5246ddab
e2a170ab
f19c9855
a5b1c0f3
331b66d9
0ca20380
5d302997
659b4051
18b057f6
d08a252a
706d3b27
56b3ba3e
9578eb81
14a2e81d
9704e961
71adaa4d
80f640c3
81f01680
7ea4f433
1ff6f3a3
f7c0b848
38820f2e
74368584
9c589e98
61667406
8d4b0e9a
6d31e5ef
986a808a
bad66bb9
c3dda6cf
6606554f
5a7660f2
ba282fc5
de3a5f5f
6a15f172
4c11de1e
bba71bcb
ce402fde
98e11dab
0b4e9fd2
77f99dbf
5dd2061c
2ab64ae6
d3353b57
6c2eaaf4
98e5a223
296dea19
9fce94c6
a54cbb33
dfbbea34
335fd2b0
f1a70caa
5414b897
4b5ac0f9
6fdf86e3
481be055
9b68f6b9
4b33b122
ec19275a
5a5d1ebd
6d26c571
a56378b4
6aa6935e
ab83d80f
053e32f7
5a5f5fe9
284f91e1
2e19c95a
746f2d8a
a8b8a631
83a6a9e4
5bac314c
c8474627
8f3ad72f
97b3ffd6
87f2d316
907c04ce
58ce916f
60ec2bc7
50932762
ed6af5fb
cc46aab4
6b497ce9
ac975680
d0418531
c8df3991
98fc3c80
2ec0daa0
4ed4a86f
ac90ace9
3adcceac
bb7f5cba
83815565
eaf2c3d0
94e42f3f
4705f7ed
e660710f
86b3be92
28240927
222ba11b
2ea997a2
af2d4297
7590e88b
b96e88a4
f5e5beff
c4926132
0f48468c
d021b3ad
c6da0004
d4f856dc
6ef3a262
21b21402
29cd68a9
1a35a693
ce4fe9a2
aabd4ecf
a1807af5
dc042cc7
f3b56f95
a7bb16c8
901b35e6
9ef96113
ec8e02ca
2d68063f
8e9efc86
b1572c86
aa8d6cef
88238edc
df468b59
2bd64e88
58ff19a2
48a8d709
5ed0cba1
525a08f0
3da40e0e
2ca05904
dd56a052
772cba1d
fc519c53
e5786951
eceb7dec
dfaa98b0
38d80bfc
900db902
73c8b93b
068f63fa
a108d417
9d1b4a20
5b43ccdd
9129669b
caf4596a
2509548e
1e571208
4cab5b2f
60577529
5475b099
719d684d
0db818e6
474058dc
a90f043a
84550a48
8df8eb03
269758fd
5e039e2d
fa3ace1a
f6c59768
d2af9364
d83029a1
388b2a59
539e8c45
86ecebd3
1b2bbd8f
64aac8af
75098d67
3f327621
e3074e9f
ba01bfbd
7fa9e904
d85628a2
78f2bb5c
c13e6a9a
614b2af9
270f5a4b
7821283e
e60f0abd
9961846b
1bc0daec
2295a6dc
c44829e8
a77849d8
b5cc45d2
e3ce7ba9
b503cb15
b6393b7e
dad0c19d
eb7fdf8d
63fae6cc
68ac45a5
599f3466
0a1085cf
aaf76761
c1832349
1f96f058
346a7ee9
d575317e
3898b445
e84f5e8b
29961be1
c1612285
501e9089
54ba2774
11fbe207
f1aa8aa5
10f278da
0820d368
bb1c1eb1
2650b884
d3879790
23624b86
983d0620
7468a6ea
83381cf9
d38bf2a6
4826f3fa
b9592d1d
77948df4
852d1b91
834287c0
ed91185b
d4535e92
791bec12
0c0fded4
0ac0d6cf
aaf86ce7
f58614cc
dc7c4254
7ea8f3ec
edfb74a0
9e482334
8ff86a4f
a67eb76d
d8559b94
b6878214
4f02facf
425827b8
978e80fb
54035929
45420e1f
1294a6eb
4ba9aba2
ffd7f3bf
6fe551d6
03a243e9
9454cc41
c90c3a5a
85e84201
bdc85e4e
264ac434
fac97b9b
a0d527f2
61561141
63e3d42e
b5c6d311
0887e182
d4ec3ef8
4e6c7e32
32e53772
658095b8
9761f60f
97a56a72
71d4aa2d
301bad32
0bd2ad89
4e964266
798d9210
2f79beaa
90ce9dff
a008aa66
f339dbae
cdc14b62
a4fb5a4a
197646ff
7ab91f82
699bd7a6
6ea535cd
5562856b
8df9ed97
e133089b
f42e40fa
5cd8fe16
47da63da
c7005f4c
8ec1bd83
d618750e
2a71d407
e693b3e7
390e49a7
9aa122cb
6651dae8
cfa08f09
5fa47acb
7ea73862
d96f7e2b
db1f38d1
6dcb8d61
d9456a0c
343a0cb8
924cbcda
387db3d3
49d7f344
23f9e14c
3f6ec8a0
a74f2a47
e6bf2d9e
fb148690
b48f53ac
902ba0bc
9abd2f19
7b8dc3e9
a66f3776
4b904da8
3d96bf42
697fdc1a
004f4bc8
9bfd55cd
97df24fe
065094ea
a57067aa
1043aecb
abee1b76
61ed30a7
7ea951fe
4d6c58de
ccadadc8
b9a3d6b5
eca18c60
c0cb2846
a44943d8
2fe0a6ed
df66b5c1
88e5ddb6
7fa6b0f2
55620806
1c7069a0
552eb852
870198b9
3ba805e1
024516e9
5a017c9b
f6efa2b5
e9ecbe6e
052b42a6
28c97341
1ee516ca
cc58469a
8bc9f756
f0d18d53
177edcbc
ba976a5f
2998e7ac
a1636981
4fccbcb6
fb713e4a
a7b52938
22382e3e
e742e3d4
a9af469f
9e7ae3c5
126cd588
052705fa
9a9a2b42
af3d13ff
07be52b3
0c52e155
17169c44
6fa59e69
fb0ee108
cea461fd
a1dcab5c
5496f18c
a54892c5
9f3dbc83
dfbd9099
b63416f5
c8b7d8e7
98a534b0
e44c6a28
9926ccab
5410ab92
bfd6c2e0
88751e70
932c1487
bf77bd9b
669ff3a5
3ad6e6ff
4a821120
d2cb6bfd
8a3067b8
d272df1d
27b146e2
a9be135d
0fa73023
3566fbb0
1208510e
8e66bba3
16625ba5
37e08a86
26a39412
3d1bf9ca
4cf9ab5e
3499e072
735e48f3
30a7a806
d3ae1a9f
19135760
04d95b84
25371aad
c5dd69a8
84934468
8cdf110b
9d322900
4acb5fde
2b17f5ab
42e3d8fb
bada2b58
53c8395e
a60a5199
93cf81e7
198cbe59
cf730726
ba544c1f
646cdaf9
71a8f39b
3a757e72
9ae5820c
9e1a8c2d
19facdcf
f7243f4a
2b3636f0
d7566ecf
58399a3e
12caf041
fd05a118
0c5186dd
e0ed48a3
ebe81b7f
4928924b
112523bc
04a182be
c8506b01
378a39ee
849d750f
85aa08eb
2e5585fc
2cfc0eaa
635e21c5
9b065c01
892b9f77
b0f7959a
2ee08cb1
c2649817
7b09b950
2df7922e
0af57ecb
c87cc817
f0add6d8
8c34dad0
0cecf6e5
ab4bd4ed
a9cb2bf0
c269a88d
5626f3c8
60319b32
f866ba4f
9a65805b
1bece1b8
8bd5f3d2
cf766891
1438861d
d5653e2a
5d62d343
02e3d592
73ac45da
8ad8baa2
568131f5
e9260758
72a78c5d
3a85116e
d6246f3f
1f844f5b
a3cd31d6
55836d6d
e078dcd3
eed627c8
1b9ae62d
096d4966
d652c474
25be33ef
66a09c5b
ac507fcc
69e86c85
23330c1f
39fab194
3cac3c90
9cbe374d
828d9767
5a12ac17
9b747f2d
8cab6cc7
2181a761
44599941
e8b85ade
c6634a4b
f4e69c48
f1d785af
6e112f4d
c3a6cf26
c6f327bb
b7e1ba5a
52a98b66
52beddea
e1a1e90b
de2e97b0
81f587f6
3aea92b9
23c40a2a
f22ea329
08d9f5fe
b66b8150
a2bc7a2b
cee96df4
a2bed20a
14c7a2ec
8d20c270
3a3caf4c
9de8d914
0584057b
dd562b52
e5aefdeb
7a5bbc54
af52f34f
0e572bb2
52a81f67
817a1aca
d9414b75
82385a70
3ed5ab74
c3f2ed88
533b4e3a
af8a1225
afe326a3
f3fe4a88
4f8b951a
7f7b9452
0d96ec6d
dfa26201
b18517ec
fac52885
29ad1c5b
eec1d2c7
7ac6e557
8fa0a196
76d19528
3131ba47
fe9fce5e
30e49be1
ed2316ae
febf3833
209bd533
f263cc98
457a1ac9
6a1e75b1
cf88bda8
79009f67
aacbed49
23dc9380
3e554b3b
bdd612a5
92040aca
9fa8285c
b57538a3
d0d83f57
10f08e25
270b8d36
05465bf9
0bfa704d
ae7260ca
e1603dea
82e4c619
97f2d6d2
22fdc04d
21bd13c2
095f7e5a
4b35d39f
b8d18e28
9af9413c
99551001
1d86bd41
95df8d69
e426badf
e90adbeb
53dac8d3
65045324
b012770f
c21d3aa5
1443a065
73598b91
8c682d13
fd5e8d02
e1d45b99
14983a01
2f47bef4
591403cd
1cc30f9a
73ce5d56
78d5dcae
16d9bf89
d170d55b
493340f7
b99f183a
90f8c0f7
84d078ff
aa4a6744
32d31982
a13e1dcf
ec73e4be
79f7a50c
9805a486
0e4e421b
c35cd4ee
3e9b8bd6
42d279f6
fcee5558
d659e3c5
d39b993c
8777f36f
6b825021
c0caf656
f14fb963
27d7c29d
d0076a52
33942a69
a4bc1ad6
4d90f897
e771fe60
82fc3180
b610fa8e
eb981076
7cda2521
03bf6a75
4fa58338
e1117595
639a3aba
a3b6944b
64e4cc5a
80df36d0
634d797b
2243cbba
8953108a
48985220
d010382b
0e953a11
1484a8ce
1d87e745
2f44032d
ed2e5753
62b6ae70
d8f9ce21
13069c91
e63e194f
789ad72c
f7ed8798
1fd68440
4c58e542
dd4e686e
409a6af9
a3c6cbd1
faca5a87
c491d832
a326588e
544c1006
2ecfad2a
c6d667b4
7977d3da
571ac0ae
7bd3237e
5e81e376
038f3ecb
8d1bf0ff
5d69d9e4
233da59f
649c7428
598857cc
5dec5201
92d39aec
de0c8726
3788ac8e
73d3e338
d864a016
a1521acd
05cb4827
73a34a40
395e2bc2
1a280a54
1b24b620
888d372d
f1ea2312
1e2b87d9
3a313902
4e256509
a7a462ee
768582ab
a6a1eab8
398b7a4f
1a6f0e69
3e3a9376
948c3ecb
b8a37176
2fb28166
4930ce22
49ba7d14
9c2c3f1a
119f8b8f
a84a3e64
de282c2b
7b2cb25b
f73c9bf8
1648abf2
8fc32edc
6d935abf
92044b71
1d6b28dc
98ca0140
c25b0889
2cc13a1d
1cf2901f
c29dd8f1
fa7b9114
5120b2bd
8da0a69d
4ccdfb95
e03d9ac9
462fa793
917e863f
bb32c67b
6894f086
8a982dce
84588769
cfc0f0ab
f6175a39
49b40112
7be6e03a
6a6de257
a2bad284
930b7813
698b3c02
6e8244a8
998ec403
5988cdeb
99475185
de386d11
569b688d
36b398a1
2f2defe0
98299de5
0292ed32
e5c97766
b05c31c0
ba562063
e59e364b
68599721
7c574818
c5dbee32
c9166c70
388009fa
e97a8700
7df9e295
07968cf6
f59bd288
06120286
49b3b0a6
a304f1bc
d67dadeb
0e64251b
91c63de2
139ab2a7
ec44e1bb
b459080e
19a6ab1b
a51d53b4
17a08bb3
8895eca5
33c874ab
12bf3e69
690e34c7
2799658c
f370febb
d92861b0
6ae37b7e
5f6a8afb
111802f0
2bea5ba0
6995dbb5
f49faeef
43a7f482
95ca6a8f
7b35ad1c
42fd6bc1
7d7baf73
ad076eb8
7e6c748d
a080eca3
a41708ac
4f445069
965728ec
c7690598
f3513a4e
bf76d022
6a5c1f83
e7b9b0ff
ba3624e6
046f6101
e7e179d0
c619d243
fb94d1e5
40620db7
46953f52
dd83f100
1aa330d5
58325662
b4e8957e
b27f1701
1ee98820
a77e0301
8446451b
f7221292
79659eb2
3b1d9b9a
f097226f
7ca1f22b
d7247bee
9ff4b082
af537ac9
ae1ca197
66615194
2e7929de
ce4b51e1
89f5b844
07a65ab9
5d18576d
20dfb092
1f05190a
45c509ef
ab777220
ab8672a8
20a3e133
ec666def
ea286008
31928e15
f2e6d9c4
13d12ce6
6bba70d7
4e273a85
a6a79fe9
a0a0e765
17084ea9
b885f6cc
080ad070
ee5b6960
6bb2b4be
55834f6f
c530adc3
efd66ea7
d4797ae9
ee8cd6c0
9461ca8d
98875cec
5d2777a9
fa5b5d7e
01817a66
9bb5175d
3520622b
f58be5e2
45ed1e5e
d18ca8ab
7172f67f
937633cc
28898925
e6f67806
1a757e00
198afade
a75cf5df
b62ec278
fe15796c
be8d2933
57088c9b
336e9673
3d11749f
7c7a0fc9
9ea975e8
7fd6d033
1ea8b527
9193896f
79439beb
c57660bb
61db059d
210a3bd4
9320dccd
b9aede5f
44d11bb5
246eafa7
93838c05
89cf4868
bbfc27fc
ad83d3c9
a1d4be23
3b7ebe7e
74c65d6c
890261bd
a42557f8
4eee53c0
69f308ad
0ed6daba
8857a1bd
b02d04c0
06da1d59
62d3f830
1e8eb86a
35309e73
81669fec
6ac94a07
60d97b63
af24ca80
ca025c4f
b229a8b4
35a98e2b
78805fdf
0ed42519
678297fa
df23e93d
c546ee5f
899faad3
6baa2a2d
3f273abd
a83d314e
892163a5
a5978459
595dbbc9
9594eb48
76f0beda
8565ccd8
02012ce2
a459cd16
515a7f05
a9357c5a
97759a0f
5bfc3f64
70f658a0
5e839d6b
5f4a8d35
ec8877f3
6e5ec3b3
9267d157
3c25149b
262ae7b9
8fc25c7d
3acee2a6
c2b8a016
eba7a838
20ffd2be
c88d6bea
50996d5b
5cda6bf3
e438b882
2a45e61a
129eaad0
9071a1aa
45a295d9
d393e929
37c09469
ab51bec8
a89cee45
d44afe9e
d334c122
0b098aac
bc4d96e5
e6e03354
61ab1e47
c42063d5
48b3b44d
a8a75a17
de970777
819a8f79
d0840a45
bc40e1cd
5029052b
22a60edf
f9a8e1f5
459c3c3c
5bdaa95a
47ee2e97
03ffbcb7
35631689
53236d79
1298f92f
c0bfca0d
fe6fcd18
102b3641
7af4c41b
804c63ab
a68c6789
d38994ae
2d2fbc57
64c3b959
1909a4aa
e609ad66
bdf94e78
d3e12e29
bdf9171a
2ae91207
e505052b
ad7b2ada
b866af2f
baea60de
2ecf97cb
c1b192c7
be87a075
78c62339
bda1e546
10bcf051
f9fbea59
2333facb
06d6447f
56bcc638
99268792
7780f086
b4386ede
3b551456
ff5cba89
de2eeb32
e65c9690
6b9d9d65
45148596
0f7b5c16
fd5415a9
7dcb6b65
07ba612b
8e756b60
ecbad35e
2f30eb67
65f35ec7
9eb84fd9
3c889e5e
a09bb9dc
e7c8d236
3a2839a7
6791733b
ae4842cf
e4c1a335
97a8482f
d6d1e3cb
93286b0c
88d7ac6f
86ab3b5e
bab9908e
fcd29133
ece761cd
a027be8a
28a60f27
14986c24
19eabe49
01197afe
fa2b682d
ec488223
a440a69e
83ca53b7
0f4b8cc1
d2b91c61
15519093
09bbcac8
fcddd4d5
fa453cfe
df306fc1
dbeda5f2
8def0acf
47c18380
6ed24c35
bc259c32
7a1a9195
db65f62f
c63cbba6
a1bd1b81
d88560e7
db3db2de
f866bcba
5ae70707
cdfb5866
2d968ecc
38e63535
bf749ea9
efe9b710
a3be1e70
dd6c2984
038f511e
de68da08
f79a2581
f749dee5
a959fcf0
bfc590ba
e9c02dc3
8988386f
fcc61824
a77aa66a
3e723f19
43d6a99a
13921ac0
f14db76b
875d0ad4
a155ce12
e80107ad
1c2ce38c
fb7e2ca0
04b0c4bd
f6988262
15f77ad1
789cd99c
37cb94a6
09e1fd09
2fbda99a
2389ee06
36cb5a7e
1f7efdde
53ba181a
41829eed
36814099
c0fc29f2
24f4778f
eb2638f9
c8b2ebe7
41d93291
688e52ed
3f48e2a1
fa7a8aa2
b7786bed
77f3161e
8d69f4d9
9037d512
bdbf09a6
f2338eaf
0814f7bb
aab8e08b
5c9a08cd
29a145b1
af33cef4
ab2382fd
896aa864
5a848a8c
a4878f5a
6284ef0d
e549fc7a
8c6bd520
69d9f002
2b885ebe
9c8ac09f
ee46d699
875b2a53
dda19a09
5c5c7589
ca18a92e
012254ce
fd25aa2a
355bde3b
861b5634
587eee12
090f6aac
8aea6695
c9e1c96c
654299b8
26d6bf8b
687af0dd
abbb2652
916ad049
9290ba5e
ac604cc4
065367c4
25e7e5f3
873db38a
9a5d81e1
b6978381
3e1d55da
a9e602b8
729faaab
c25914d0
c6ec0736
4df23502
ae39c179
ffe54a4c
4042fb3a
d8748532
718e97eb
1e709408
cc6fa71b
e36f7742
f13f1be5
d78feba0
d8758eb6
a89280ca
ea09c8b4
e85d084a
c94e81ab
40b423ec
42697298
1d230a7d
6ead447a
9497f174
d7fd629d
ad10e9fc
310c0abe
289719c6
4fd1857c
0bb634a6
431f3b82
ca3ad5f9
f097cd8d
a78b1079
cfaf4ef8
37e1513b
86ef0d21
a6fb847e
fe23ad12
b9762e29
6b666b77
cf478fa7
0d8114e3
b8de6d7b
a9cd2101
7a1968ca
5c6f1ca6
35058653
85eb48a1
f7595882
0a4f26b3
7183a864
7c4aaae3
30c2bdeb
5572cf6d
fa811022
99c1b657
b9228b90
a9c3f43e
5a7b3c54
a4937e7b
8dfae318
79115ac9
53941319
bec4769c
b59eb97c
1283a297
e7e29086
b9ae5936
3d75d4d9
5a4ac9c9
bbf06806
1cae1cbf
bc08d658
bf659194
ecd2d728
dd3b67a4
5943ef22
9baaca52
4573274d
1e0d1acf
e1bd725c
7f181399
31e8a9ce
43e051a0
78ab6ccc
fef4e368
0c89b6be
5f570e06
efa4c062
f6afa321
953351fe
fa505600
2bc937c4
a512f2c0
db21b533
31416f4c
c6fbe384
b2750301
adb906ca
a786c215
fda42ecb
7292e902
e24a4583
a85fb4a5
08aaa521
3f1b5f63
dc4f81b8
405bd1be
b6c661ed
dae678c8
b77c1801
8a3c3283
74fe1279
f279573f
bc0f36aa
bc4b7460
95894ae6
75fd82ac
347ffb3b
e982153e
d82c9cba
7f5d45a3
de377bce
ba3f4180
0403c0db
12e41872
0d98ec81
1b3f4b32
1108fcc7
f9b4290b
32700d29
f35b69e1
30dd7424
7d9ce2a1
5bad1fe6
11c7bec8
4b4d392d
c5790008
1a95af39
03a55817
47792d35
5cea9cea
e798872c
9f2046ad
dd83e6c9
8996ed28
ae6a934f
cbb85749
11ce2df3
3e8cced5
77720c44
02884b55
c561a241
802a3675
64dfa323
5943db55
4c06075a
9bad950f
dcff277d
140057e0
c53425b8
c2c50252
755a6820
2343b0ce
47603748
efb0468a
fc9495fc
bc70858d
10d762db
09107736
9fd9edab
db5a9320
8aec7efc
ecfcd4e1
c3b351e4
ddbe942a
e2afa404
0410352b
027b2542
fe120ba0
af5f5468
707f9d30
2984bc19
d5ad43d8
8dc9b8c5
f495cdc4
83da25e1
e333651b
4ecd3eba
7f9063af
95bc43e1
9ecaac58
2fbdae6b
447f4953
5a5a696f
b913a859
b6f854ef
2f73b843
ba02bcca
39d3c14d
efa78fa3
12379239
22f5e737
11928ba0
5cb2fa1f
4d6663f9
80c104fb
a4eddb09
55837b1e
56e1e5c9
fe1b8b06
8546c57f
6bbb2243
a371a17f
3ef679ae
45ff579a
9d4d391d
c03d42c5
42970f98
255928dd
97c05d03
729f4c5b
771886b1
875ebc86
d909e662
15bd99e0
d5dceea5
2e3683fd
1549b3b1
39c988f4
f24576dd
aec0d4b0
8f972791
f51e0063
ca84948d
739057b5
1881ca74
e3893ac5
61f542b3
5a2356d3
79e4d2ee
cb899f52
43dba401
11b818f4
3f997265
719e43fb
337effa8
e07d80cc
e62db7a9
e0ab1a15
b11a81ea
e0292c1b
e468678a
7770f58d
826893ac
afca6c91
f0d6aca4
63dfa249
5f4d75ad
c8b5c22f
22363173
1ab529ea
9aee7d68
a281ed97
1ab6d553
b8e4031b
02b13d3d
16a8896e
b59882c3
9c2222ba
38463c7c
bca296b9
ba3d96e6
bbe762d1
d0849dce
1d781ab3
af4760ec
b0f44af2
922e74ee
ea6a3a8d
51927bf3
bc02312f
61f9be23
5ee04d08
ee749213
6fd81276
96eecd3f
c6acf025
af0b8584
781117e6
650550cc
723b7469
7b8c517d
17085e1e
723683fe
7fbd8cea
2b89e521
8ecd5d6a
47eeb5b6
59f62bcf
beba4030
78bde07b
a00a25e7
b60e03f1
c53fadca
e21bb0d9
8367e6f7
4d7abe75
d84aebcb
ad47c22a
13df1623
d175cd2b
7a597985
86e1fe0b
2e98e420
ea88acc0
e85bfcc9
28bee1f0
e7ee9ae2
0b8de843
0efebf08
875dfb6f
6be549c1
a5eb4452
5e9f4a3c
7a7b4a80
f7c85579
f6b75c25
c07e392d
fc8bf940
911d852f
f5609bcb
8622f3c8
6e8b4d81
86187a1d
c0b6ac35
6f67fa84
6b6faeaf
b44a1f9b
eb25a875
89546b6e
59e5188d
626a446c
84be9e8c
00e61987
53e2f592
c9c8690f
9bbe72ef
9a4b4fc0
c4d314db
a4969586
22784baa
f2686447
f26060ae
9b7b744f
7130feb8
e78edc88
4f60f699
592a38ff
baa53dcf
de06cd65
4dbdd16d
d1940cbc
6d35bec6
db61d019
b0364fcd
2ab8fafc
e5f1a527
799e2f0c
cca69c29
8a88bd86
deac86e3
a784a9af
9b1bac69
27d1facf
c5292e6f
e2be8a13
7563b9ba
0d0899b5
8f3d1fec
3b9551e0
84cc346b
585c29eb
992f68a1
72f0eb5e
ba5ff262
807a00d0
8abb1b28
6fb57982
6807683a
3a67965b
d88bf068
8b907276
9a82deb1
824a22de
19b2ca09
4baec877
38aef6f0
8170da9e
c71a3725
586e2582
10563d57
47ea725b
a11abe49
5377a8c6
81bfe26d
4abc178b
5035993f
2e69627f
7d2ef63b
c928b08d
a577c5ba
d059b338
a2de5b63
18ca5ca7
8bd48dda
3f20203e
5136b6a6
953a98be
4041158e
928dab6e
c3344104
e83a2ccc
b13464ba
381a16f9
4e5e7fa5
9e7e50ab
372906f2
53a09a30
0bb9ae13
eeabfed7
b26db6c3
e83b3be0
472f7249
682a51ad
56433035
d2e2a549
7eda7217
be626e2f
e6781047
b946db16
045da715
b84e16cb
df065650
1355a488
dc6ccfd3
24e02d2d
ae5e8d24
d55ec3d9
97c27d2c
bec392f6
9268b302
971df4d8
b9c4bed3
1dacc645
62443b52
f868ec8f
98dfc159
c1477750
ee64a627
bc01bc48
4c8a66a5
e43dd04b
3fe3f5b6
6642e358
3d999a57
c830feb7
5d9ec513
d8a124ff
f49a9fab
f5e802c0
1cfaa93f
3e8e5153
b17af93b
013da841
61865e1c
236a4738
2029c9bf
aeb46766
fdc341ae
d93897cf
0186c73b
9449bf93
8744cbf2
f5485b5d
8da62551
a44766ca
72aad962
26ce39cb
9ba00aff
88ce0cbc
c5c133ca
22fa3b55
b902c8de
4fa1303f
ff0b4f86
312b0758
33ac6e6d
0f0843f4
0c416657
336267e3
ef8fd5bc
fb1ca7d0
2680d580
13326ae9
a804c134
e0db191a
5a3c7ec4
392e5648
00331f29
7bf31891
938c0b1b
9c142aeb
340ebbac
b72a1e1b
76f02fc4
7c4c2aea
f52cda52
b128fdd3
a5913155
fb44fded
646fb721
42e70116
fbba4194
a50f65c7
ae8e8ef8
b321416d
c8af7b2b
84f04828
6a624b9c
5b31a611
3188c156
bb82a091
9e2eac2b
f0e51e41
bfd0ae34
2e8e0c47
97e023c5
cb2b347e
f53b0826
cdc9da6f
1e00f2f9
fb12a688
13f3c192
f1239161
9adce520
23f4786b
2d89155b
ea914238
77445c16
cd3f81a9
7fdfb4aa
9943f54d
a8c9cffa
656a303d
71b62b68
89fb98c2
af214192
92960c8a
3b5d353a
eba36239
28a69568
7c25f1d8
3e575d64
dca9d66d
571b85e1
3bb29307
81258735
befcbcbf
88870d22
9268afff
1939e676
d8142ae2
e8f26d78
44b83660
23048b9e
8bcf8b99
fb0d5e2d
0f0c1a67
275264dd
de8faca9
fb890a0b
bb0df302
c55d2642
315580a7
aacecee3
468d9551
eacea8fe
c02cc8e2
ea6ad988
73b85bb6
e2ec54aa
e0f463cd
b4ab349f
e99c6ab0
c3a006cb
c1a76b01
02295f49
9af7a2ae
9a0af758
f8372f07
1b97b01c
00ff3b91
83cb69dc
c7325cab
8595b902
66e70062
5dbde6de
4f5ed8d6
674a10bc
2ea4317e
12b9e32d
d44a4b10
b0360a49
2cbcaa0e
2139f676
b4ca3c19
28f6f9cf
9e33baee
68d3f934
e38ec71a
17588e6f
78079de6
4230e9e7
a620d610
d0dcdfdc
b3bb0b62
e3940bdf
4da6fd2b
d6e6700e
23b941c5
6976da61
9aeadf2b
a7a0d3a7
f322bcd7
a9f4ab06
9fca60ae
1c055548
a03189ab
24054c49
557b0a6c
74fe7911
8f53bda5
c32038c6
3ebf2fa7
d01cd3f4
24526df9
1b9f1674
bf11ca02
fbbeefae
f0ebd73b
b2928f04
93585414
2ce05c63
3f9c8156
5a7a4873
52e4e1de
1275e545
c146f621
4ca0f327
04c923f0
30aad7e1
b48a6aac
647adb6e
1e949770
b0e284ba
51110602
70599d22
10284c9d
4301a186
4c254917
3c2d8b20
09ca87b5
82e0363b
56690b42
58a546ae
c3bce686
d7d1a4e8
f9a580bf
0ce9a89a
259e7f24
82d19e1e
b3b69a87
227e8603
a6fc9731
26259ba1
60db61df
b2f80c7a
2b8f21fd
1297d9ca
7203443d
cc459a25
a18c6511
d6893a92
862a9480
21d0bc01
cf48401c
1dec609c
e7428fe1
90b5a8d1
bdd8bac9
6384616e
4dff2927
8f60e976
90412bec
0d46b7fe
dc231ee3
3b056e62
044d289a
8554c0b4
71da99a5
236a604f
d07e22eb
f10e3bec
700019e2
9ecbbecb
f13c0380
974772be
d3eeb456
2c9fdcb7
15f27a77
eb97724c
64d089b1
163d5c82
9582e1a2
90810d59
89661831
05e3e794
8ee364df
d848e8ba
81da6c2c
da521e8e
0bcbeaf0
b3ca9311
c4e74a2d
1d9ba538
58fa6f1b
a9a51b52
42722334
3efe5a4d
ad3d4c6f
74b533a2
e06e9c6e
8e915327
b0ae8e41
6674c159
ca1bde76
ccd809a6
e2cb8b68
1e4507b4
86b39402
3e5d1edf
2da76eac
8a4aa383
99d38f99
65619f0d
2ef25959
d08e146a
9593d697
3dabe106
cc243d83
59d81817
6a1ad479
96348cde
79f225cf
0c7435ac
0bcbb8ee
1146bf31
622a2a3f
8cdae602
5d169b6b
8c80eb6b
065bb2b5
6d8d9b69
0f6aec85
685e03e6
fc7ccbe0
f79e000a
26232d9a
9cb31134
af0b94ee
29769680
86eba93d
892e1ddc
f028cd5f
6b18c9a9
ad3ae4c8
38ba47e8
b7b73827
9687b517
68b88d19
95910930
07427389
82e4b339
b0e651fe
f3eaa0f3
f11ceaae
f222f95a
46b7bb1d
9c69907d
e5b58579
3fe9ea9d
e7c7a366
c5fc8bef
8f18c82b
80fda2e4
f44cfc69
c6387aaf
742cdaa1
3d6d44ed
93531cb1
adf244f8
26e093a9
a68dd342
c2ca7c73
c958aa12
8b476b69
9c9c2d42
a739f88f
688ca775
79cb8ea5
3271e061
5259c2a3
17b6b59a
8a89f56b
b62e4a40
c3a3c09e
4285638d
a9d8ab15
ee82d18c
9d9e8826
2e63d7d9
9f64ad8d
0af2cfc2
eee82636
4e5b8822
82b09b40
b4f9da66
aa4b4a9e
6cc883cf
9867ecb9
2f440f0f
f422f0e2
f2bae187
27cad4da
087dfd18
10bd9d12
73c78f4f
833e54d8
85bd6bd2
5fee35e0
65784a3f
0ec9ae3c
89e38727
f2d924ed
5eb90eed
5b3d3cc2
eea3744b
d2a48ac4
c9e997f8
482c5f63
c35889eb
33245f2f
c82e748c
a5a1e415
914c863c
50d6e755
6ed6af37
a7d91e08
8289da15
39d0a464
02c54e79
bf0b24e6
df201297
87ddde64
dd0c28e0
ceb36059
b15f4759
27aeaa38
bfbb0376
1ea57e0a
418d7761
b173261f
a83592e6
ef677b33
f027e034
1a6fe0cf
1872dcab
6e0a259f
d29bdef7
27951012
522e4550
e76f9707
8a97ea20
d559dbcd
b91409ba
e56e4ecf
4c322d33
c291abe6
5ac39beb
e719e829
59ca324e
23803a6c
fbb2e4fe
e1df96c5
d45ea025
965b1693
53212fd2
43159025
5a3377ec
3bedca1b
b56a8826
b1b65f96
9731b120
90328dc7
bd570b4f
e0d270df
6501ddc6
628d0ee3
6accdae1
596577a8
1a190cae
425b4892
00afe340
6cb4d6e4
3dafef6d
b953b19d
ad2bbf43
5bed8ea4
7f327ae2
ece772b2
3c1d8393
976925a4
e448aa2a
a4e07e1a
116eeb75
030f56d7
fcc3aa83
4b0b0caa
caa66cac
e1d5999a
f3a7d6a5
51204a44
70df8469
d07ccb85
3e58948a
bd439419
a0f3c55d
86ed3878
a1b18d17
e5025f4c
90f2d56e
7b8dcda3
b8124d57
ce78c31d
2ac224f0
3e8754c0
d43d41a8
d6e8d3ad
97bf6b2a
98bb052c
eebaeca3
f97677a8
ba5270d0
ccf38db7
cd417497
a21f6c47
9fc646c2
ae653aba
dd335eb7
93c2a27a
98fc0a29
c9113cb2
9f242a02
f42f326b
7238b7b6
7417fa19
18f1709a
4b4e68ce
ba22ae90
d392c369
b447206c
8dc4ba6b
65b5e495
e9e0cdd1
e84af938
76fc48c7
0aecfda3
0c415581
2797fe9a
0486f7ed
f76a2bdb
be94ca88
6c58179e
ad7a80a9
d336bcba
834191e4
4cb3b564
c63f47ae
0007ae6e
b4f4793c
ddbfd937
91294c27
b4f476a7
114eb840
016f2eb3
30eb3397
70918c2d
440b71b1
13907819
787ed32d
33f75792
c3b5211c
b68b0b57
ab0d544e
c366ad64
e035f7ba
840abd0e
dbfd3ef6
c7c42abb
7ac81d79
21ff3b87
9a8f2c0f
dc3ea623
0aeb5eae
d26f148d
5ed93d27
605e22af
88e68577
522659f2
6a1f9a5d
db509092
18f6aa14
fc057275
a63f2a16
ba8438ce
4eace60f
df64da96
f57a508e
b9371447
4ad5db26
31d42e99
213eb479
b19276c8
288848ea
052328a6
fc8ec20a
9f48cd0e
cdd2b38b
646b39b5
1883ee6b
d9df9aa6
bdd559a3
52df50c7
0cfc249e
63ad7662
80f39308
48e09ee1
8b1d51b9
e29980f0
6d24509f
e2d2e53e
9db46034
5ad897dd
c16b6f6a
14b1afea
a3bcae7e
9ef1291d
44859f7b
d5b02663
e5b32faf
9cc3e4b7
88fc9b0b
a32d0262
8b18263b
17c6b94a
4c4980ed
d8f32cfa
ca64774b
f2a60d86
9dba27b9
e95bae9e
a0d7d649
dafb46e9
0870593e
db348e09
0a1019aa
b7ccc0a9
0b8478cb
28498263
91e42973
b550ce6b
57c9df1c
60a7050b
6fdeda54
8fc7bf02
5e339893
7d54e994
c77a24c2
1f2d2445
f332cb53
902bdd39
9427eaaf
8e77c06c
1d689e86
d572b28e
db21b263
9146b834
95390438
ee611fcb
4a4caa6e
7ba4dae1
923de5b1
be34caf2
eb3c74a8
edb83114
e7bc3a40
e8108f53
5bb3853b
cadd3cf7
26dde9cf
839ea586
8a1f21b1
8c28d6f8
79340ab5
9f6815c2
c98f1b72
58fee3b1
21ddc8e2
e7618bf2
6caf3eb9
907d2f38
963bd507
76521b83
a0067978
624a867e
ac56b2c4
d9fa28ad
a307d159
c4e63265
1d9f6685
6458b62b
7b04440d
537d413e
cefdfe75
a849e2d5
8b0fc3ab
ee083063
228a3ea6
d10612e0
4a2b2964
6045787d
2afaa4fa
3ac27291
90a92a9a
e4ef7b4e
89275f13
e9b33a56
1ba8c8e3
b03e74f0
563ae911
7bcc52d7
4b97a93a
d760e6a6
ce62245f
25695b64
58c668bf
a4b9d574
f3043668
e1e4d555
e18a49ba
b0bd907a
edc75324
b7afe407
551ac348
9914cd14
f09e36d6
63249e54
63252ebe
867c77d1
6d5e11b8
a8f0d21e
09b0fa83
a9e9b99d
dadc7b62
2a0ee7e0
1cd3abe7
99be13d4
3ef6425c
8169c762
c1249646
7e590427
31764e6f
804a8144
20a4c3fa
863b9827
f70f2218
2eeea26f
7ce556c6
30bcf9bc
ed4d3218
723e9e2f
c8ea3ec9
7c72c5bd
ee1dd5f5
3cf2d263
9a43263a
e8190f0b
59066f29
0722d762
7cf563fb
c2d49602
acb355f7
2c100436
6d8f49f6
9e3ccc7a
7a5bc10f
def0700e
e22b78c5
e8775615
5b9db3f5
8dd8da30
eaea5235
c5f8d7aa
68ba3f77
8ab926d8
4ff2d3fb
c7b59423
0261bb72
6ad872c6
c07dec9e
cee71295
3aef4b85
e4ec5ef4
a5165209
24976462
4326f6be
7c57d55f
4e9576aa
ebda1f4f
bc807328
fa3fb4c2
59f3663e
bac7b596
8043e65f
9be0813f
fab0e642
26744b8c
8a028c1b
28e1f98e
adb9026a
4e31546b
eeb64406
c1bc199c
e804b85d
90621a92
ae83a1ec
8c7b08ba
1e7c20d9
9896cda1
8b0e4602
c0bf833f
b1843faa
76256665
cd78e80b
a962cbc8
925a31dd
07232ee9
db208c47
a18e6185
95d8034a
93cf17ef
79c9d322
c20241db
edbc330c
cfff4ef6
25b4cf6b
85bf8c0d
b08a297e
5d19d638
600d1b0e
cdbd791f
ba572e50
540b3f8c
5e20f09a
869db92e
27924374
fec83666
2becd254
df969fc6
bb2b0e42
1a346a77
1d9e8604
98c8687d
da0a9a79
b26b82e9
5174ef76
4dd094ec
3bd47ace
eb14a4fe
20baf2c4
de5a129b
82195f9a
ac602517
94cf806f
ccc836b9
73613a3a
707adb0a
2af37d42
faa8c91c
0ec28f76
ba8ff087
575dea39
2cd5a680
69470873
988e8b82
adb99a05
4ec674e7
d93e2cb7
e495d56b
c810e0d6
246edfcc
ea1c30dd
73c91296
cf7aeff2
3ab2ec0b
0eb3a6fb
b7fc8767
96e191b5
b25aa130
b4c03619
446c6af0
00a157a1
a6ec96d3
cac60c51
c95622a4
80846e0d
dc619768
8fa8d016
77068a29
11f68222
624b642a
76490794
305ada48
b08c542e
21ccbe92
e854a4bd
55bb40ca
ca00d675
3ed00d2b
02ea1f55
78810684
4a83b1d4
ca356f25
bfe986fb
31890156
a5a94b73
b3c2c7fc
965e2e48
c2675195
fe958920
ec8a53cd
aa3de0a6
2e70223b
ef2d6b93
baf5b509
d5886699
3bb194ae
6afbdf87
e82c3709
206f1f22
8753471d
83fffb8a
1bb58e25
fbc8f8f2
d1b50623
c52cefe2
94b6f44b
a3e7917b
293fb772
83eb6871
0b5ac29c
063032be
86d721d9
3c4085a1
1db239d1
1486be60
c82e5f4e
780ffab2
b2c8135a
d9a6cb0d
b2de9ed8
1cb5dfe6
9704a96a
38167c3b
a68cea1c
9cb485ce
515a48c0
2b90f1c5
65f31202
4bbde5de
5baca188
50f38bb5
2a6943a7
54ad8ff3
683dcf6b
532ce1d1
357a847e
a244a051
68ecc472
92fa7374
b7e9b174
e27dc393
c4ffec66
1bde06ca
7cf17a47
0aa6041a
ec92e872
46880cda
f00d973f
616f4a64
9f69cd62
734af2ef
47a573c2
c15a845d
9b379124
a44d8015
212b34ca
6c24e349
77855ec0
500e7bd8
587deb3a
b07c6608
0a868d99
17d99598
60e3355b
cd5a26eb
22d5f8af
a3e7689b
9ace794e
71433e7e
73cf3578
2ad4736c
9ee23dbb
1b7af00a
642f66c9
b2875ec5
3bcf6f34
4aea72a6
f2ab967d
fdde7d49
0b998ce1
7962678b
c223fe24
53c77f40
c5fbe1ba
9c150bcf
01aa693c
26d06822
680da5f2
7c3284ed
6697a1e4
b59b0515
a0beea29
93600e2e
58e322e6
312c9374
425abab4
ace81a19
4cf0cba0
4327d9f1
0f8a5a09
2aba5a3d
faf0ff96
cd48dba0
6495621e
9abbf0b7
466354b1
679d3ade
3e9a71cd
fb2ca0db
0f5945b5
1635b112
2f1e3039
b3929a3a
ed3aa6ad
f7e8bffd
85519ba0
2888b755
850dfb6c
084e8bb5
e6db91d7
e5f58892
864be7ef
78e82b5a
93020ae1
3b097be7
474d2aad
8e196299
3215a669
d3f8d79e
11b39af6
83aca62b
e178793b
2d083fab
6a5117ad
0657739e
0b825169
ab6037ba
92f4a681
6b26905f
287efb5e
9df9f8a9
09410915
8b1d08a9
12ad0fdc
e559d084
48bc5526
17b970ec
75a90fd9
0daddcd8
45fbcb3e
b6ff3212
09f6b462
66f7da48
517aa3cf
4b5519c2
8b88e1f9
5414584b
4a89f859
24e0c04c
1afdbe8a
78017a1e
bb213a84
8b4a3176
bb0783e7
8efe94aa
5f656d6b
5a86f813
40e3f04e
d9dff0cc
298cb1cd
a5efca9a
7e00c1fa
e442a9c7
1d649a53
3a446e3c
ffd52dc4
82411959
1f125e70
788018be
c919e734
4b22861f
0bbbf648
23185c4b
9faeec3a
8d426bdf
e7a8637f
610fb7cb
c536b019
85c12065
5fa9e118
9602eb45
36d510ff
ea6812a3
02a43bf7
e08ebab3
d5b3f823
6f427da6
cb882308
39b06458
dcdee8b1
b2bfd38e
ed27d4f2
ec277d88
b50f5c90
061dc482
ef77c7e2
20a2a70d
bb8c6f71
8cf5682e
6a789dac
d86273d7
1dbbeff4
6da9caac
80afaaa3
8cdcf59d
e1592402
033ff396
3a26a7c9
f8e22a2c
3b42938e
983f03e4
aba220e9
71a5ef4b
686ed980
ffeac3dd
8739debc
d193a137
763ec883
86810c13
64e33469
e0a2b0ac
7df2aebb
bc55f390
80526b62
750f103d
b5cca2e7
902fe58a
2f6a7309
a068ed9b
7267e1ee
8ad7aa47
d13bb197
52ea29a5
d812cd2c
ab90973b
177973e6
74a54e08
84ad74fb
f5fb5672
372db113
90d289eb
fb13782a
d00e8907
a45f85bf
0d1c6839
9a7ed5c0
a25f5913
07bc73a0
03d15671
bbc6d2aa
de680bac
ed021ea8
3f5809a6
053e4687
398a48aa
f038ad57
cd44d08e
d07c7714
93edfac0
938a87b4
5ef8bbbd
25060718
3101b772
d998b158
a9704664
bea7bda9
a55b293a
60b7730e
c882fd42
a6e4f092
297cbdcb
e4ca573c
7239b810
1f1a170b
2b940d2f
ed08a4b0
2eb656b7
b262e7a8
b0bc5a14
77e13946
41fe51dd
f2bbc634
e11c403d
4274afb0
0b653983
c75e80eb
f6b0377c
0205c339
35427521
ba369cce
bcea4955
c41012a7
ba429d55
12f5adf2
a921af87
d6089cd8
e811bc33
0cf9eedd
0ae5afc7
a11b2685
ec9475e9
534440b7
a1297db5
6f949981
d529f15a
39a30bff
cd66bc36
65d60c84
b07eb664
1f38f727
cd656dbb
6069c0c7
a03a1ab6
254c1177
6fc05e12
ff76f758
d9f1f3a0
eb7c8d74
41c9c12f
8ce833a4
83856e28
fc82f8ff
29afcca6
cfab5814
c9639619
aed53087
9ae4c94c
291f7a1d
085eaa9b
da93ce85
c8078e0b
c6a0fb9b
859ba141
85937068
f978b2fa
33ac3bd6
ea92f7d4
3b7b1455
4332c36b
362aa425
86b723fb
237e87cd
96e380bd
ae7aaa98
30ef368f
d766dbf8
0918db92
8654a695
48ce937b
4fd12283
354edf25
fb7a0beb
47104f5a
412e33ea
3c6462bd
e69bdd22
e0a56630
f87c922e
8c2e5d46
90d17cef
262cbcd7
7a9b9725
8896c0bc
3b785ff2
3609a7ec
4e9fec66
40a33532
dade800c
dbe9bd6d
ab85f3b7
c89bf463
63bb7494
6452e39c
71856081
7701a573
58ed88dd
941e2670
e01282d5
a08c1baf
2bf86b55
56bd72bf
052debec
15d7ae9b
a0d45516
6a39f8e7
07704d9a
cd91c0fb
5a22114c
a7a8609e
7c62c0fa
347ec684
a52630c0
05a62428
e5e0df12
4e09839e
facab5e5
2fe5acaf
1244bc84
a9d24382
c281256b
5c453a64
406bf528
f67391ae
fab98b07
b04441f9
8f6aea4b
f883aa4c
6b91bb6e
ae0f6c30
66f466dd
f8c5b92b
d4199ae3
59b19e70
8701b282
b35a67d1
75774e86
d91cc6b0
5ac46ea3
e5fec932
ec4d156b
26dab5a4
729cc8ca
c7821423
4c438243
b78363f5
e5d7204c
a545d4ce
7b388fcd
6a8090a0
553dfddc
8a5b84fb
bd9b6acb
bbb8860e
bc6b5db5
15e1d445
1c3f38f9
7beabb8d
bf4e7ae0
8eba67f6
84a0f2c7
0c4ab115
29890912
ec49e257
11e6b5ca
6a12fbcb
bb5e55d9
367226e9
497e6480
b5ba5cb8
d3bc9525
2a0001a0
285c5252
60500d0a
4cb50d20
819991e2
23001ec0
e9df14ef
8e710384
ea6dae42
22e40e99
87df2c90
2b63460e
35e40fa5
ae5682e4
8c965755
c6b06163
6386159c
1c60543c
f66f7969
105b9433
d27fb9b9
492a04f1
fb5f0f9d
7badbe9c
7b4d2f2a
809fa8d1
2192bd79
ab14b9ac
e5fe5dc1
e8abfe98
af1189e1
bbeb1f90
05c56b94
1eb8c862
1759e525
cfa29aea
07398311
8e27f6ee
834f22e3
9579fa7f
9b3c92c4
6829dc65
e67c38a8
b0713e81
6a7bf214
47a71fd9
dee4e2cb
969e3452
b49b67a3
40b973e6
b6e1a78d
f8cc5d24
da3bfeb1
1ea8cdb0
eaaac767
32f98e80
6e0e94b0
6fafef2f
828ceb70
6d3fb48e
c8b9093c
d49f146e
f2121a3f
6e884fe3
5ff6458f
1d2b0517
615cb364
d800ff2f
bc7b9969
5cd63f37
74f03a2a
2ec98b6a
5b5e3b47
87b119b8
166cd4f4
209badeb
1ccc78b6
59d4f88d
97ec22bf
06fc6ec8
2141d327
3588486b
8787a2e1
33a0c469
08e3ef9b
4789d727
439d3a1a
1d9ac4f9
34dd6c28
2102bf21
59c643fc
502ae6b5
624c2aa8
68c498a3
30f6c8cf
ca03ae2f
78898d2a
fec102af
19e7b22e
b221522f
08223242
3c05ca08
437d26c6
c0da7136
2ca20154
97fe5d93
be6fea67
b619045d
e2a4aaf9
4f750c24
fb0d5512
e52ed8ce
8edfd642
35aa334e
a9b9b53a
fdf7c782
5d22294c
1e52fc77
e5185dff
dedd4fc5
85c2c94a
0f161dca
c2f681aa
1400a7af
79feed73
97b6858d
786d999b
fdd46e1c
b109a6f0
c31e6518
f1169aa0
b99edac2
50182321
79c5a034
837116ba
665bbbc3
6bddf786
fc1e52cd
7e274e00
b95e3f70
e2065ec6
2a13f421
4371cb27
687ebaf1
a4ac4f28
9641e93d
de8e7151
f1afd0e5
401fcabc
67ea80b1
5fcf5ec7
b1ba0cfa
9f2d3062
c5d62121
c3b1ec6e
141594ee
0c14cc48
9ffba307
e503394f
f0df6802
b7cbfb4f
08b2feae
cb3bed8f
d6b34684
7055815e
63d67ca0
2b69fed8
7d31b658
3ae1755c
fb6e8c8e
d2ab1e89
f1319ec9
b04d7050
77f974ca
2b6df9bd
1a8197fc
09b29b1a
561a1add
327aaca8
0f395880
94b3522c
b3dfeeaf
a32b4c3c
6a2f7c62
e7a83438
93841646
2042f992
1b514591
2ad2af87
7d81304d
a1666f6e
fec3b7e4
cb37fad4
5e5ee5b1
1be8624f
2d63af21
20d60ebb
42aa9915
7be70d6f
211462d1
003252aa
99863439
56160da6
fcd84893
b2996034
9a59c58b
33a2b27b
278489ea
07a42e0f
98ab0cb7
7d8bb6cb
2e761eac
bd2d8085
5ea1780b
90774aa7
49e83a1c
54d05a00
0b0829a8
4d002053
cbfa6284
f9e7f9f9
bcb185b7
62a1c710
a762ac14
a24fc052
5fc23b4a
4dd3e43b
68931e2e
d08a0a38
d49a05b6
10caee8f
a5837ee1
ca7c2945
3ba3b989
e51f458f
79f18d9a
ee58a031
52c46221
a3276124
3c806e6c
27e95274
fe0934c8
b90a63d5
84c95867
821c49f4
7f55bee1
35a53198
85c12472
dee6781a
657d2bdd
74f8df73
b968c469
832e3b49
a24dd0ee
ab508c76
5388a6f2
5b12a4b7
41a7e66c
df07c967
6c11e52f
3e8f12fc
4681157a
1076e790
d1196cd2
a6cef06c
f9c5aa52
551c21cb
55302b35
b76857ea
b1c90770
89fd0ed2
9064f68f
f6ef24c9
26351f6d
0a7e2602
f83489c3
a6b266b5
4ae3d509
3183acf4
70bb9545
62003e95
182fd549
6a8ff6fb
bc89f32d
d5212c5d
b8beda5b
7cce9074
df7f9cfb
f686b8f4
02acab62
126ad916
ee43aaad
eddab093
d068defe
84433d52
fb8fa3a8
e94e12fc
efd03a20
6b96c7d3
fdd42038
b0d2972f
c4238d6a
e2db633a
f7fd6aa4
aec9cd1a
2d8b3b67
260b143f
6b3fa0f4
5ae49c26
c9d7c656
9e55398f
b632cf10
1096859c
eb24dc08
8aea4aa0
b608b41d
425a4e11
6e2a6d48
2c268c30
46b0c79a
a8348563
a65863a0
46bb6d8a
b5a567bf
7e718bf8
c5e94330
16b84655
d69f6f23
c023b1b4
fc16e3e4
ebc18669
b21bde8d
8f7cfc79
873a56a6
ccc198a6
58d30aa0
9ea82699
837bfe1a
a6049cda
6d6de3e4
0d7316cd
3938c7cb
b1ab1d77
b22cb935
a1698e03
ba85239d
1745ea7e
2dee1a24
4b485bd6
3ab9e629
5f98e6af
d2aed6f6
ae673d50
cd7382f0
4e156c89
351a2233
a5cc4597
3646b8f8
d75f7a2a
95eeea48
70bd55dd
ce0532b3
e1325f45
8793fee6
30e63da7
155e8c58
3da97537
7d93bc8e
39399aa9
9f49b121
99520e41
6429b4bc
68beef0c
1cadf618
3800e63a
c6c76064
1e15101c
5e782c6b
27a039d3
d21106c3
692d14be
40a4f61f
4268f9df
05ee5007
b35e12c8
5d3cae5e
afa4acd6
fc9d37b3
5504a475
1079f97d
bac44a4d
f942f5ff
379d7edd
7bb4914c
c32a4481
192881ee
3094a7e6
e49054b0
e483f0b9
f1370af6
13dd4e02
106941c6
3df4385d
71aad736
f06a5862
50d1ced3
7b1520b0
d4502ea0
23b2eb05
7503a7f7
1c9cbb4a
ee716324
fcfdf44c
b69ccf10
e1b84f14
b8546d1b
d5dcfcb1
9bf130e9
258367fa
49575d65
b937f4f7
1c0a1fe0
e879da62
907206c3
c79c9ce6
088fdd74
825de51f
66f02e7e
6f490ecb
329d2911
c15c836e
ae7a0b35
a6ba2bc6
3eeed3ad
89e9492e
29b66174
4ca0a090
2e6bc67e
928d3070
d8f03582
15bcb59f
6e5d01c3
5510e671
0d3207a9
25486e53
2596e96a
b411265a
be746645
fd251e3a
e1a3d222
65d57a46
5f8fecc2
d9686fb6
b9fb3a75
ef6817a2
26600339
3bcbe706
d3dffe29
e35b0d87
610c0e19
b3e2f563
1a8d3090
b1198819
d2ca8347
92518674
1b44187f
3909c515
82178b41
4eb93772
41edac8b
77b0853b
5c4b3074
b232e1c7
b9a119cb
c0f4ae48
fde0e1e2
630f75cf
f975b8dd
838e939e
8edb4ebb
d5ecfd31
b5568cc8
cf5d2452
41f9763f
adbb9202
e8976c91
dacd6bf7
aace97c8
5703d835
3c47f777
6aa3a0ad
2aaa9ab8
fcaf5f9f
db50f0be
01185185
c90f89af
52619f98
4e5cf54b
0a7ed7fe
43db8206
20dc9225
3ff993b6
8152de9a
249b9c6b
efbea46c
7c46bb5a
9834259a
6923ddc9
520ed848
7695c12f
4988ca67
fef88362
eb645b3e
5efd9e98
640b2d6a
a3ebefdc
bee65b4d
d0e18f7d
7f2d9a1e
b0a76163
cd0165da
bb909697
65cff800
b2bb8e8e
5db11eb4
7c96306a
b3e21b81
f83af7a6
bdd37323
d1f193d2
5a947e79
1674771a
936b24c2
921ec43b
57967b76
a2438888
c22332cf
27d89915
45bc9d6e
7acb0f1a
ecf440d2
eebe9b8e
a6337013
28a4a552
6aa3487a
9b688582
977936a2
1eaa04f2
269c3e28
25a6792d
7dd13070
0a7fa44b
e51638c8
3285a823
357ace53
6e9d5ab4
3e1bab9b
8182f2ee
3c7a78c1
c45d1581
a345a296
c6956dac
fe3963da
b0aa045b
ee8e68a9
257d7242
c464342b
765fe683
8dfc6d44
2465925f
6a55e68b
69ed8e96
290ade71
d5cafcf5
ca95c39f
264a98db
9b9118be
09642f8a
7ee2b8f7
537d9dd6
afabd1fb
dc8e0ac9
262620a8
ac73bed3
39caad51
aea70869
3d40a11f
deee26d1
eb183b0e
c617e100
ac248664
f1280248
0ba0d390
3285f4e9
1a6a896e
ddd27bd5
1b139ee9
d7ea349e
c2961176
49d202e4
93f2b98d
b16dd715
f9c941c4
eba095ff
7ee35dc8
b8566e59
0a6d707c
ce9bc328
98b03040
6dae6e91
ab35d8d9
4e64f2f6
dffaa471
a529327f
c778d57e
86aae386
c8ce022f
6df38169
9b56db74
0eb06a75
0f6aef74
01b5ebc7
0cae2db7
956cc61e
01286d1b
6ac4cd88
9b33b3d0
3d7803e7
da258102
3834db58
c3040a4e
2acb964e
6f45c129
8a67e583
be9d216a
678360cb
eb60d716
1dc0cdbd
58e3d107
02a51c5c
5ec452fe
047e4d6a
d79914c6
f28f6486
4d2f8add
6bd0d771
c498a5fd
05ef3e57
984ad05f
753fc0d9
30848413
3f644f9b
2c896495
3bd2bd1b
e24f29ed
70daf62d
fe38a6d4
0b507e8c
4b960fa1
f72223c3
7a8c0aa9
129f7a32
fae53919
d0cad1b3
25f22fbe
ad2fe225
8078aef5
9e3a1e0f
7d3699dd
239e7bbb
3deea18a
39990ce3
1bf12a91
ca6526a4
f7f6635b
0a9d2101
d2e310f2
a4ece095
576376eb
c83858ae
03d3760d
f47a1b4b
3bcd5ce9
db2b8c19
c8385b05
8395ea30
01447aac
59f1a8dd
026b5214
25358a01
3ca7bb86
512b1590
0d532def
b2a944e1
a3eb8a59
49d336da
f25c4c0f
f0d7fe4e
5a2cab00
2bcbb75a
bcdb55d9
11c2c1b2
26bcbcf1
c52162f5
eac91fad
28e3bd4a
827d9b0c
2b7b2f94
dd920955
7ddc5d5d
c8e9fa79
7321a628
d13bd704
2672fd23
30d2312c
f6b7ba51
5e3b9716
43d4b8bb
cd84ecb9
60ad49c5
aa23d8d2
a8018db3
07465e94
499b781f
5cfc09a6
9219fff1
02e61ce1
581e8c1e
4cd15cea
6e8ea94a
b9c8f8a2
35a670d7
cce4cc36
af857f1a
d513cb23
62bc7848
c099ca69
9a478869
3d5029a2
2a9e3e87
0417a655
73bfe7a3
6bc39a9a
cfac1afb
f15e7199
a148e0c7
d937b85b
b0e2efb1
bea3f464
679cb4e5
d80c882f
b0cbaf98
9710e724
3d38681a
a310ee73
e6eb4ea5
18fd9299
248fc886
c74b6e76
4570a1ec
ce945f34
ae979a2a
9352b887
fc5f2cbe
0ec5a7e9
9bef4a56
8693893c
95f980c5
60f36f09
3d39ea27
8a482c66
c05a320b
369afb75
0038154f
56b1af5a
a42a37a9
6fa5ccae
5614b6cf
a5da20fe
069980bb
8aee3b30
345d7dce
c47c83b9
a2b5e2eb
363326ea
5ec5373e
b72199de
3308e320
ce540eea
b0e9180b
302bf2b9
0f09954a
70a38bed
d4a10562
f19150da
1b289e87
752377d2
892379cc
bb25310b
aa6e0e53
3787ce10
a8fa26d4
702d15ea
387a3bcd
f7c9aaff
ee20480a
036cef64
069b32d7
84cdc027
7f66ca98
5f63afe2
68aaf812
070eabd6
85da7e65
9ba85194
9c72ac75
70cb2011
2f7c2546
0425bf18
7b64bb5f
8e6643d9
097c72a1
1ae083a9
d5f8338e
7ee2c684
c37c40a3
2d4dd66c
719e3ec8
02a5a9d8
79e68c3a
be766ec1
831425a8
99a3660a
e5711efc
e8c5d821
296064d3
d9297220
ffec1ff2
6290c400
07f0dea4
fe91bc6f
2d72c935
8caafe96
4deac6a5
4b88fc47
8c09abac
1c4eb8bd
16949db0
b4199f9b
b113d7b4
744367d1
cb075ae8
e70e5b51
840629a0
d3c6b274
800b7955
d561d1aa
ae5d25b5
8343166f
be13fad3
0b4dedbb
68fa0bc6
6a0f04a6
1485bbe4
f2d94be8
a426d2ea
d9dcf19a
6080c0d5
50ee1888
2b443a59
4af700dd
0a9ece14
c1f53046
54921fd4
3c792058
5a6840d3
ebbf3504
ac6a99a3
c9a56489
8136309e
de96d2f9
242b9c80
95ff3a2b
412a6015
4a533794
389d092f
2f2f37c1
d7a57e11
0218aea3
58592f99
7426c6a2
37780d63
9277d625
d0a496eb
d5d53016
7de2effe
2e7df010
20720ef1
b1cb3805
7fc37bda
e98d61ea
1144a7c0
183efcf2
f44201d3
82edfe2f
ade1c6ce
be971619
b94342c5
602a413a
f68438d4
dadab1f3
022ee02e
60c27050
35de6206
a6adb436
5eb57682
04d6ee5f
aa55035c
f2969a9b
4b297e82
1fd49e73
e398026f
1a8436a1
0a0d64ea
ea55c425
54a3644c
aff5aa3a
8c21be1f
e242cbb6
b5fac09b
ff474436
8c57aa1d
ef6cee81
ac0c17a9
b616f099
f9fa31e3
2d94fdd7
d24dc44c
32a746ff
519b1360
55dcd9d1
60ec5969
b57de5a4
71dac829
85e6b7d7
65d209d3
b5d99565
f0b3aff5
ef610f80
e253a858
3661d1de
95fb788b
c957e050
480ee634
ad5a0276
e9be2395
ead4f87f
30352a25
13d79d66
0975a3da
6e3d6cb1
7b866c2a
c37b0821
ade03e7a
b9627205
e37121fc
e35798ce
c974b050
ebfd76b4
bf3cffc8
fef0e534
17b01d4f
4e9b8f4f
dca6e3e8
cfe1268c
3e09dcc1
49988c6d
8039050c
694a089b
79a4f4ab
a27185c9
cf9e7231
b638e424
e13c3f73
2ae2d9b1
ea568659
cdd2aa25
998e8cc8
96134e81
f8a3c52e
62c7116a
9c0d316e
9949a168
97dfb239
25b5822a
1979f953
4f6adbae
a03c2059
21edc01e
28d3f372
11cda6a9
79d791f2
4861c59f
fa253fc6
49e0138a
dfa9086d
5b6eeabf
966ab0a0
e9259e98
8ada7881
de1c8579
854afe4f
5d0af264
c0dfbf88
e2cf49b3
1e8ce8ab
f57bdd40
bf897ab1
b7e210b6
9bd3026b
356ce2e9
6b50199c
267b869a
0d4fd6a6
abbece4b
99aab998
7e6031e5
52577216
6cba35ec
2fae5fea
a3b089ed
0fa29d0d
aa0e4f9e
7cfdcce8
1a3ac701
bbd0bb24
e6098846
2f79a154
14913cb2
5d90373a
966a823e
444846ad
b78be787
125fad14
5db62fb7
afd40b1a
bece8f7b
701fd6b5
18b56fdd
5b7131ee
314cb8ad
000bb8ba
4ee05674
4d9cfb8e
0694bea7
1accf2bf
277cc6af
725c9591
29287f58
0d1dcd2d
3a9de5f2
3f519c21
51a0f6ed
bbb5126e
6cf8064c
abe65ae5
e9d7a8d2
9971058a
f4306f09
22125098
c796d439
ef98c6e6
659af211
8c69221f
5169135c
554b753c
b8bb932f
06c67612
1c3a501c
42bf88b9
b2845e4a
58972e35
0d69af39
e3c4fa67
0a6b11e2
f2702680
47c8263c
27872a89
6691a057
6abd37a1
c3af5bed
68548b68
2c019493
35109e4a
f193c17c
74eac9e4
b90262a3
bcde983d
a6794577
d32571fe
d99d85c5
cd3c24cd
8646d24e
b500c176
16a9a08b
eb074422
cb280a1c
a111d238
26e9c963
0d0e5010
83026908
d8a481da
2b719cc9
675da51b
276f25c5
f849e639
fdac494c
d860b5bd
435ffaef
48aaf429
eb643490
9a5af084
97754766
66e4b2ea
db99115a
fb66e225
1467f312
dcf411a8
cfc6d3ce
8522f9e5
1b677ba4
27232dec
6479fcb7
b9e0a238
1c440a14
627c1184
ce70596f
ccb82460
50e3e6b6
b82db6f6
55627006
c2683e1d
55463010
37ce3add
5c78e776
ccac8fa2
7ce82173
8c8ca9b6
7744516b
a48948af
8197521b
17bc6e29
04feff87
29c5edb1
887b1a84
7f4c9ce2
448e0e09
90407d2a
ac68c0a7
915f2842
ed54a5ed
342827aa
bdd44ac0
97f9d08c
6a8e50e1
39a814ca
c9999a19
ffe27fb3
3e1e40a0
27b9c7b8
5da9d2e1
a7b2a822
afa9764e
6a7d50c6
cb2bba0e
c4b09b18
840e80b1
c74bb689
29b49a77
4f2fb2b9
75d8e72c
ae41c7f9
047cebc9
589e41e7
d554a6cd
6a0eb42e
cf94b492
b38c88b6
dc2eeb28
e2a69c18
532b52a9
c600542c
613901b2
0e25de46
cb8c5a65
9f3c2241
8a7bdca5
e48619f6
f554c6c3
6afb750c
34f99af7
ced53c0e
347e050e
3397fbe1
c0f9ff16
40e843e3
84bf81e3
64bb81b8
ba4a4135
11fe46bb
3e2ceddc
6377a3c1
0cff6601
b7d7a422
cf2d8bd3
384af909
5b449849
9632a2a1
80829dc8
2021f788
e839cc79
93cdb72f
3e552142
a2a7742a
a4434790
3f3fef4e
f43be6f4
541689ea
a7906401
b427bcd7
6e5d53c5
29c7777d
baa19fe9
22aa34cf
12f0bb88
4d2aad8c
f6b329d2
14d1be9e
7e6f74fe
0224d70e
b67bbdcb
a5164f90
dbce2f8d
99091f52
ad23a252
39c764ee
74fda110
eb4c3025
6ea37af6
e67453eb
07d03e3f
82c6d6ae
020c988d
7f6c6cac
3a35ed26
21dbd035
2f1dcb8b
e76a8db7
3612468a
d523d250
248e25cb
a42b6210
ad2a08cb
ad61b40e
b77a4f7e
e8a0bdcc
c8d5b6be
da17a617
d23744ab
