9c3e024a
472e06c5
2142b3a7
1062e99a
ba434b05
cb721f16
f2a91953
3c58a357
5691bd62
6e21160d
162b47ad
e49a765e
94bbd7a5
66ed3a46
2a52748b
4dc68c8b
b386b5f6
99b10bd0
d7e8a06d
737b494d
a4c34a93
d166f57f
6bbd023f
b9da8976
c4a9608b
964fc3dd
7ffa9d6f
0b43c099
41bffde9
18dcd66a
e9ce4c82
c0a98188
dd6591e9
90f2aa45
22f8f976
2a3ad82e
949be27f
79078f18
760428c2
1a3be393
014efbec
72a09a4d
e2d6fff1
056f4ea1
d5ed418d
b9dbfcfd
9808f722
4da6b3b2
11a9a143
b495b1f5
bb405ed8
a09c68f5
d855a3bb
e2db386c
18ab5626
f5a92612
89cfb6fd
7f8b01ad
e644aa57
237e24ac
cedb1a60
6e7f50a8
3dc699ae
b78eac56
73225dbd
520c8b3d
b288dd90
be2da0d1
2753cfdb
8a54aa23
c91997ed
b4a89138
f63b3a93
d6f365f0
b386d48f
976fd2a0
98217e10
26b128f5
0db959d6
119455e3
5c1e2f5b
e8eb506b
7cc09e12
bb0b668b
ebc72319
f5438b38
8f37e9ba
887f287b
8645fa44
aa31a544
ed012886
056cd4da
dc1aeead
baa340da
9adb004a
27396029
89fe5d22
1f42fdb6
0fdb5d26
b12c36ce
6ed788b7
62750722
b6dc61d7
7beb5c1b
8679cbe4
a60eed5d
95cea39a
22ba3688
91fb4dcd
892c142f
f97044f0
61581a9d
ef34e733
05b24bbd
6accaba7
2b1d8387
7f5f34f5
bd98e06c
8f2d833b
003fe9e9
2f582c43
d18ba2fc
c46a01ec
e1383192
b4d082d6
b6e80327
0a72196a
a804d5f9
f23594c0
7ba91f3e
3b749888
24e71025
ad5ffb0a
5cabbf1b
e750e57a
475550da
89cdbd0c
181696f9
02afcb8a
fde8300d
e49c48b7
d871384d
9e2f32e1
a1dc9abc
8d2a2017
438f3f88
d766befb
fc984bf0
8b4cbd9e
31c11973
8a1a6eee
a5d49a05
7c41b947
1ff7808d
4a0fd6c9
a9dd0f3f
33a41283
064921fa
3c4f0427
188c3821
cac1f418
7866e2e6
a4efa7b2
8d2c59b9
97e0294a
900a6b8d
db2282c5
a1ca299c
d0ebb8a6
eb2aac11
5dcddf1d
827c37fa
521d09bd
31b47521
ff48733b
e86f7726
69730d50
66aa2ba0
3f038151
019e43d3
58b8db97
b5bbbf5c
40576485
e189e9f7
47868cad
f6bcd9d2
6e9394b4
cf3b3a94
a35ed6d1
daffc2bf
590012fc
d14c996b
6f698981
a217e86b
d60993ee
16d2beba
ef8257be
30f4e5ce
b9390191
e83c2c5b
ece50708
ae3b0f1c
8be72d0d
6df73fb9
8abc3b49
03b683e4
e79c6bd1
c91b869b
6225b1df
dc0962d5
3378f90c
aa0f94a1
0502ef10
f07bcbce
7b0192ee
e0813c42
6f6329f1
292475b5
14cd98c8
08cd3d98
dce3c266
50bda86d
0297b8af
395bcd0c
770b8ae8
3fa61502
4857e228
9b057bd5
944803ba
228d9958
98c52a60
9a91f71c
bc67875e
20c04208
6979f5c9
89d0dc7c
735cfd0b
e64c79b9
b03d4847
fa81813f
2029877f
68af8631
bd2c28fa
453b154f
afe0118e
e7f2dce2
3972e157
b19fa957
3cf6daa9
b535299f
9bb73008
6cc8ab81
ff4564d1
cf5f02d5
8cb1e29d
5ee38cb7
81b15813
813919e3
93d51db4
f4b69b7a
076b8002
f7674bea
0fd3b38a
826b133e
a67e0d21
b9fdcd45
60bd2cfd
3d7daea0
78ac3104
87e3b24e
4af8f191
591ed50d
46bd927f
174e2bf2
27e501e4
8df15521
19fb06a2
4f99ac1c
f036dee2
f7e2da72
cc428146
474b862e
4a186626
639d6ec8
edef1931
1da01b04
bce16664
485fc0f9
068c3cba
fd7f498e
1d3b86ac
91fa0522
8a9b328a
6ea51fb1
ed6e49ce
4ab74c3a
3071f890
a868fb5f
4f4f5a4a
2ea91259
d1e8f62a
bb9991e6
0bd051a3
42e4e648
6ca4d3f2
73a632ef
3374f340
516d158a
97678e2e
afcb0b2e
612f04fc
8b6a5d74
6cb5fb72
549493bf
7275fd02
3516a688
a6455b6e
40888bc7
9375f2a3
878572f8
769ce881
88b0ddad
2d0ad076
5155786d
6a85add9
2f8221ab
0fc54c82
3c19905a
c55ac4eb
ec13bae2
be5e4763
b0471017
e3bd55b3
0f967b7a
2bb2d00d
4470d229
9ef728bd
53c2ccc2
5d856eb3
5d0246fa
016feb16
ad24d076
9709c342
e90684ef
decacf7c
e7872b63
1fa6aa5f
c9fd6565
474feccf
2d75f1ad
ea087bea
41aa1ee1
742fc6d3
7a1bf9f4
e4029995
5fcd9e02
ea94b8ed
7cacaa72
d3b27bab
13e37e10
ed005752
4e516125
7899dd0b
a9ae5eb9
0c4e8eb1
a1e2ccd7
9c2b2e2c
780298ee
d48ae7dd
b63bdb9e
a6740a66
a9b087ef
54144767
f425f5d6
f2be7d94
413be211
e1c74680
1b52baad
5c79c174
e54c8831
7deeb15e
348f63ce
71f15244
d4bab9ae
7d7f7916
177afe23
4cfc2c1f
313ceabc
c45a5f86
6a44ad24
0790da30
2c455d18
815b81ac
4d574d4a
bb8eb162
7003c316
97d717c6
8b139dfc
e9b5f5a6
4f4ab488
8998bf3e
b0e879dd
72ab97d7
e03ecaf2
5f97661b
7ac301eb
75ac8137
598ac7b5
98393656
42606135
04a22d44
bc84430a
c9a8886e
4d20e4bc
44aee117
8c2c1ca6
6559ba96
d1f366bb
78132aa6
528a6222
cd9d678a
3dc0ec9f
4daf45e2
12a81e56
3ed1a11b
e1de8db3
62d9878a
169ba3f5
ed3c4fc2
8d48a179
32de6fd7
2f9278a4
c679d92f
0aa4f6a0
f018db36
824f7662
9acd2d8e
0ca404bf
6bd490eb
016220be
c8c9aaf1
c4bb8f79
f478f002
9362b3f7
46c6b14e
d27b8228
cb022969
74902419
0498de9f
7ba5981f
46303b3f
84fe0e91
ecc1ccff
6c33bda6
b7aad628
0e563aa7
efaa499d
aabc50cb
d431c7f2
cc6d4412
c26a498e
cf509f79
bfc730a3
49f67b48
2a56f109
3b7319cd
2812e91f
51a1b92b
52fe5129
8fb26e1d
b6bccfaf
f5fd9846
86618533
7c9aa762
af3bfe24
78fde9d6
9066e4a3
6496aea0
4a6a9f65
194fdf3a
6e23e63f
09cae24a
9c83bb61
f9e06577
0be37255
3583a6c8
1456c89e
383047e5
791e51a7
f0b8f17f
5e04c5ba
54601597
3ce4b0d6
f58f2b2b
a5a019f1
932462b6
a2a7d567
2e967880
99e07a2f
08cb3834
898634ab
328f5052
cdfa5419
5c8dfc06
d30b5a6f
7861c4c0
0709857e
a9da2882
cfccbbbb
b37e1661
21120597
ff5db114
dadff79d
dedf6937
6310166f
839dca9d
46c0a81d
037a4ef8
728b3cf7
c74b3287
57506ae5
7a1f37a7
86bba1cc
6efea309
6dcd6397
6d3181f6
6f70a1b6
29c6f4c2
98ae7d18
fc7c50dc
2118efa7
a9c73cb2
abba59e4
c524bfb2
4ebf1c13
8b6c8516
12aa737a
3dc10585
686e5621
1ea464fa
680bd063
97724806
6cb2c70d
7412d9e8
db03a7bf
b5401f42
cde5ec75
f56706d4
3518793c
7c6ae179
2954f2cf
6a3abdeb
0b919cb6
522e167e
d5bf2729
9c8bb87e
c8cbc8b8
179fe208
d4939faa
05846942
9d32f889
a70c0d55
97e19235
ed8a2590
64e237b9
e970681d
92d19b65
0eb7f914
9f9ed9a8
1eae5a25
2de2c637
1764d231
c5a7cad5
bb1a10b9
30a1217a
e88e2313
b76651e8
a57c9c17
8237a0b2
7a75ed29
7a4731dd
f50668ef
0a899eee
8e584247
cfdec2c8
6a117683
9dd9243d
a62e642c
424154e8
7a626c1b
b0687fb1
a9463a7a
a6435807
a92f2bc3
b9e517ef
730174a7
2e69fe4d
638b9922
a9ce611a
a9ea0ec3
2ecaf4ad
ff3779d1
738ed563
1bce00bf
43273031
e3418594
ffab439c
fe678fc8
e8467218
020cde6a
be82b9eb
1592a7d8
3cb3e063
b5342463
0cfbd9c9
22c43bdb
5dd392f7
d1ed547c
32903d89
24cc0fdd
bb48fce2
231d59a5
d0c95b9b
037dfef0
c2936956
37aea6b8
8359c2da
b8afc769
58ed7096
637c216d
c5b96126
08c08a6c
c897935f
8214fd05
26b91c08
d58288dc
6ffb459e
5ee8f164
309b2807
8bfabb97
0a777d0f
bad2fade
20aab90e
1ba5a6ba
8da6422c
cdf46f08
cc02d8f2
ce726800
f94ab61c
e6fffe2c
8ad81e30
36e0a199
b19a9353
dd6b95e5
314780f7
3cdb7fea
8fa662cc
38a8990e
e46a788f
0d414ed2
9f252857
bd2aa5c1
ee0d1029
32564692
79a869b0
6c5f39df
62c8a49a
2a420cb5
dc816ca4
fecec986
3f2e2c2b
2ff3043b
0878db70
e2b47a06
4d9a9523
28616d4e
952fbc80
215c4310
500b21a2
9dec3486
452619d3
dde1db6f
f5f1dea8
79e74e10
0fe4febe
9273137f
8369bf27
19f08327
b8a8bd69
ec946625
3952d5de
a3cacb39
7a6ac2a4
be1586f6
f4d003f4
eda3076e
b77b79ec
188b8b57
81be89fc
e6007a3c
e59a9f30
e3ab6a81
c1d825d9
8fe1c50e
f145be12
4c391270
1d7dfb00
0816e1ec
57dbbbc3
530dad1c
9c123aef
0b55ef55
b6a6040e
1e9f3bb9
2d6f0f7e
9b825a6d
79bd36c5
62dc3b92
fd62024b
883bc629
72e4395b
9159078a
63cb393a
d157c582
d9cb384f
d4cfc49c
a55de31f
02b6f0b9
edde6a88
7794b7e7
ca966a8c
8abc76a9
be5be6f3
ff19dd5c
eb9fe7d1
5fe86a03
a3e60820
ff574c2a
d1dac9e9
e01c2f3e
e51ae899
9eb07e3f
685d8fa2
f4b3cd69
c28c2448
ffdd9094
b9930ba7
f785c0cc
d6f48ae7
0e377688
a15e0d95
a327c78c
bea42c6e
75232add
d6a82c6b
dc99f9cb
5d3bde6e
5421015a
e515ae0d
b1669f79
57b82f54
2d432b82
d19873b9
f8ba3414
c57e4fdc
6eb9ee6b
b9d38e10
e39c0b7c
9549591a
78ad9265
d9a9ca83
ed7812f8
db6a101b
0ddae295
bb27ec75
fc14a4a9
8880cd16
90eead7f
0344a633
f0407843
6db24307
82f71e6f
48e54bf6
f1eacb8f
712c4a0a
804c5de5
96848686
efe879cb
cb7f9c52
191148a2
e6e54d85
c0d94a78
b2b0b4f9
31f1c453
e012b771
36fc60ff
48504923
1066af4d
3af4b166
a0f71dbb
aa8569e4
d2a4d16b
de684d25
9fa22627
008ae30a
e9a227b6
360299ad
41397a50
307e986d
3b8f9a33
df27a69f
a11630f0
cd962b02
2905c41a
dd1ba2b8
8d32cc7c
a0aa91b0
e97c9282
eb7953a0
57bc9487
773aec9a
d832d501
3e1e8776
7ba25f50
5b1f393a
8c0c7a99
2ceb89e0
abd0dc56
3eef3f1f
fbf2f2fc
610c1431
6e67b9cc
08778c6f
9b8b1783
b0b47296
b5aea302
401df42d
f28bde9e
17260562
3fb202f3
c37f8e26
165c8eff
24f3cc7c
993ce195
717059aa
b983289b
82595b3a
af1dfe6d
a8c23d54
2a84859a
22369700
1c0e8d2e
22677747
5cacb0c8
6599222d
aa001536
375722d0
3a6ff7d2
7d2f1af8
4f85231a
af366970
31be5eba
1a9e082c
46e8d79a
954276af
a3c7fd44
0fb10915
0b6afe5d
daa2a52f
9842a097
5a347ba9
cf871182
f0826714
7f5d13c1
1cd47f6e
155f566f
116568aa
661890f2
415924e2
18a9a3b5
d1a36aee
5034bea3
e6aae1a4
56b8bf4e
a201ded2
f4daf405
45f45959
370ca329
d9ab7cc6
9c36e723
f98fab73
8c96b5ea
216398ee
6bfaef6e
610e7b95
897e31db
da254510
82761f1f
2a14bd3c
f9aaffac
3f370632
7467e040
ea4a4ce7
698ac168
d7100bf4
6276e698
8b31848b
1cb5af4e
f696126f
54006867
5ecb26c5
8e162a06
ce75674c
ecd502a7
51201e4f
83f8b3a4
31c018a1
f7ea0fa8
cdfa7f18
af3ba36a
b3b06c5b
46dd7d1e
6eb5ab0a
e30ab057
b02f35f6
1b4b59a1
6e7ffacd
6409654f
a8ade864
e7470f01
8ad535c9
f4b55a79
fc9db6b7
77aabeb2
a9a73f28
23ff2554
642bed50
95c0429c
c8ba4d38
12607556
f16dbdbf
8d7fe394
6b732388
1dcb80c1
a7a6d8a1
fc6bdf73
39be9688
6f212878
8b3dfa8c
ca571975
aa49bba7
9ea4b387
6ba65d29
c9beeb58
29f684ce
4fea4ec0
f9f79294
80dc17c6
d57893d9
292ac024
bb1b68bf
a911cfff
ee64a84e
d293ddaa
c123a35c
ab834f7d
bc6fb356
fd2d4102
6d85afed
7a2b32b1
2ee7e8b2
ebfa20f6
b70b776f
583c94d4
c71b68dc
28fda779
1fa2f30c
7d4b3b08
3c119559
c4e08a31
7dfb25d8
2cf9a09b
37a42152
f9f7f824
523eeed3
97db516b
aa650091
cae1f782
96a579e7
6f32380c
87e4076a
f52c4a79
937ca08f
3c02ce99
e41089f0
04d482cd
b55a7584
0f95b210
1f6a02bd
7351e424
d95dc3e7
75746dea
28d7a438
f356bb4e
ed2df89a
1b19ea0f
b65c5500
17400499
4bbf9033
6d855f50
c70145af
38b5f10b
334d4137
5c8744b1
4a784b5f
d8f06623
09a7761a
bba798c9
d50078b7
dfb38ce5
47bea46d
990f91a3
44d40b85
4f0f30b3
26dcee12
db4225f7
20b44045
569a45b0
bbeea5ce
85ece47b
18ad0db0
c1503196
7bb5317f
6063efde
44e378b9
b875a84f
38cb719f
9a3de346
525adf1d
214e4b04
3f1da78d
1b565f98
3df3f2ce
01584572
712f1056
65c30987
39e974e7
d042624d
ee5b2f0e
4df8011d
64bd2cdd
144b63a4
a47cf848
1cfc0ac9
65d36ab0
0a088004
46f92760
f7a57b0b
5dadec94
b76e6fca
54207650
c18fceeb
a5650bed
250ef5bf
8e507db4
aa089241
82504d0c
15588428
7e263d8b
c927da6d
fc156278
ee924c19
998567ac
e7ca4364
85925b4b
cbcebf1c
5cb2d741
36d0e0b9
0842f971
34180a8d
4f44e654
00339a9b
74cc075f
0f91c790
b65d30c6
344e1fb9
51395595
9aac2327
f23065a2
78990e56
d636aa60
93297a26
7a0c0dad
84abf0e5
521105b0
e90f24c5
ebf6d1e6
3a437212
6b5a39c6
d09228b8
43daf965
5a17a4aa
9996b86d
bdf1f8a4
8293560b
af6a42a2
7867f1af
1ad95886
73e464d0
15d0e724
1f676fff
b53151e6
0d2e6643
bf164753
b16bed8c
7637ea1d
e9d4c138
dca42a76
29ab4351
e621658d
06e62626
ec05c0cc
7d414007
a234ac0e
518d98a8
807cf394
54cbf583
6feabbe6
05408dba
1fa4ad5b
c542291e
15a7457e
101d52c3
4f3e5f4c
c189f813
05852518
3e756781
f00f291e
b62d7bb7
8f03c70e
05c49a0b
7baf93bd
02b7876e
7cdce0f3
b38949c5
b0878b3c
97fe9a56
8e790c56
d6fb7e9a
c3d19853
6eb26d94
1dbffc99
0117b46d
9deb62fb
6f455aaa
650b2902
819cf8b3
573b4e24
d4e258a1
b454db5f
4abf2104
a1e1ee46
0be1e1d2
905fb035
7f1ee243
c914a836
d883ada5
ec86d02b
4e6d9e74
d6257ef3
cce7d5f9
81cc589e
24f5382d
8482d676
45c38346
06ae060c
fb7343f5
611ff52a
59a19005
07471d7f
930fb3be
21165291
e96320a7
c3b0e777
c299c277
2008a131
16097132
08e423c3
7df7e979
25f38169
d76c7b1a
e997cee3
77b2e869
c9ea8aad
2dc96749
d497b919
337cad49
d1a6e9ad
24910ea1
d6ac590a
2fe65975
fff8f454
97614901
c6e0b499
279572c2
34b1a3ce
ac33d5a6
2f683569
0665775a
4c12f45a
73c87997
ebdc29da
4671146a
d4a5ed68
7a3c85df
6ac6c064
6c54db97
cf50268f
23f39cf9
bb99582c
f2da78bb
6ee765ba
2e2e0430
d235cc84
ea8ca195
440b8c0c
f27eaf4d
9188fe52
0933b005
cf4bfdbc
d9cadf26
0fd7bf07
07b64f5e
01446a55
7d601d14
2ff2c79b
48162c44
c9a162ee
32031dc1
6c2c1f35
64052f4c
b02155cd
764b4644
83dda54c
0cb4581e
bbea1b73
ee3975b2
dd59de95
2bd8eee0
8dd8ca05
59ed06a8
fb185079
e2877603
0e551875
62d4087e
8d82bb69
142f63cc
3d80ce7f
b4cfd685
a681fd72
293b3985
8829b743
156118a2
52589dca
949aa641
50c70be4
d92604b4
be5e7846
6fdd625e
e6e93ba0
4ab15057
ae9e6ba6
cd591c5d
aab4b7f7
e48e664b
d8996d6a
5653b14f
749bb7ff
7f763169
be2896ae
56bd4752
1ca47c66
1eff31e7
bd549cd9
f1cbb8c1
abbebd53
fd46b342
531dfef6
f9dc06d0
5b8a4b7d
1795eb83
868d6931
f0c9e3e0
493ce27c
dddb6ecb
3c62dd6e
2a940185
87da0ef1
fe934cef
dfe7e7b3
164b95a3
93dd77f0
ff600c72
49c6478b
5c30b4b7
225c9045
da086d66
eaf964fa
18fae285
0b220df4
58cefd6b
c235e467
918bc91c
78ed1cd9
d20583c1
a53f87a4
900f66fd
2df245ad
66c41215
4dc1f86d
7277830a
ced04d98
52551a58
a50e5a95
542902a7
1a4dfb50
4599fc2c
0cfc86fc
3e78c0b3
b1d71e42
895c8fba
3c355d37
e354fec9
58a47a83
a78d3628
cb946e56
295a9c0b
17524978
c389a875
cd2017ee
d0c36ab7
65691f58
62d71681
eaa09e0d
2eaefb8f
a89eb7af
75bc3826
df51a4eb
567d8f5a
60f17072
cb193c12
4e628bb2
b90f0ede
a1703cac
ffb20f27
a6fd13c8
68ed08f3
8a050a02
f7148507
ee533a6d
f2bef600
d594fda4
2b85c9f4
abed99a6
42096479
5e497e96
1c396568
e30e8dc3
77e7d195
bcd6b1db
b4a37238
78b3ab83
560b7a50
8d3b5868
08f138a0
038f9264
cf124dc8
f16de7b4
115c6a7c
fefe7363
aab9d8f6
48b2eafb
30f9d611
f54f770a
7f77c6a4
d00995c8
bb106e87
e4ef7ee5
65759fc1
3c5d05c7
7a279291
266c1379
c2920f1b
da201388
c993e5b4
66659f45
4aaae889
c4fca185
1499168c
8d40527c
7b36b0f1
ea38bca6
5a628d44
f0a6fb7f
2d74a0b3
b5f90db3
b08e7a5d
c6489c07
b3406eea
7750604c
e0e28089
5776758e
1c845828
31691acd
d827fd9b
903dbf23
4d5f89f2
ea6d5df0
2c2c4f5b
80c7c925
6f457894
e94a30ea
be251d82
281c5c25
2341e0b1
262c72a2
6c8c53fd
d5af680f
362fe10f
f32a1603
e50784d3
98ea03bc
39b4393e
dd9a99cf
042d5ede
4d74945b
2df357cc
63a86135
1844a8ac
c0b4c8e5
922ad0ad
c0430649
644d2b5e
96f2129d
ef99cce0
54fca26f
08b6b054
71dbe709
4113e8b4
9f3c7cea
33611577
87a1067c
93d687fb
4437c87d
a74b6450
7db211bc
d968dc0f
054bca5e
2e777515
7baa4b02
2d948072
3bb21920
87e25f2f
2b6276b6
8f69a389
ed60d82f
cedaf0e2
c1eaef1d
22e5a55f
903f8318
93cfadb9
8fb1d652
4f49aa93
923ac1f1
d395ba21
cb45d5c1
7ac7d9a8
50e03ffb
7cdeeced
72bd90c1
b70b19da
ab428997
9de733d2
07f66ae0
367cdb0e
9179906e
e0ef4172
2768714e
b7fac76e
e83ca988
c8dc0f96
76d6e68b
46fb54a0
b993111e
3fe9ec2b
1e296415
eb11d079
642a29f6
8daf13c5
84fa30f1
38334039
a72688b7
9fe7908b
1feb6f30
bbf6fd0f
9f6d8995
78a0663a
dc024e1c
8768628b
f920cda7
377ab8d9
5c609a28
9a05bdd8
d73d04fa
ac70430f
0e888446
389374b2
caf9687d
8e563798
910a290a
2eaafc9d
95bfc5f7
3985563b
a06755f4
7efd4010
fc4aa5cd
04b4205d
22283492
41e490c8
6ba3a005
20593d16
b8aa2a28
0356fc6e
9ea30978
e2988969
5641db9c
f99861f9
aa6175ec
6a7d186b
5872605c
5561fefd
b90cb53a
ad673c9f
099de034
e8624aa7
02aa326b
c8215008
ff073614
83eb253a
822294da
a3b61c53
917c96a4
12c33eaf
a2410bde
7bf76842
8acd0653
9e331e0f
7e676cb6
e48f2e24
6e9a88f9
5ac5d755
a2a26c7e
068c3182
793861b8
a9ff80e4
c9229c5a
ed9c9f74
2d2695e5
63df6469
1a146665
097b4cbd
6bfaca16
890136b2
9295ee8b
d95a21de
3ee68cb3
7ebd6ea5
889700a7
3812a1d8
c700812a
8d099dcc
e5122af2
4efb55db
29bf5362
9c25821b
2acd7f95
a84c470d
66076179
ab973366
dca139d7
426576f1
21b35793
2199b2b9
d2a5ca55
d365f878
00b50ead
68da3d47
5de486ac
285e5e26
885c447e
c21d924e
baa54948
be1761ce
0e0b9f28
7dc5c8cf
34871066
421e5603
6b50094e
27393aac
1613087f
2bbd3ba2
dfa5596f
7e6c5fa8
adaaa0d8
379e8402
cea1c2c1
7875096c
94a41693
3179dc5e
a458d5dd
38d574ef
0af17769
fad2ac35
06920fc9
b7a9e745
2da52c68
d808be08
be6943d2
84d4d20c
eefbb701
4b3a5fa0
c612952b
63c6f326
3d38afcb
af71ae3c
4663a3ec
e939d203
bf472bc7
d24283ac
7bfd1eee
3001c44c
eab1f89f
22691c32
9559e36b
bedb6fd8
e2e32d99
e1878c18
e5f1fd0a
6c1a3970
dbc7ee33
a7ca74fa
a5b17566
a6749710
e85bbfea
1add1cd1
70b644b3
7e118635
52da6831
74af0a61
351cdd01
3f2da97d
d1524b41
a56bdeb8
b5f603a7
0cf6689a
8ce640a1
f099a48c
9e9c46d6
1212a16b
82cd6423
f68069ea
7d2d020c
bcd74a5e
c48e4b6f
70f75197
fb5ccd5f
a0811aee
9b1c9577
75273b2a
ea33c4ea
c7a7fe5a
ae4f9d53
5723704b
9356448d
5791aa8b
644e8000
3cb23518
b9161919
47797d92
1eba3d2a
be98ad51
61a29afd
413a1021
54aeb3dc
030b5f72
5e0b582f
899af195
94ae3790
53654f36
60b195a6
ad64abcd
44f92fbe
30e8c04b
335f9a63
6b15ab7f
f304da9b
1ea33592
067a3ab5
2730643d
0def7b27
ec80b46d
512e1d39
1ee3d1db
88dc3f8e
7be973a7
4b3420e3
b336a064
c2a461ca
a68a547c
cf0b08ac
fb228248
a6cecfe0
320353ed
9cf4f8ae
01a540a5
984f4063
e4efacf9
b5067967
1129ace7
e3ef0528
f6c641ec
aa8b300c
bfdf8556
aeecef41
521a249c
4e67f91c
19904bd8
287359e6
297f7a56
642121de
3b350d82
1d8a8764
152bc5a5
eba2e3a3
996bb11a
8ba28fe1
1bac7fd6
32b5282e
50a29dc6
a27ed3ab
e96d2379
65988c2f
2a790620
9bfdbe71
b7df995e
767818d7
d2c365dc
2bb6e8cf
c223b011
94a81c24
2af15121
aff95aaa
3fc2e8af
804233c7
abeeaa9f
8181952b
f12a6952
4d41a00a
bb8035e4
c1c2a951
0a63bf1e
be15fab7
3964fb16
8f27be90
190822b7
d24b42e7
4a6b0edc
4a20566a
28d5fdef
9654e61a
0284f48a
694b62b3
b37fed17
cd50d650
6b997917
fd3a5759
6b894c54
7f126725
22d35c74
63b7d4e0
069a18ac
4b7e7a33
88a3b4f9
ae23e451
d619be28
cad54e61
1b92f03b
9dd92ff1
c4ddb12a
257091fe
1b202d6b
a8048ffb
65fef91d
3dfa00cc
65bfdaab
a992d32b
0ca4558d
08ab609a
5056b327
469e22fc
8be6a038
f7e7dc98
a785e7ee
4a3e0b79
8eca081e
8123d29c
e3a2c4f3
ebcdf8ac
43dbd462
0b1e272e
0cbb7a45
f29c3f5d
e94e9c2b
46a95690
814a901b
fde24d40
1957e525
f1099fb3
0786d160
5d024048
c8439685
4b5abb43
c69cc522
30956ddf
f8d41898
b60b7a13
811a8c37
479eda06
1a0b0c18
75d34db9
a88a2821
ae677ca3
b454f1a4
e98f610a
777bddfe
1c18cc4e
f0a3d387
e66d8981
97ca0eba
a6770ebe
2672d02d
387c0eec
68517cd4
f1f04c14
d6172569
156eef0d
4da6e5e6
d0483d1d
a2a1fb73
8a52922c
62cb7e31
b318443a
64d21729
2cb62b88
1586b783
0f687bee
5cc5ab8c
01a9dc32
d4f419ce
43f7b926
d3edf640
bc126497
bfadaea7
8ef99fac
b5c5ac60
b8c3181d
7d2befba
62cf1420
0e7b4eda
44e67fa7
8b3d2bb4
83a664ed
69d5f53f
ab53a42c
0289f41f
2adb463a
270af755
aadff6d9
da7acabd
de8c54f8
f943b376
a46e6f56
2f690bb4
4668a1a7
2cb38a07
031a3ba7
c8b92c07
74c5b8ee
8828a286
93f8ed38
c1c3d413
4ea16b86
559a1183
e696be15
88525360
4271bbaf
31040ed9
f97b0563
fdbc501d
304b81fa
351d2413
f8d20eae
203e2838
db609c42
818b33c3
970ad0f1
6ef9b951
0810fcc8
baffdd6e
e552331a
0af76ff7
d826df75
8884e812
38a9fe8a
13e554dc
cf960208
296b668d
fd74964f
a64aaa84
f09a41af
6791bb6b
de17d200
ac146ad5
e12b2a3f
6a29492b
4d07b754
f4252e17
6a0167d9
6c8c1d9b
48a03b98
7e52202e
c73c9097
f8acd73b
733d0f14
060f09c2
c1c3f6c4
81731107
a07bd5c0
94f1e565
207624fb
fd9ebab4
4b7cc0e2
83cd52ee
72f5f881
4becc51c
e5a47a76
30be9938
03e8792f
97e86372
cc998688
c7e07c21
f386e0a2
6efe01de
767fab22
00db2231
214de830
152285e2
7459eba3
e31272d0
0273a67f
492614d2
d9a2c9a0
ff0d9c49
5bd035a6
55742c8f
71a91c6a
f0ba1c79
2f7099ee
4f267fde
0197d8f6
8363360c
627b4bba
67835d63
fa9bbdb2
8828dbe1
70fb8ab4
a24dd3d2
55e830e7
6da9cd3d
2d35ddee
16adc83c
24568571
be9b48c0
fdb7198a
43422f93
1e5038fb
18ed8f29
988ff92f
df5462e4
1f1038d8
3dd73bbd
dd1d661c
a6e2be16
cf851094
43be15ba
b670d64e
ce8f09a7
c16a2368
2772e018
42f18ff2
7fabc966
ae372ac3
49e0f2e4
9cd25c4d
ec368849
2c52df9a
e7f02181
89be41be
bfc164b0
7ac3eb59
a42bccdb
d9b2a47c
2f5028f7
d26a6ed6
8eebbba0
262878f5
3ea8aaf3
a30aa316
935b2a7c
175482f8
0bb90dc4
87e16487
59d32ce1
700b2803
ad8acb87
07c27e27
0b2f594e
323b4d82
11ec8945
a795bf22
3d1b5e85
fd216b99
730b78ea
18f084c6
9779e2e3
e8afbfa0
986e79e1
5acb2443
61cbfb87
8d11d36e
da997091
66700427
ee5c2114
74f6fa36
25a66e3a
547d6fbc
9bab5c12
999b2d71
3248ecff
212bf6ca
f1122219
77c7e4eb
293d9c61
09ead00a
537264f9
9b84b98c
c4bf9825
3e29c704
01ae32c8
709ca759
8a08d18a
a10f71f0
35cdbae5
69edf9de
3608db0b
9184998e
e7ae92be
a72a4fa7
25a775ac
bf3229c8
8c093c2a
e0e59816
d5f20931
b8d33869
c7f93540
8ea86a06
dfd404d6
3db74e6f
965ea3fd
b46848a8
9b300f4a
ba88f2ce
165db54e
1f7a7a2b
c2d4e815
aac196cc
279be1f7
36ec26b3
8225697e
0968486c
dd5223c0
4f15d6a4
2505b6ef
b91db887
2387e027
9f9e38a5
aab1cd65
b2b64759
f9858d78
8097550e
5c089c22
8fcd4b35
96b37c24
ffd8bf3b
6ec92e10
60366146
3942ba36
a07c913c
56038d22
99e314d5
dfaa27a3
f4de9910
0bef9473
c5ec6e28
f5ca514b
4abc062d
e16a32a7
bd30d6bb
532cac14
8ea4fded
1960e4b7
1cc36eb8
f8990b26
d04aa709
c41b3646
90487d06
cc991b89
83e19ce1
5a94c7e1
cfb48476
4ad3b8db
202d2eb8
c37bfcfe
26a35672
49f283bf
8d159e65
40b21279
2478bf5d
37a9d642
08f06138
5b9c84c9
2653cdc7
dd5aeb03
018c7508
542e28d8
b52ac691
2eb81806
dd4ad55e
e8ef25c7
420e5a6c
6d535ac0
f2d6916f
b54cc72d
f0b86719
c2342ef1
38ac0a6b
1bdeb917
5cdc4e95
2645ff52
e782b4b3
c92c3474
1fbba221
29cc9a90
f9e914da
34f55d85
f2f88c5e
f5bca419
0063b66f
894e704b
31a9f8a4
66fed04f
48b27748
89a91dcf
2f642698
9e7e7ee1
ba0c957e
c6a4ec51
1faa1e36
7da6911e
e19f2e45
49c83e39
3b560428
c5123081
a102caed
5894977b
6680e4fb
7d3e6045
15b0d097
5962d9d9
50a1b81e
24a75e31
1509d24c
285505a6
72890e40
49b7fd2d
24957ffa
89a6f9b8
54532cd4
42c71626
5703aecf
3edf6fd2
89a18344
04e5bc92
6f9b469e
0764ff07
7b579b9f
f5f15f6b
82fb5150
ead40010
459e7b0e
a562bdf0
fc6280b4
ae55fa0e
005ac1f7
e25f8d63
c11e48a8
941858ad
4a2098a1
17209ae5
e29eeddd
00f8e125
93432840
dd47b3c9
b5a3f6ac
20a1ed60
0274f2aa
be1fec79
7231a3ea
5c47df46
d7a21c8b
87562563
3d2f4fc2
bcecc194
338d2f76
9ad1dfd4
83e7566f
a0dd0ee3
09b4dc48
59b4745e
bf66ac46
ba60e6bd
d53605ac
39baf4df
857caf28
972a72af
c381666c
80bb0a0f
0e5638dc
3eb6f3fc
8b7cd624
18b09fa7
a5c13a7e
c6faed66
6370da96
a3c41beb
3c5c4b65
ea122aee
6731bf4b
7de602a7
d2a507b6
91c7d569
70189883
ae9dcaca
a01ec6df
8c9cba4e
163a23a5
efe7da58
af51c9b3
d22304ae
2b748abf
7526a35a
091278a6
ff68117a
62202e67
4bb157f0
1cb93adf
431b0d76
c665a172
8ad3fc2e
2dda9e96
ba292fdf
dbba85ec
4d7f20f6
69e1bf50
acc6ff98
3df0e1f4
007101e0
37a13a20
b70bce9f
3b56f694
2f214288
9d3bfdbd
b25ab577
28d9dcac
b21e7b9c
5c69f7db
0f898d3e
288045b2
1f9c93c0
503b68fa
87e521b1
7eb94754
216c47b4
4196ad62
9904f012
a820dfe2
0e630145
730b3828
889795cb
24f7ada1
a52ca664
9fa84356
37b85228
519fedc7
00de9563
fa7eb35a
c0cbb762
0a8b5042
ca1e6409
89d00b04
b25b097d
5f599dc9
df258663
01764e5f
34506e89
3cfecdc4
577da962
acc76291
d283b7ca
64df68c6
ccf2e922
5680f518
5f839925
ba249049
6acdd9c8
a17d627a
489f66e1
0b122817
f9704a6b
82a6295a
a2c5eae0
46adf35f
5c7df5e0
63668a0f
37eef312
866ab7ca
f7ac0447
d82ad2bd
592c51d8
f2dca3f9
7ebc73c8
dd83262f
0fa9fd01
86837bee
3a5c91a7
b4682ad3
66132e6e
e04448bf
5242c4ca
7ae2bce0
c0113df9
cfab43eb
1db40a3d
0c8f7dba
bdd6e46e
158c7cbd
b46080df
062f086a
2e0a1a74
57ec923a
cb6a110c
63aff7a5
aae8d73d
e82aabfe
1ba7628b
7da77126
19af7a0f
497bcc95
28eafd52
dd28bca8
006e3963
868bfcf2
cb198dc2
11da43b7
37066681
c63fb85e
73447a20
0cc227db
7475666b
31984705
913fb08e
9f4cef81
0ec72ce9
b5499b86
9f18f0f9
dcde6411
a812b3be
bd224843
5e5175a5
ad8fac8f
37cc47b4
e8e02ed0
a6b5bbbe
3bb1f7d7
b444d827
2abd4f17
57d8f8e6
5ba11909
0ea24c55
1ce140b6
c0aaa7d0
0c79be7f
e2ac467c
13c2c9cd
14cd8652
acc1a416
658e05e2
e264a1e5
a9916c6d
edb6fb0c
efe01da0
c29b6ab8
3e6097b9
59c0b596
3ea59bcf
3074a829
8cc186a7
1453acca
7fd243a7
21c54372
56a4d8d3
a4f9747e
9d9bf180
70ac72b2
ee064e3e
53bb271e
5aad7e76
b49f2b32
2ef5b8fe
d0e55859
daadf941
22b8de6d
9fa9497d
1d42344b
adcbd68b
f1f5a317
e07eea7e
94aa0eaa
f009acea
1fd8ee76
d6122557
c6e5ee67
ce013a6b
1db9e6e0
3603823a
bb856fc3
1545de82
5ddc5ede
50e4eead
33ed9f92
54299dd9
17b3edeb
a8b691f6
f6fa85f2
7084e0ac
88941d57
5e5f204e
256ffae5
c2f8dbb9
39fe9231
f316469c
7668b83c
7f5eb8bd
f8aa289b
ab17df8c
0b608355
777859c6
b36a693b
94dc28b9
6ada85bd
1177e69d
dd59be26
5990c521
9b9a2d86
09c19f02
b51d494f
5d437e89
cf45be32
80d04a42
9150b693
284c0c72
33594a63
3cd96b86
13edbbbb
eedf4ebc
e1062e0e
cb9468d9
17f5c2f9
a17df270
01bc947c
a85ef94a
2599fa95
291d185f
130d9349
92201338
941174b5
a3953f33
1bc6e126
e5e99141
2f1ce14c
719b7a22
57f6da33
761a2158
66d6af75
db9fa0d5
d787389c
10e1a940
367bf913
8edb081f
ae78fcb8
d2c79efc
abe6a842
d524e880
9b001659
537a36a5
1da8d88e
7d989558
7df344ad
717298fe
f19cf39b
68cabcc1
8a7f5ce8
ec3f301d
e402d116
cd1b04d2
8aabdcee
b8f51aba
1e99a466
d25e98e3
f1ad6d21
541154e7
ef6b5bbf
32e2f8c9
25192acf
4abd06c7
e4b68a67
c822376a
8e28a963
376462fa
26522383
0b5506a5
639beb53
a7e1a7a0
9eda7e91
be551736
ced1948e
7a361ba6
f1ef992d
f1194da3
851b0c48
201657be
71f0c3ce
a64d8386
f840ad34
b9a01839
1e7991c8
a10fbf59
03db035b
599a5811
901b012e
2e159c99
96a639d1
2c8c9e85
82f5842d
7eaf139a
39e71cf0
72182a6d
e648c753
d1aefaad
cd64a2c8
4bbe8689
b26ff389
aa33e8e3
e22a216b
6457cace
d7103d53
d8f9fa8b
c8efa9c0
9804a7b6
6ab69e5a
6c9da62e
075fab75
d5d47178
2f505d65
e5199cda
3fe75a90
3de609e0
a86f5a07
2e304208
a84e9913
e7dc2db8
38fa3f28
a1db2fd6
068b0f1d
f6b1eb74
8395ad2a
d15f1c10
d665fc23
1d9aeaf5
8ee8ef04
a369de86
cc163cb5
75fbe215
a17ea8a2
556e9e0b
51f66aeb
53411b80
c96d9bd8
b4750ec3
279a7674
36c32108
91c0018d
ec7af089
87da5021
026ce5b0
7fa1742b
1eb18bbd
ec2a0aba
4dfeaedb
9e3b5c14
ac21f017
e9ed801d
ae6af7be
9004d499
48073983
4ced47cc
6eadfe97
28e32731
1f959ce1
16bdd82a
81e511fd
7e9d688b
4a1bb123
ac7387d6
cdde53e9
2c5e93cb
05568fdf
206b97af
e995afb8
d14db021
e854d8b5
442f2877
efee1ab8
69057073
8e397ea0
ad901b87
a2ce7ea0
9bd0df45
6dd0e43b
fffb1c24
c2f19eae
95c0ba83
7832614a
83b3b107
26217174
6f2900ca
d82945eb
fa1c580f
77686624
f20624c4
64fe6e0c
538e3771
49cf7ca9
67a011aa
c8440ab5
8038d8e9
de80b2e9
fbe2b6d4
9cf6dff2
1dce8822
36631831
9a38642e
7efc9f31
ffd55948
373619b5
6d1056f7
b9d7137d
3e7c09ac
27ee09d7
3f8df1a1
147f5b8b
3af74b59
6228c316
05b0cfb6
d19ee907
80afcc7c
842ac79e
34f490f8
aa3703ab
331d6120
79a2bc53
a1cf737f
ce833283
a3103193
3dbca422
f89de079
2c618ddf
b5482489
d6ab99a9
10691fae
13aed60e
d1982d4d
2d8cb2ff
bf1412b7
25042273
aad3a976
b7b89b0e
56614b25
670e6a38
e4a73562
01251a8a
ff73c4ad
07adf3aa
20bf9c29
ae9ee819
ff6e8dee
e210770e
7989d6d5
a7f469a9
ac4a976e
ab9e0d03
647db9ec
38482beb
6827fad6
7132f168
ce3f241f
a74968ce
2abfe14e
1383f322
85605418
a97d9280
c8e81f03
d7bd5832
a2c25681
6284e387
240ab463
ebdc3d1a
85cc2fa1
308137b7
1e0f4b68
939c7cd7
31f88acf
425f3136
8106d7b2
bab39003
f51aad24
2bc38d69
d9fdfbb9
e8942860
440eb842
c1708158
61696fe8
a53ca131
e2dc857d
acba7d5c
9311238c
380e1d58
f70a24d2
dae2409d
19cf89a6
58b6ea15
4fd4f7b3
11aeca2f
24c7a6a5
e85b2161
1e8e441c
6c9e2923
e6d20f94
84dda53d
a7629782
34212510
b73368a9
63d2895f
678763d4
83cc323f
8237db50
43cdba8b
8f5c53d9
2bc7ace6
9850de44
d14ac1bb
4725412d
ca227a3a
9ca103e1
bf1eeb7a
a4cbb16e
4ca7227d
6c1c4575
f4ca1ff0
4ade7250
b48443cb
7e6fa53e
adf26afd
a6b2aedf
a1f5ca85
656d961f
5dee137a
c47a76bc
63830b41
1432d253
98baadb5
eedfa66b
515db492
39edafee
5cc7bffc
42cfd8da
725a982d
9832ea93
23659bac
a562b5a1
e40b0b90
95e1f8ec
09fa49f5
260cd639
84379939
7bc50c52
a7d47111
951f6711
ab899eaa
d9216091
2a747a1d
da82e14b
084aa0ad
0dae81da
2254cd90
37f8b433
ef892159
667cd17e
f626aafe
d8b61aba
31bb14a0
d679758a
71020ea7
a2afd8ba
559ca392
77d745e2
7f91e504
8c4b96cd
f0a87863
e24138e7
cd68f2da
47f53a05
620a06a7
79e2a555
6e511a22
b59d7ddb
e07a37f8
5467e0a5
ff0b9bbe
6c918f92
2e60921e
9e0bc96b
e93534c3
e2c90c24
f2b6de89
5b09d920
6fc3fb0c
ead263fb
7a4a1403
98851ebd
a56d4a06
4ca4dc7f
55f2e9dc
9a3adec1
b1638074
0bbe25cb
2c3dd90b
274b9c5a
464e350a
c28d253f
e1821626
57bfeb15
4b0abd93
5143ba72
690378e9
f0e34084
e0cfff3f
07f72866
127c0864
5356d038
f5a92d2d
2c867a0e
b41491ef
cf0f8314
a8aa993d
7aa966ce
e395c764
cdf147cf
8adaceef
38d1c94e
02489617
2a1c05c6
e6a8dff5
42b12f91
80ab26c3
e3d2af55
20aa6529
97baa198
72def7d9
b7937668
9448aa24
4d7d42dd
0ea6eb64
b9537ea6
23b1da14
8626328e
123aa229
356a35b1
71ca0497
8a1bbe15
33b6c420
2a223a31
3b38a9da
5afe3f47
5f3f4a82
745c6bd0
b31c1a10
b39b3306
39a695dc
6d2ee329
745300ac
bbb45b17
136f6256
aab416c0
1da34d4d
f791b9a7
7ccf77ae
8c227ccc
1bb17e11
f50bf43e
b3ed66f7
06f2cd48
455516ea
f563a00b
202bdf6f
42cee2dc
b51c9191
952b2a63
d9038c8d
952bf683
c6f25d22
55385e8c
fa0f4e0a
4a734b2f
24d1d901
397dbddb
2dc12ecd
798074fe
c2be2ced
e7823973
7d510fc2
c1d93520
e3f110b6
8df4b080
39b7b130
9f50674a
65b53b3a
50351ed0
19a5ad2a
6b5d2659
7b28fd35
996ff46d
74a56ca3
a045140e
0d1a90a0
0357cdc1
9b784146
d5b1601b
3a2b2b5c
568b1425
1ab26643
7a3c1b65
2dd2ea42
01575f26
5926e491
82596117
b1684010
964ea55b
17a89d6a
292181ff
cedbbee2
15ef7223
9d903a3b
913dea24
c4a1dad6
a63df2a1
2151d621
6aafc2f9
05a83db8
3206eb8e
869bd65e
c6994586
46dc7527
6ae0b75e
fe723318
bc79acb6
6b7d0ad2
80d60df3
de90c733
e024895a
70fc612c
b4152c16
999c1853
6ccd9a85
f077e3fb
c71226d6
ea9db6af
dcfd94ab
fa351437
982f9662
399d54b2
a68af388
20c60e53
a8ee9f7e
5da49275
3052b429
bed50e09
11d6ea35
2e590be4
07f211e9
fa730748
8bddf8ba
660d8a74
e0ed90b8
70b6d586
52e1662e
b7a3a9d6
394da5b8
793bdbf1
48e6c430
5a0eb466
9641446d
671bb8cf
52a7cb27
edade891
b98a648f
f90099c9
9f5ac8b4
031cae85
bfad0517
3abf6187
754d0ec3
251e3d67
b442632c
fe8bfc8b
32197731
aedbd14a
c1501ef2
483fbe57
b221f0fb
a81fa42b
e84a0068
940ad613
690a43e2
491f759a
eef8a19e
5c80a8e7
18ba5db1
bb86fac8
5b6f9966
dc4213b7
d7fa5724
1fcac7d3
1cc2ef32
15221cef
a2cbbc2b
25f0ab02
78426d66
de36911d
493698c5
2dcd8a9d
1919c2ef
82542530
4e9249b4
b9651a20
0054e1a1
07518870
c74016f9
ad3b2707
0f5b324e
2825dde9
d3e365ab
a8b02f2f
ebe73852
d4b14167
c51a77ef
c5b49853
3658bf4d
cd96a549
e3059b91
625fc471
b9dac28a
e1ad865b
98dc7b32
ac540791
5ca3da23
6f2914aa
9a78940f
b2f96677
34f5355f
c0a4dce0
a8b95705
0e3a4629
993efc77
b9deedf2
e0116908
f0be9248
c41c6dca
0f29289e
27644008
fc9db1a7
7af35ec7
8bba5969
dcfca055
075465a7
6d5bee60
2e0cc136
955b426a
6ece87ac
842649c9
68e944f9
9599f844
66dcd961
d268faa2
542c0ef8
fe17fd22
b62fece4
a59467d9
05e414c4
e9998786
6e7573e3
9d68528f
821b2f14
e5d2d507
22c6d134
23fc461b
e2f8c976
80887dc9
805c4fff
1e821873
df6ad7bf
988bcbd6
79341f55
6064f7e5
48b8ece7
7c7e0edd
f939b97a
f8925ba8
6c6f4eae
cc7e6d5e
51879df8
29c1524f
d43f7e59
19f14f49
8d6f9e93
33ee79e4
0f6916c6
dc70d8f9
d2dfc40d
2ae5f95d
3ff47a3c
41c2e5b7
ab0d0244
65f3c836
1a4a5f07
4c1df41e
d89dd847
dec39b9e
a36ba594
33e08531
d7cd3503
e7e33d17
778d8772
578c02fc
8e366611
0e9b66bb
13d95e96
a46f139c
d5d51bdd
98f35a46
7b702bc6
6d0948f6
70482673
9f2cbe3c
3f1d3ecf
24d83f1c
e4e05899
45c11563
a7ae17ec
f74a0835
458aba4b
9a93128a
59768a15
babad8e8
cdb5dece
7a2d1d64
76e8ba88
4b237048
be8cbda1
07661245
94d9621d
b51374bd
6345ac60
09b19549
059496da
5c323249
32f354cd
98450e5d
5add2f1c
ecefc926
2f34c788
7eb9df45
4bdba06d
1b1ad350
4275dbf4
4bebac15
5fb15a22
208006eb
f622c800
3ca8ae0b
996884d1
0a629e9a
194d4e1b
ef005314
e6932893
705437ad
0a2769a4
f3934c8a
ef2d47c9
cd0a5beb
e97b7df0
e7030dd1
56801eca
babfbe2c
bf3497d6
a9b130d6
1f101dfa
ac4ecf9c
a66b2f49
1a174557
3d966c51
2a4e5b61
dc1879b7
8500b369
44dd1f41
960b4c0e
a4afa3b7
62eecb69
dbcd44fa
1f254097
48c0cc32
54da4912
952577b7
116b0392
89dfad76
3f5556fe
26e57dce
091e6d5c
8953403a
2a845c68
8821431a
7906c829
497cf917
fed3a2ec
1c30f8ba
37b6613c
9e145081
02f5c801
e1c472f0
2cb4e25f
74517572
75ac6f93
f82d8110
fd341968
8ba68b03
62567698
db999b0d
6cd0716a
473fd8ee
798963fa
9ac54a56
65a3b784
a0e774bd
987ab60c
e95b3682
81d9d688
3a8b94c3
59807fa0
fe8b880a
4878ed1d
40eb3dd2
092ea7af
077aaa33
4569c7a4
3a4ac515
90815740
8f908ff6
a852bc17
16e5e1b5
8ea0b392
05ec8ae1
6309cf65
9c25c289
9252e4b8
d1725db5
7d46f2a3
fddde629
0491c4cc
cfd7ec6b
cf3ba73a
cae09ad6
16cf03e1
c4243998
82162c00
8e47b76e
26a4e3d3
53763f8b
aa07c62a
f2b7f71d
be7d2954
a5a18b83
ac9e418f
9bce84bb
6e2e7ebb
e15f574b
39faa455
b06989fb
1fa2098f
fb174fa2
ef2e8d5c
60036d34
4895e3f1
9a1299a3
6ac57bb5
309cf889
c61dbe57
5d2c8642
cf6b56a8
f7afd187
a7588320
382eb43b
f5f8c0c8
7f51bfdf
3f72840a
629444b1
f3ed62cb
afb9bdae
5b095d76
2b375e4b
0b83b973
fb10656c
01c5b7de
767ea41b
f36180a5
b28df57f
64c111b3
6b2ab67e
95a48e5a
e22855ee
7739f505
d592ba0d
f1759929
48168417
83fd999c
acd06835
f18ff1fa
a648b947
a5ac3bf0
ebeb621f
b2b64abe
81d9b180
70244730
9d79ee23
1b0acffe
d1a858fb
af842bc1
65daacd6
60e05140
376b0720
b01aa180
e6d045f9
a658702c
91c8efd4
6a2fa6be
f6baa220
9ef926be
7be5d04e
58b19d0f
997167dd
25e2e94a
79849800
65ebb6ab
987b776b
22b62f12
32262cec
05f59685
d160364f
14f76fc7
31891f4e
c1b9491c
fff1284e
2240ce23
c803a484
639615b0
c60b834c
d8effdaa
47d44333
5a70dfb8
04a90b5a
7f04827e
9fbf37e6
cf775352
9690c5c5
5e581618
ac22705e
e9d925c6
18b3a97c
7e9b3b18
be7dca5a
65ed4a15
b1b05703
540c41f7
ac28f715
bb120e94
44eb181c
fb029f74
5c5a7890
0a07dbb4
ef5094e9
7a0a1367
2547ac1f
133395aa
6af0c9db
a60c22c5
186b06d3
124e19d2
209e32a3
c9f1d23b
4e727de2
03ba1a8a
03200518
9ee038a2
bb3dba3e
c74e14f6
ac553502
91b365f0
44703459
2495671e
6b8a6ff2
bb83f4d1
41f9f8e9
2ae7a1e8
6b0a41db
b3919fa6
5d7dbe86
ce60c5ba
94bcc9e7
3cbbe58d
b852c1b8
fbe209ab
5951eb9c
e26aac44
5b6f8c96
acab6402
fdae9cc2
cfe3fa81
fb8e3dd1
fde3d679
401d2cf5
2cb7be9c
7f44948d
f387d8aa
33b08b33
6c1a463b
42febe15
df21b5c6
5d147187
10a17e6e
8ccb48ce
3d0e72c4
2c2b0bda
b2ff7af9
1a098216
537bbcbe
c6c98cbb
68d858ff
deb2a39a
f26aeab8
6fe48dda
7a99429d
e4787146
e766113c
e1badf76
e811ce70
fcbda18d
b962b9cc
d21c2e06
704292d1
2d8eaa65
64efea64
362346db
6ce5b7e0
d4e767b3
3a310dbe
a800a862
fd44dbbe
a5f0a0ab
eb5f43ba
08dc9f16
10e055ef
07e83b35
a782aaed
e44cb4ba
a9598884
1999f816
fa7404bd
92e3694d
8ef12a6d
88f17686
fd88da63
cc69f9d9
a32c13c0
2a4e05bd
1ef9fb40
7a6f2027
44e2fb87
b5507383
4b8e8e46
94a2ff28
377c6297
de344ca6
58d56abb
f068a0d0
fa9d1697
7ef74384
87265188
2937ab60
e235cbe0
a20baceb
c21806d9
b51bc2bf
4aea7182
76095ecc
6e4b007a
98a6c946
d9814882
2e8154c9
d9098a27
99198858
83529142
9ea13cc0
9466565a
b387fb22
6b3cea5f
c3adad53
9c2f7ea6
31f922c6
91ef1026
b902a3f1
0dad832c
78e9b7d5
4ce44628
26b2a8f6
da573bd3
86333910
0cb0a4a2
43014e2a
8a2bca82
650a4793
e78e2d05
f769de2f
7b1964b0
686b7cb8
09e27eb8
dea42496
ba58b99f
a136f2c7
b45f0283
708790ce
a3c96bff
6f3e9e92
aac160b9
babc6bc0
aab345ae
4b93da8b
2a8f9709
fca8b79e
06a0a5c4
058838ab
4d89781c
0d254844
cb2e6b74
f031129a
51e0b1c2
4e39d9c6
9826a749
00d18f27
10c5d9b7
de90909a
63cb26e7
662cec3d
7b7e209e
78737cc7
8b1057ee
65f24453
4dce36b9
96c2a22f
87cec54a
03f9c59a
d8ebadd1
acf42c7b
666337f5
6570f62d
9c999e14
a8216e16
c3c9a3bd
4e0f15bd
e23c25f5
629e41cc
d97363d7
08af247c
7cb26338
de99feb6
57497870
aeba37c9
4cc0db65
73ce82fd
7eb45152
c4ab627e
42274088
b69d79a4
262f4630
21b05e99
6ae4bb2d
29daf595
3cdf5fa8
37d45d6b
98ee10ad
ca74a768
3844308f
173ad506
bbd8959b
f0daeb9f
ae7534ca
c2725124
a5b37584
b56e740f
c88daf71
51065b89
aa0a6438
d4b1ac58
29921f5b
670e61be
94e5f386
afac700e
ed890e12
fdb1c2f2
d6d241de
a27747ae
da8eb84d
f0193d9d
31b8afc0
cf0b058c
9ab8486e
76fd04e9
77428a1d
0b6befd3
4e348ab9
5b19e771
91fc2b21
8856890c
9cd2b0d9
e366f991
a6edebe2
86acefef
9fd3ed24
8305170f
6f38dad8
6067ec9b
9fad62f0
8a515f08
82928d9d
ee2ca9ce
e7de8087
8ca777ae
3e2e4695
232fecc0
a875f68b
1f0b16b1
c2d0ee9c
b82a7b7b
6352fd3d
7e8280cc
ab9092d6
73c1a302
d230cda1
391109ab
b3905290
c65c22ea
6166071d
b10a2c91
283df4cf
10b2bfaf
655715ae
d5e1f859
625baa11
74db1966
5510cc9b
ff1bbd16
82f74461
7abe3d5e
e8481909
04934571
a9e39932
f1e79003
763970e7
1fc372dc
5a86ebc8
921a2010
86203099
29e10169
fffa1952
2aefeaad
70ba9ac7
f846f7e2
8e8c9100
7528380a
ea98a39a
57f6cce9
9d8aab23
4ba20bcf
9e16e649
4defb78b
73ff5791
1f42871c
9dc947e5
fb66956a
37621df8
e332e7ad
8fe7919e
9df98910
3142e02f
89843073
03bd0824
2643d9b4
29dc055f
5bc93540
326fc7b4
1af273e0
fcf19fac
a78742c0
194a744d
476f083b
b204fac4
ad086186
42192c89
f7f66ce2
65693246
b14ba4bb
75cb81a2
60e429f6
8d886835
e3f4cabc
8277793b
46632a0c
aad4a220
7f6df085
b97594ff
fdaf5ce6
69a79851
b6262f0b
52e2960c
e4c71e92
504b0341
04d175c8
ba365caa
a9633281
61b07b33
d690484f
ab0cbb19
4ed29da7
9a14c8da
3ee5f3e2
eb8dfb5a
1f2aa5da
b1e7a1f3
1ff2b2e8
56780628
8b001689
1d7e9a93
f48fd7a4
fad5b0d0
9a8010ae
0edfaa80
ff066535
eca90add
2a9007db
70eefea9
54b80ac8
5c4c40a4
9f2b8aa7
afba5e2b
206f7755
ede59188
4c418796
1ec1b076
770719b9
d6f503b4
b29ee11c
b5350438
20358b49
4f50283b
3a1f5c80
e89ebd21
eef99750
191c213a
848bff11
0c800454
d66e3012
e26b792d
efebd4d2
b0406577
70fe1509
bfbe295d
1660918b
5569a5f2
72182be6
afa35330
ec701a23
22430b02
816e66cf
b570071b
898649a6
dec4b29c
55dba663
2361c416
7bfc0ae9
dd61bf62
cc7a4662
1f6dcb0f
f79ab74b
af237da4
dc7530f6
27d8e0d5
bc5cbe0d
fab06304
c3368032
ce1fbb0c
2a0e3c50
05b0b3dc
88e12465
53a8cc5a
bcbb97cd
22eb7820
2d280a22
45ee6e17
c3a254f8
7b86ae52
46188cdb
1e512ee3
0c07e52c
23a61822
166f81ca
7e66be99
93c72ff8
d546b290
c4185cd4
75e1a225
aabf3d96
554ff2b9
80997e9c
0ffe32f6
3f8016d9
859c25b8
8ac7a38a
85d7d673
2eb9d343
64e01438
8bcf043c
5246ddab
e2a170ab
f19c9855
a5b1c0f3
331b66d9
0ca20380
5d302997
659b4051
18b057f6
d08a252a
706d3b27
56b3ba3e
9578eb81
14a2e81d
9704e961
71adaa4d
80f640c3
81f01680
7ea4f433
1ff6f3a3
f7c0b848
38820f2e
74368584
9c589e98
61667406
8d4b0e9a
6d31e5ef
986a808a
bad66bb9
c3dda6cf
6606554f
5a7660f2
ba282fc5
de3a5f5f
6a15f172
4c11de1e
bba71bcb
ce402fde
98e11dab
0b4e9fd2
77f99dbf
5dd2061c
2ab64ae6
d3353b57
6c2eaaf4
98e5a223
296dea19
9fce94c6
a54cbb33
dfbbea34
335fd2b0
f1a70caa
5414b897
4b5ac0f9
6fdf86e3
481be055
9b68f6b9
4b33b122
ec19275a
5a5d1ebd
6d26c571
a56378b4
6aa6935e
ab83d80f
053e32f7
5a5f5fe9
284f91e1
2e19c95a
746f2d8a
a8b8a631
83a6a9e4
5bac314c
c8474627
8f3ad72f
97b3ffd6
87f2d316
907c04ce
58ce916f
60ec2bc7
50932762
ed6af5fb
cc46aab4
6b497ce9
ac975680
d0418531
c8df3991
98fc3c80
2ec0daa0
4ed4a86f
ac90ace9
3adcceac
bb7f5cba
83815565
eaf2c3d0
94e42f3f
4705f7ed
e660710f
86b3be92
28240927
222ba11b
2ea997a2
af2d4297
7590e88b
b96e88a4
f5e5beff
c4926132
0f48468c
d021b3ad
c6da0004
d4f856dc
6ef3a262
21b21402
29cd68a9
1a35a693
ce4fe9a2
aabd4ecf
a1807af5
dc042cc7
f3b56f95
a7bb16c8
901b35e6
9ef96113
ec8e02ca
2d68063f
8e9efc86
b1572c86
aa8d6cef
88238edc
df468b59
2bd64e88
58ff19a2
48a8d709
5ed0cba1
525a08f0
3da40e0e
2ca05904
dd56a052
772cba1d
fc519c53
e5786951
eceb7dec
dfaa98b0
38d80bfc
900db902
73c8b93b
068f63fa
a108d417
9d1b4a20
5b43ccdd
9129669b
caf4596a
2509548e
1e571208
4cab5b2f
60577529
5475b099
719d684d
0db818e6
474058dc
a90f043a
84550a48
8df8eb03
269758fd
5e039e2d
fa3ace1a
f6c59768
d2af9364
d83029a1
388b2a59
539e8c45
86ecebd3
1b2bbd8f
64aac8af
75098d67
3f327621
e3074e9f
ba01bfbd
7fa9e904
d85628a2
78f2bb5c
c13e6a9a
614b2af9
270f5a4b
7821283e
e60f0abd
9961846b
1bc0daec
2295a6dc
c44829e8
a77849d8
b5cc45d2
e3ce7ba9
b503cb15
b6393b7e
dad0c19d
eb7fdf8d
63fae6cc
68ac45a5
599f3466
0a1085cf
aaf76761
c1832349
1f96f058
346a7ee9
d575317e
3898b445
e84f5e8b
29961be1
c1612285
501e9089
54ba2774
11fbe207
f1aa8aa5
10f278da
0820d368
bb1c1eb1
2650b884
d3879790
23624b86
983d0620
7468a6ea
83381cf9
d38bf2a6
4826f3fa
b9592d1d
77948df4
852d1b91
834287c0
ed91185b
d4535e92
791bec12
0c0fded4
0ac0d6cf
aaf86ce7
f58614cc
dc7c4254
7ea8f3ec
edfb74a0
9e482334
8ff86a4f
a67eb76d
d8559b94
b6878214
4f02facf
425827b8
978e80fb
54035929
45420e1f
1294a6eb
4ba9aba2
ffd7f3bf
6fe551d6
03a243e9
9454cc41
c90c3a5a
85e84201
bdc85e4e
264ac434
fac97b9b
a0d527f2
61561141
63e3d42e
b5c6d311
0887e182
d4ec3ef8
4e6c7e32
32e53772
658095b8
9761f60f
97a56a72
71d4aa2d
301bad32
0bd2ad89
4e964266
798d9210
2f79beaa
90ce9dff
a008aa66
f339dbae
cdc14b62
a4fb5a4a
197646ff
7ab91f82
699bd7a6
6ea535cd
5562856b
8df9ed97
e133089b
f42e40fa
5cd8fe16
47da63da
c7005f4c
8ec1bd83
d618750e
2a71d407
e693b3e7
390e49a7
9aa122cb
6651dae8
cfa08f09
5fa47acb
7ea73862
d96f7e2b
db1f38d1
6dcb8d61
d9456a0c
343a0cb8
924cbcda
387db3d3
49d7f344
23f9e14c
3f6ec8a0
a74f2a47
e6bf2d9e
fb148690
b48f53ac
902ba0bc
9abd2f19
7b8dc3e9
a66f3776
4b904da8
3d96bf42
697fdc1a
004f4bc8
9bfd55cd
b0ea226c
12791cfe
6f2a1a4f
58af9b7e
f8edb338
35806ca2
22b9e3b5
0917b9ef
9e84b48c
66b49792
4f6f938d
a26ec603
4109eff9
274ce3eb
c95e21f3
812a90ff
78109474
6d1507df
6b69aa44
3ee5c922
3e4afb47
3f43b75d
6afa3ed0
4a8e08c9
0f3c329e
c8671289
ce515f22
43960033
61927139
c090ca0e
82a6198e
765df3e4
ec8d29e0
89ad78da
38c1c645
604aed40
aebcf123
3919ca72
7a55218c
cad99db7
6337abfd
02b644a3
cdfbd35b
dca536d5
72537fd0
ce0ba4a8
cd50fa45
9a1a9ae1
f7c2a96c
6893914f
ca1edf64
1416ec12
13e7fd39
65e56b3f
e2cd2120
21b83e16
acc2ce1c
36d09a93
c637898e
4a877d6f
255ddb5a
163dc1d8
b3d15b41
8b4bbf9a
e5c011c7
79707340
a1b9a44e
374445f6
6b00e6c1
8f725e06
e9299537
f457b36f
4e1b68a6
f2dd002f
5191e0ef
3a78a136
7ca4b3a3
3cb45a00
22f8805e
cb54d902
b9ded790
34117f84
b747afb8
834c5b94
07cbea24
fec65cb4
35eea881
f67f3c12
5d2db6f9
7edd57fe
202c1ea2
16c569ed
46eed4e2
1bf5e9be
0ada0af8
801bf6e5
d4a0b3a6
0b453e04
981dbae4
a81bee94
f38b9b21
ac462c82
a8613eef
b8d6b8b5
f1ca43a1
36eb7e7e
cc3fece5
5d8ffc1a
b15051af
5020e883
c2ad1b24
aa1a3ef1
b884be37
6996d554
93ff28dc
3a88b4d9
51efc9aa
18986df0
cbf0d69a
68bd3a87
b239373b
849cba98
ae513de5
789dde8a
13af90b8
9df80b2e
e7b7f78c
424f71f8
5d1e5f7c
dc4d08c2
179bd149
a4ffb17d
836b6b42
f17dc3b0
e04f0ace
cfbca5b4
2a7732be
21deb50c
8a1bd4b8
9baf676b
2dae983a
0f60ab80
1929b2f5
36062b64
d5a9cc06
d20865d5
7cbebc4f
ca38022f
5ea186f9
b42f7278
1bcf6fa3
7efac03e
faa7bab7
b0d15032
c53166ab
04779b9f
05145fa3
8cfb33df
965eb826
a17812a5
68a9dc2a
a5757eb8
9fd7033e
d9d9fc08
62bf800e
87aa9f46
2cf75769
ee3e8fc9
7b890b2d
bab57812
2e4dd800
e238b7ce
e4adf16b
49a72e16
ff7bd8ea
02aadd83
82bcdb1b
80196615
a60dbb74
017e1f97
dadb097f
32a88afd
1229c3e6
d2106cb1
d1f53654
42096866
757261f4
ec57962f
bd503484
9a0931bf
934e4cd1
5fb735e8
dd4b168f
0ac965bb
73740c42
727098ae
6e69fc6b
71d553f9
8d232c1e
e1cf7b7d
eac32653
a202313f
b8032422
bffb1598
2e15afa1
33a772d7
5d9d2daa
51d9972c
356db76e
8b83c9ad
27db574c
6eaf747c
ce625b6c
d490777a
3565a0f2
f41dc562
b106a64c
f084d567
89253b45
fb89c4e6
198faac5
db9089b4
13474a87
670138e4
3ab8152d
830ed249
3087e368
f4356762
b996779a
8a1abd10
54734602
b785e8a6
465b694a
2cfca7d0
c0af6d41
3a4a6aba
aa6a40ed
8e8b8e8a
d06319cf
2d8edd21
e1a7014a
26ea809e
bf6361a3
fe7a581b
27c9268f
fab21d31
3b6f30c5
c3abba8f
d412d9a9
27a02610
95be4a9e
5b875bcc
54c96a4a
20f70a08
7986df26
1f8955b6
0f6236cb
14892f6c
12a92826
f0b708f8
d9aad9eb
72c3f1ee
1704ff4f
da111de1
a3128373
51c8fb1e
2f01d348
9391b2e8
f9b4bc50
4d6047dc
a6156527
3856570a
d1947d58
000dd855
13a0526c
2a5445f5
4de9eca0
5fe2ac8d
b5ae4343
b8f01e5d
d77b9230
a1ea5879
1441e1a7
222fa772
0af59841
dbff0de8
2cc586e3
5be6bc41
0ae56fb5
9aeeb6a7
456196a5
7c49dabf
1ce1574b
7b53db5a
68e3f802
6019c45a
8effb94a
b2df3a74
4a9e286e
e057e850
9e822991
18d1841d
20ab3a32
66f0044f
13804324
389780d0
aa181d40
922a8004
01c8c109
87090460
984f9290
9a1a19d0
ccb4253a
0ac5991a
56473112
9a4c65bc
ed3e3702
ddb2b935
128da977
b1253efd
830205e4
e95f2184
c654f1de
1c7c0e63
0b4123e6
e1d6cb28
a722d50b
8c22dcea
8ffb41d6
b73232fa
8aeb8472
0e36fa1c
e03e5c5d
ed0fddd9
18f30230
3c743bbe
3656091e
185917fb
b3b2b96a
78489acb
5ee033ea
e126ccd2
946a4d88
7b26f9b2
7d0e33eb
6b511d40
0cc0883c
1517b410
b69eaf9a
59200e54
5df40842
f82e1f45
5a9b2658
304cb9c7
19d81581
e347707b
1e456821
88f82505
e747dd8b
ed31f3b0
b3a79076
7356e8c3
009fa057
8aeac3e0
226fd243
e391162b
071dc610
b972ac53
79868478
92ee1675
a4219baf
0aad7397
959ce015
32ea7609
535775bf
919b2b6f
eabf95af
ed769124
7c0fe1dc
95468bb3
2eb4bede
308926ec
8453a96e
d134bafc
b2520cb0
ea0472b5
6d55c937
ca975cac
4ab9d8d2
f1e20e2f
43e57c28
00a7848b
ca179142
4dec4cba
784fe202
82345e80
9bbb3a07
63729cc4
6f831938
5516cad8
39fb58e0
3d775b19
d6d325ae
5b9e17dc
f28191ee
57987eee
4a6553da
0ea2c443
bceb8c82
cbf23322
e01e4925
2e533cbc
4154a5c8
bb13618f
8689e2ba
76f55c1d
1cdce8e9
21dbafa0
1fa6e63d
ddb52973
81dfff97
669278c7
b33067ad
8bfe1448
e8112aeb
7bd54c1b
f7e52f2e
c8bf3328
e9c3864e
8183d34d
bb3b61f0
6961a96b
4b84dcf9
2a5f14da
c4d97190
4aeb3114
85b2cf6c
49afcc2f
ed08295e
72adc7ea
7fbbce68
522a4300
cf95f203
086682e5
f8db1335
474b9dd2
171296ef
d22fe3eb
06c0791a
f45cdb6c
a17dbfc1
9ca44a6d
e715ae3d
11806a97
6bd223e4
36d3b720
ce395798
eca7af3a
cfa32a59
57e59e8e
ae89575a
3904f09f
9b8df7db
dff810af
e2b181b5
a8646952
6a872e9e
2f726b7b
9e1d40d7
4ae88d32
b3af7d32
37d10dd3
e92bbaa5
94e44a4b
7468383c
6bfe94c7
15b2049c
dc639478
6863a603
fa0d764a
837b2105
8596d92a
3c16cad4
8c7399c6
685f3afc
340db3fb
7d917e84
b965f708
d0679c67
93374343
295f06c9
72a09bb1
f7150602
8ae2319c
7045ae9b
be1f3b10
49a6d57f
2e56626e
25f1fb9a
eb949e1f
926890b9
b2f8c5b1
7a50fa1a
86af776a
a84cff44
0824d1d5
26cbfde3
86db98ec
9d7cb109
9fb64881
5304ca08
f32e9474
343537a7
d83bea59
90bf6789
30324bca
8f6e61b4
961146e0
3cad13ea
a167f894
3b818d56
3e0a30a2
9207d07b
a587aaa8
fdefc46f
09815ede
9168865f
f7373632
a777fe64
6a3d8e63
a2cbf881
921d7164
1996c6a1
93dc3be7
4edd9404
ce640556
24a0764e
4d52158c
62264cee
1310545f
5018a68b
1ead4cb8
3c7e4607
b6caf50f
c2669b05
eb4e63ca
2f06e0ee
51f1bfc3
2c627bda
be8dcd0d
73718635
7e656815
5dee5dbd
e8f8767b
25369922
3315fcfe
d70f16d8
ae744866
19adaed2
ac5850b6
f3825750
80f8ca44
90248622
2a45b60a
135ce9e3
28b28ed5
c45ffb04
ee18035d
c789fc48
7dbdf522
5ca13f6f
2d6683ba
7d855bf5
0cfb194a
22d3c162
70ea8552
9c04632d
a143891c
56969348
2e29ed0d
cd7e2078
f9a81a2c
ab9ed383
c3fddedb
680cc6d3
8907358b
ed08eea2
07abf5ae
008d3fda
a6beec5a
05c0a2dc
47e56fae
4a39df73
a8c283b6
844d967b
5720a2fb
6ef3f7e4
0fb7c8f5
d8d8e5a4
81953ebd
16b680d7
47d886da
1995e537
1084c669
4de19012
3cea85b4
55ba9561
1482866f
998e6f42
7fe4a027
16fe9873
edc17d41
8a8b2001
7cd29198
aae408bf
417c6b8b
d0e9beb9
c22ecc62
7d1569a4
17d24c93
197b8b20
b5a874f4
16d34d68
c0cc26e7
dcb56516
073c34cf
415823f2
8a67e0e5
ec96f255
e3094527
e389377b
2a85d6e5
85067c34
02e7fd66
4a660cb0
2f84e162
fe7742c2
8266ac8e
86350171
95083228
db9a977d
2ad297d6
073c1efd
0bf1bd6b
0d44172a
6bb3633a
4174ab00
cf1b8811
d72d3dcc
d23d36fb
84bac256
d4d0d187
64c64d05
c3c62be7
4f853349
d2fd1a18
bcfa4a10
26a87ed2
bfa7f53d
03f8a81f
bafaaf84
307f7617
2a33c7f8
0c630650
dada0e03
ee5dd13a
da2fded6
78b14c1a
fdb505be
866a34a4
a064eff2
34f36395
4cf966d2
85904399
413add19
95a4a42e
2a469dcf
4d5f61d9
384b64c5
396a383a
0e6a48af
cba4b681
b9180adf
ea97e41e
2e5f4292
a2696e43
c0b240ea
8676bd1c
7e284e7b
0914c5e0
dc96e522
1932157f
595c3cf6
b289f9eb
eea6de29
eae9cdd1
fe9831a8
bb83d107
3ddc1d02
86dbee7d
5c8267fe
568ea2e6
370d62a2
196629d2
21da8672
9c6b9021
24e65009
afc6092a
4ab2e288
a20d95d1
ef7f2e21
81bd2508
e7323c92
0ab28870
7a269060
4bf73a37
824cfd98
d07dce98
eca7e76a
36071f6a
fe65752c
d58d91f8
907d9405
a1f9cf66
7d19bcbd
ad66cffc
914978bd
284e6f83
ad82ace5
453dfdcf
0b6810aa
b4590cfa
e6a3362d
38e389c8
e8b11717
6a4cfea2
1423d609
f5c5ed8d
feba6229
9aa1841b
93c60a4b
a7d1a3ad
a1d7926f
abcad17e
c095a413
03cd5d24
2ff33a7e
eec22bde
02c57283
1323df59
2a7bbd80
9aa8c84c
268c372a
0d9fc2d9
fcd8e0a8
554241ef
9d24a5fe
dbfa8cab
2dfda035
b43a3462
c5327583
6540df16
928dd926
daa4f785
bbb0dba9
caeab036
6fe86ff6
0c82f351
0580fa84
d420d972
da65ae3f
a58945ba
b9882171
064ae7ab
200132df
3823a42f
6f8f3c3b
de50a2e9
e51cebf8
366f290b
edd58811
71028202
c5e00057
15a91ab2
718ad1fc
3e700fa8
67b227c4
37cf33f8
79799bda
8401e742
02cbbd5b
e01be9a0
9f4fd84a
d1800701
e61444ae
98ec5839
7be87cc5
927a5345
1a36e170
85295999
b6b287a4
9e4efc96
9320dc37
afa648d1
f2cbf01e
929deaff
3ab2370c
5643f79d
b97b8f3a
aae3c445
e050a5c9
8ccc6c15
96bd4b4e
860d9fff
f6f3a25f
8f22862f
d02e88a5
e1c075b9
4929bf23
41a3cf4b
14181aea
5ff6f8bc
353e680e
d96514f7
54544005
b3ff6555
47a3fc20
e2d484aa
6a5a6ba8
499d2793
718580e0
2a12abf7
684c2b5f
b0809d63
2b1ab4c3
70ebda68
d0133b83
72f84f50
c08ac0a9
a5fac87c
5c7ef70a
add0a6ba
42b998e7
ab3a60e9
584c135b
61b9097c
6971e934
e369d64a
1d6f27a4
a2ad56ac
00a32ce1
72d69be1
fb8ba55a
ce9e0698
f59d1aaf
a00b7862
7611af46
305baf99
9c06d9b4
c902f692
ed881a37
d9f5c73c
0a8d199e
015969d8
f6a92554
f9e7d427
b3b0a2a5
8da4a33c
c1ab7909
442ae53e
a5facee1
2dfcaf87
9dea6855
1c0406b2
96d29956
990b021b
c2a2e769
9d517073
47307bc1
acb49f0b
f075f22d
5eb1ca4d
460018ae
c9bfa4d8
3d904269
76e485a2
4a57c858
5f2d71c0
8dc2f49e
6a81fd72
92fa40fa
8f52aa09
52baa841
6602fdc1
0b068143
a94a1f50
11ba802f
9ad13841
0c65a083
ec8bb2c0
87ac1f59
f56f7b07
d63b4b69
f5d94d98
d74e5c04
479606b3
76c60a49
15769636
48ea1fbd
3942e1ea
503d5ab0
4021a9e8
1bf5bbd7
d206fa24
44b2be01
68ec3685
4f9f960d
845ee8e8
7e3b4fac
35125529
d5ee73e9
c28ea5fa
d21679ce
d54e799d
98093bd1
9a578917
2fdf96dd
2ee72ef3
ea8e5e45
9787f3a9
425637a0
acdf96f1
8eab11c1
b53e3939
df2c0207
cf0c0b99
513a4639
3c682519
4a822f91
4a2711cb
8045b498
47b13e51
3664e69a
5388d77e
5247182e
c7a4546d
79d52abe
5cf9ac42
e1e186ad
eaea34ed
45cf09a3
5901a950
9a423628
d817b412
b5936636
f0318898
42d60ab7
913de281
76c2d207
e4e4497e
6fc4e842
68933592
dd7fa266
6a25f6fc
e4ce6d81
aab30cf8
8c33be01
eb615757
c3ce42b0
b679721d
64bf11ef
76feac9f
404a61d2
516bb2c0
ed8ea8c0
95d12cdb
b8a06490
eacfd869
82732ee6
7fd29677
440d072d
13ab9da9
d259a71f
e91fdfa9
2b6efe11
43ab8a18
5e0e34d1
32049616
f06a4f58
2ba9bf38
b4b5215d
26f29b79
10c960cd
93da8755
bbbfa19a
975f6591
19a1fe92
b9b20abc
194054a6
fd666aba
59dfdc7f
a2080e1d
359426b9
2630b9ba
a9416686
9c1e3fef
096d67f5
722f7e77
ffb91ccb
3d4a79b4
3f7d848e
84f02bd6
aa5369f2
8e77158b
c20e4262
88d1cd95
51b1085f
43962393
17d38fb4
d9e89ae6
bc2faae5
e5cbebfe
439331bb
6326277a
ee514ed6
9b100d19
1e00ef54
d5a6f163
0e2deee7
29ed0595
85db76db
b456b5c3
b02908d6
8a53ea9b
62f1ea7f
c0364363
b1d7be30
d4a9c967
a0198acd
c4005e83
67d0ecf3
4ecc5560
4dada33c
6cec44dc
55ccdcc5
7c7d3dc7
af74fb80
72dd9b43
93d3fe82
6af4b312
d48b972d
2e726736
772a03c1
eada2e09
823dd80f
61b6eb84
6009d3cb
9364f96b
d565c7c4
492d4d67
f59daef2
0bbfa9a0
89ca78c6
2ab98669
527254e5
d7774ab8
639e6554
ba4e7e04
c8b65076
b413a84d
6776dc7e
9b893f12
8a405170
a5f6a043
46851c02
da4ba3e8
75cd040e
f290cd4f
037429a1
a41dca67
611bb27d
00ce3fba
23e8f21d
d1d89fdf
a72d8366
e01b69b3
57349169
9c552735
44f518fc
5bb1cb8a
3ff2cca0
9f2a0bd4
4d100c0f
f4a7440b
fd3306be
0da3d276
9c8f88d1
e07a701d
348d5cf6
689903f8
5769c52b
3836c263
c9220d85
000d33ba
50a0de37
746d4a4a
11b7d5e3
d2f1d733
ea9426d3
48c8e955
c0e60946
270f9a20
bd7313ae
3189b49c
0429fe39
2091a268
df0fab43
38a494c9
b126e679
e92b2aca
568af20b
f61fb3ab
b3502f66
b41d9854
a1d9f8a7
6b9a3614
9bca076d
b3ecf56c
420190a1
88ef55ef
998379b2
7939d808
42ac86cb
97bcd989
11aa5295
bf454c34
1a82f3ed
ee5982a6
793a8c1b
b6a4b77f
a678e461
d5984b92
a48b8bd8
d0d6fced
f932328b
6b9357c6
85fede83
5e778307
5953b963
e5d499a9
32f0906b
6990e2db
19da0c76
8c92c0b7
a6b9e838
8cfb578e
7787779a
af0fbb5c
b5296670
db416178
6af8e5e4
4a5b7bf4
5daae8b9
a4876e31
867c8544
94625c5a
c58270f1
5cbae4d4
208952dc
489271fb
66b16527
750bb3b4
87acd78f
39b3aaa2
bd51a126
deedab1b
067564bb
d8fd467a
2aba351f
7b8bf0a6
201e940f
f4fd822f
87133e3e
50d6a83a
8e5b88b1
10761fda
c520b01e
eaebb60b
837a7435
ab3d96ee
2af3dd91
c4cc89f4
3a3fff58
b6d4e096
56dc8ffb
2665b070
5b85c96a
5e768c95
d3642ce3
ad816104
5ff9eeca
5a39eb98
40a68840
6fbeea94
80678577
b1ae9ac2
eba4a7b7
7b9c7e61
d41378a8
c92defa4
108e1a03
50d6bd4d
0e4af7b5
afecf1ab
0ff21225
aa48e3b9
f4751d0a
98340111
c26193ce
73b121d5
c0fe5445
8ff66276
2d7aaa21
a3f19a37
c76d4181
391a55dc
b64e2c93
96866add
2d29c5e6
01ae3d30
219c8218
cd649c43
15ae88b4
feaaf335
0097dea9
abd600af
5da8009b
e92180f1
9774993f
738862d4
e8f057d2
91f8f885
264d8150
15e8d2ea
dcd2e168
8b3e4583
7d6b89aa
351c3164
82a214bb
f8c6fcab
979d28c1
db40dbde
612f2c70
5acfe95a
b4dba0f1
0197205a
62bbc480
34577280
0a4623ba
0573a46c
8e189272
617c77e6
f8a79d1d
e4bb3157
04ac0d46
e0314d6a
6b692c88
b62164ff
8c4ea029
1dd068b8
9c09b4a1
81488f60
81292373
bb086289
35e6caea
b41cdbf6
8b2feabe
aa88289d
cfa165a0
e265596e
3bd02425
10487ef1
b7227c1b
9c1c7e25
7d1fd272
ab696dbe
e8abff2b
b7e68e11
1f503d17
6166490f
7ea11d4b
e83b8079
4fe1a395
9667e745
34d0f69d
09ba1828
038b9de2
7827c64e
c985d1ab
b1c94644
4d85f837
bfa2dea8
c38052c6
a16ab4a1
5b559903
56ad2758
34f2c6bb
da159900
52c16177
a1d7aacd
87c6fcaf
867fe4b8
2facf50a
17a3a16f
fec48171
c5c7335a
b4eaf485
f11acb2e
7447c53a
8744378d
873bf1b3
b2cd0d84
2de77dbd
eecb1615
a960fe55
e663a08d
9a84c48e
20f7015a
67823762
a24391ca
0365d6e2
c138b70d
5d581237
9525d8f1
9146c985
2a952c8a
14fd8cc0
ec58b638
ccbd27d4
d9ed3d03
62cf8a33
5f62b7f2
4a6d2216
1f0e49b4
8ae6c39b
2ea1e829
1833c3a1
7f929b70
41c3b0cb
a14956dc
7b79b52e
02b8d11d
219e29b8
bb19dec6
c594aa85
e57e2639
1ba054bc
8a8ff3bb
e4405404
be750b94
465baa56
2fad9091
4ead7e41
6f69deab
ca6057ab
0c493ad7
738358c5
41c214cb
5a956c7d
806a9807
9796f2e8
0b3fac81
0d6ab159
b14c58a8
3a73b3b2
449aa688
bfe57677
24d5a8ae
c1c50da6
10dbb72d
4e58b7ba
97276f9a
d880e81e
bfc7d30e
ff416202
7b83b8e1
ab2fe1fb
c8edd36f
a89b6955
390c0085
2aca5353
d2559cdf
7e340ff3
4ae7a5e2
f1bb88e6
5f02a93c
64e08e31
6e18f2da
835a0f2f
8cce81b6
41f2eda8
17c8e2bf
45cea0f4
232cccb5
b618eea5
6817c726
2bf22855
52698b72
15adaee8
8f9261f6
8bcf04a6
0663f8ea
f0fe38eb
9247f1b3
78c7aca8
1d8378e1
dc41e79e
d0c9aeee
0bbfe073
a59b3110
823533ed
e6730b91
d5bfd867
1a3a26f1
6871f217
066e47ef
8c9dfdf5
5ebc3406
3370a73f
55ed7930
a8a08907
93aa230e
09c1443f
0df2a852
8392baa0
70f79271
6913d1a3
ef10297f
40ca922c
0f2e6b5d
5aaeb5f6
4878e2f7
41cf6315
6907799b
9242b2ea
2751a527
d0388670
faba8d5b
dbb53a49
041f94ea
e7c1ab5a
3436c735
8f04aec0
d9f278b8
e7a71531
c348c50a
2b70b77e
b19ab1e7
4a2baab3
ea0f492b
3791a89a
356f31e0
f6a7bf3b
a6885171
b30957d2
d05c95b4
be9e2b77
df96151d
0cafa273
77e70614
2ea1e335
746731a4
8059a92f
d433369a
5a19461e
1e1e6507
9da2a1a7
d2578129
0a8eb6ea
30fd55cb
dc8a3988
0a7b19a1
08b7455a
0f25c1b2
276a14da
b54bae28
1bcbd847
a736076d
9f73e8da
b84f8f2d
9a66129e
224dd1d0
e971b24b
68b7a1d7
b2af4bf7
9424cbde
d13eb6ee
5139c2f6
64c3f560
d4d2368c
fc553e60
5e2f9c54
f57cf1bd
49ab6cb6
896bce6d
f7085b6f
e04762f1
af6e3e37
6ca19804
983054a4
cc559863
ca9f54a7
75bcc996
e71e9dea
70ff1620
85080bda
67a3e60d
bc4ff08f
a2e44723
833ac2c0
6804ef59
539c2575
19077b87
8348598d
26ce0c54
f21604c0
0087ca4d
41604396
2deb95f5
dd12ce49
98fa367a
f5e098f5
510eeff3
24a1088a
fc68b1b2
0f6ebccc
a0242bff
90bbdedd
fdce2bf6
25430ac8
3083129f
2028ed0a
367bac9a
8395ed75
52bf5be9
02f788f8
d9f0fcf9
b35477f3
e4694cea
b4a54b98
33fd8ee0
98494744
4fe87e3e
2132807b
e185864d
1b38857d
3ed615f0
5e6f2cd9
154f8156
b3a66e51
ffa1d9b5
2ceeb4f3
208be63b
844aea81
157c466d
6dfa6e22
61729a0a
9183856f
12616123
c4a321c0
b7f443bf
cbf23bca
e0a1c2e3
2ac9da37
6b894ade
c240458d
d3f58dce
bfa10ee6
f418cc6c
9038dc28
9784daa7
12a2e0fa
53d4fb01
5689acb8
a3e0f4c3
34dd08d7
e81422b7
2620a596
cb317b20
a96c3bb1
e63b1417
4e31cd3c
ba885d92
7d41c372
306cf8c6
6d040ed2
2648ee21
b953ccfe
0c2233ed
ea3adf87
1302bdb5
6024790a
5859aeeb
876bbc78
5238ca86
0a92dbe0
2fb2ee75
493a6774
11b673b9
2daeac78
e93ed5a3
679e58e4
5522c9cb
eb8f1f21
b5fba9ae
503b0fcf
891ae611
ba70718b
995a834b
254ab5f8
3022a177
09530ed3
b9a8b146
9a942963
39c63c31
b980712d
84bf43fb
7da2cc79
b64afa2f
867a02a6
736c9efd
000ee438
4849e818
7ab3b974
88a3d875
4099a125
b09dcb96
4254d95e
82fd930e
9863c659
b895010b
3547a685
08cab360
5e6942ae
bd8402a4
bbef8e0b
6a5ddd8c
b82c700a
1b91cef3
86f029c1
9edb972c
8fbf298f
6c7fad5c
3c4a6700
0804b0f0
44a6794a
8a114c38
ef23b63a
2fbd5655
ef2c990c
e2257212
74b89a2a
a8189d2a
5eddab90
fef2c460
25a5c087
25a08ae6
19ced867
9487ae8c
af27c5a4
51884ac8
60549e60
886f72b1
250dd1b1
e4b7eda4
8c2f40e8
8264312f
37b53c90
b82cd41a
78082f61
8fcd51c2
485510b0
1c45bce9
835b29df
b0dd7a75
edebf346
372c7014
5844e25b
78ef88aa
ce8a4273
db9f9e22
df97ecf2
a8964df6
a62d050c
7237c560
d608ab65
9317575b
806645e2
9cb54733
c9b29a8e
52b0aa09
85356731
2fc83a36
31a7faef
a79b709e
c51be63a
26d5841e
25f93fbe
664abd7d
a35ddc6f
5b7a7934
0b6b9e88
cde2268f
f7220716
e1c9f9fc
f9e3e851
bce76e3b
b6c74975
e42c801f
d69ccef0
98c30f9a
1185693d
6e402b15
86e0138a
219fc551
ab11872a
022e5cd9
24196e19
3c7a2165
4d08ddd1
267aea2a
381ee0c6
3910b3d7
e2f28404
3c7fa3bd
2d367f84
bd0f290d
51397fd9
ca7b5a12
ef72c030
8261bb90
eb6d33d5
87cfd8e0
dd10dab4
1d470029
6b4308c1
c6a6af22
acc3df4b
fb337f4f
b7c46d00
14d87e91
6bcdbc3e
053072c3
2a391bd9
32935e2e
5670e43c
3e1f0327
fe8f4842
720f2ced
d1aa02b1
561a1ad8
d58ac658
0dcb6801
c3c2f824
dc5761ec
7f5cb7f9
3349b0a8
051decca
60998479
c5b3a984
757a9e4f
53fbfe70
6000190b
df750694
81ee2a3e
de510fea
808d8b6a
10114818
5d90be05
09af8b02
094ecb95
1a962d95
8065f247
63e21002
226fd57e
3f25df27
c802850c
61bdf75d
72609e3d
b567b4e1
b98d5401
26a7d4b1
27a192f8
32ee8837
25a9b887
357a5003
7f6e4d4b
561ab6ad
6aa587ea
371e3859
7c89663e
5d5dc13b
b48298e5
080652f2
82125e01
e9242606
22fd5293
95531ecb
08fd3461
b1b5922a
acb082eb
ee4f7aeb
bcd49b66
e939c4f6
7e9bcf29
b6a70280
7d51be2e
2dcf80d8
c2007d4f
69794db2
87b52646
52af11bb
587b3a4c
87832228
a1f0228e
97255b9b
5849a25e
ea487d24
abef0514
c6225dd8
349341f7
d8a48a27
b2d84d69
c791a9dc
99671e4f
c0851ba6
f191a673
4599a2c4
30b8abe5
d1f19a88
fd624690
0ee1d02b
1f2319e8
f823e958
e60d8f7b
2bf2a54e
a55d0ee0
1860e42e
bbd8de73
9179f1e4
a3c45bc1
e5d89652
d9571055
74e3cb26
96b364b2
dd77d4aa
d386f4c7
8214c746
0829c71b
824867ee
18d8b5cb
d38a178a
31e2e1a6
fdb98960
591998af
6bb41ab4
cdf7e77a
e12750a2
2a1239e6
03600339
6d0ed219
bab6b4fe
e392b19f
d01a86b6
86899469
dbeb2fa2
5b2e3d8b
8fdf6d3b
75fc4d52
b28dd191
f6ddce8f
be2277f8
2a20aea6
e9b36fd5
f1798c1c
682e0199
19a89dee
5214dddf
6da1f754
61a5090d
702fbf56
b52f0608
a9a16b67
ef39507f
29e12cde
266e8f74
f101fafc
85dba9b6
6e5d421b
33d06246
e84dc997
b079ab6a
0f04a5ad
d3afba8a
36a38d00
2e9c3fbb
ee2f9e1d
1e1d1766
6d76ef5a
4d0b35e8
9a08703e
218765ae
c787c050
cff95fab
8e1ff9a3
2a09c7f6
67eb9ed1
5bb3a8f5
fbf474c1
c1c5679d
16dfbeaf
d2ddc6a6
f28c801e
7ea5736d
a960d25e
5c83977e
852a846e
777be2e0
a5268306
07ecbd0c
54b5983a
f8e18a75
3c1164eb
b486affa
16d1980c
f5619769
74d8aa7c
f2a31ac3
b465039c
4feb9eba
fecd56ac
22c68d04
b4904bb9
4e72986e
9398750a
a8704ad3
bcd7bae5
b0dec6e6
bf9a1167
6932a363
4a13739d
2b6f7f8d
6fa1e706
aa383825
794a0010
1ea12357
9caf4345
f1ebe3d8
680cc398
038bdba7
4ccdfe37
5d06a49b
d771603c
ed1daf09
69608d10
c1bfa751
1e680ec2
b968a8f6
c7dc587a
7b2eee38
50f810d1
c245e493
63602fee
029a3226
4003b3f9
25238b58
1ce9ae57
fa014d32
9d77e5d9
392e3636
8f52b588
89e2c608
e6eea9eb
9a41bd73
cac7fe67
1dfe58eb
1689095d
aa6e9ca9
039ba694
f2687ddf
a9a4dc71
c9531442
d7088ed6
b45ac530
f622b819
ddd7427f
5b4fb438
e2d9801d
c78e28cf
237bc6cd
e60968f1
114f686f
829fcadd
3337c91d
939002a9
b9b559d8
6a71f660
f660a57d
86f308d8
38892e5c
0741b43a
de81451a
69a64be7
bb248283
6992f5cd
647de14c
7f87a7ba
28019714
256a78a7
4273d47e
05076dd6
3aa1c056
bb6b9ee1
b3a631a4
c6602278
dda9ca1d
5a6cf419
cbaeefbf
aa2a9643
cf75b0b5
834ededd
9eec2bb6
5a229bce
82db0bc8
0568d16f
bd914a90
f153de5e
f8fcd9be
3e419b83
73b3aa29
a4a061e2
28734f0b
5b522785
01827ff2
0fb2b96f
e03890ab
92df8ab6
562cb717
6152bd3e
e969d4a3
8bbf2704
c75a345d
8ee9cd56
5b649648
8caf632e
920f3a4c
2068b474
06e395aa
4389d6ca
bb189909
866a98f7
354aa5a9
8216b425
806b51f0
68db6071
fe8172a6
6ee4ba46
fb20583a
6396ba3b
bf3448fa
4e1f3c81
8a63803a
e2e5b1ef
3a497176
d02f208a
ffbf00fd
470d5dd6
fd43897a
9b2f50b7
b7710001
e91bebcb
6ac8922b
740ced92
e8d364c1
89bf7fcc
de8a83a7
7d98e9c0
7688f203
39b58de1
d2e47bf5
6bb1b6ea
6a6b87cd
ce2e59a9
161613e0
366e90b6
abf2974f
3dbcf244
23e82d0b
f9ded058
29dd5a37
f1f9eb2e
f21d16f2
98e7bc64
c4ea69a9
b819b378
9dd41fa5
bcd5dd86
1638ff78
ee16c41e
da53f1da
96116815
481335af
97530826
2efd0983
21a6fce6
2e53d564
0898a788
573c6724
5ed9f6b6
e1e9c1a2
41b19b8e
cfbcf911
b769e790
731422d4
fb3a1356
5b3fb169
345ad2ad
07613b36
15608449
ed190369
c76daf9e
65738043
4abca9c6
369d5a67
278c22b6
4a466063
145c7b8a
91ec280c
d0e6dc6a
99aaf3a3
3b5e3ee9
ab72952c
c6b5202a
595a085c
7fe0bc5c
a59b7599
d040f194
e2de79e5
ce6aa512
dae0eb0e
6fc790d0
ce41432e
941f8f80
5780392e
81d37875
9ba4fa54
27fa4ead
bcd9b825
297a81ab
ac564702
427e3034
cb0f9138
3d8684ee
c239eded
8e49529f
6883eb91
eb216801
abc3ced2
a2c361fd
1973a884
d6baa605
9e9542e9
e8652af8
9a84498a
1a5fedad
6c700c36
0b58e2d0
dd16785d
83e4a631
ffe04e2a
21349338
eb068b2b
9adcf0cb
25a50b73
4a25ce37
e3f4fca2
3cb31d00
6e51ac1b
7aa179d0
e8a78344
a42a2e8f
282a2017
77b285f2
8919d87c
94e98dc0
afd7f352
cd7a6072
5419880c
33a18a01
07815007
383ceac0
6b891e06
03137897
bf9069dc
1e4a13a8
9609b8c8
358d84f8
e4c14a41
2111e6c6
14942ce1
73374ec6
a7ff55b0
503b1074
205c468d
39b1bf60
aab8f00c
2b4e87c1
dee2b781
5407b978
209f7fc9
fc6ba97f
22ae484b
792bcb62
10c9f112
23b4d5c3
0352b358
daccf556
8e438df3
078874f3
008aec8b
01070a49
1e008ad5
74ffa4d4
4aca22fd
35df2855
56c35b99
7359e4f8
ded1b322
c8f12754
688a7f5a
c5663079
252d12ba
12e1911b
0ef4e27c
bd9a6bc1
d13511ae
6ecf2695
c46c8407
3bf01f1e
4557a066
aa5b4a34
662eb0f4
2499b01e
18f93c20
cce0fc7f
9ff5a3f4
9ea9dd68
05156cf3
11162426
28de4579
57c2b344
314fb6f3
f6f8e419
6d001357
5dfaaad4
73ffc802
534d4adb
2ed52680
8283c6bf
a91329eb
576cff29
e59928ca
e5046d8b
dca00e98
97ffb382
fe5b1650
be0784c9
93ea66c9
84df9aef
ede50355
3a026454
792d7461
8a1c1f84
e26a5817
63b12cf4
ee8a5de0
4165dbf7
94a2ede9
ed97faa2
36c9f523
8864c9c9
0006184c
62cc9ea0
9259bc8d
7c80c6f0
3dd0af35
b012875d
b6c64bf8
eff316fc
9d90727d
917fa7f1
222f3a94
eb6b688f
0b27c56d
70331b12
089c9ccb
6a75ff6e
ef1d0c4e
68387868
d700bef0
a9e806d2
08583db1
6005413e
5d23d13b
da9ac20d
4fd02612
d673d8c7
f4688696
0999bc3c
0d8cda1a
58ea84ad
d5e1d4ac
78ab5a77
08211c73
4faecfee
bbb610ab
2d5ebbe7
eef7a5c5
1885a22d
0df61e95
d2eec83f
d5889e3d
516c76ca
562155ee
8261ea91
91546e1d
053eba29
9ac47e8d
40de873b
0aa78797
93fd17a6
19a187f2
ede23393
bd6a8e37
17d9ee95
aaa20f86
374bade8
08db1db5
80bb6890
360996ec
43ac9a24
40a6bc89
28e9ef3f
ad683d65
11484380
b18a9230
d4dcfd2f
52663563
da66e09f
eb23bb49
e99b9808
235b6ed3
9da82d3f
92214a64
4d1bc37f
ce8eaedd
7e5b70ab
521c9bb1
b41e04f8
c2a336ee
bc811e17
574ac039
23fa4415
6eebdcaa
4d0334b8
ba27c620
926a5868
b258b402
e57daad1
24e1bbd5
5aa89dcf
a4b6ec45
5e23978c
69c08370
0a939c87
240d103b
1c2c4ffa
5d5f1b2e
9a0bb068
42bcb589
5b0220ce
ef66d8d4
270ca186
9c7e0b01
7f4620ed
475f1316
2e4328bd
bee610f3
9f648aab
87aebd7c
a14d2db8
c0bb715c
e5511e63
24c5bd41
7358c219
0ca27876
3f954eda
89284dc4
9446b7e3
aecaff12
b5b6e973
22742a5f
e2ea7fc9
895390c1
ca655b92
bea42eb1
6f0af17c
51ab6a6e
4e87c113
70e66404
61c47dff
a8fb4238
e393a17e
d57e924e
8650a8c9
c03292b8
01ea95b9
7191e94b
c2119365
8e37d995
d3de2db3
c8f1b233
f406a3e4
e8f9dbb0
b61e42a3
6ef3362d
b15353ad
f451686b
238f126b
7351b386
75588e6e
f7f1839b
bcf71e2e
b2e1d535
efa99201
b4e200d6
4ba3111b
25074b6d
b6db8217
e6af01d5
839572fe
8031b7bf
7ee0b633
dca41a9b
2638d170
87d2b010
a9528640
757fa806
1f1185d7
54f508ea
5d0e2070
3a7e09a5
303949e7
357886f0
cdd5e2e2
edfa85f5
9185cdb2
21609dbf
fc1cab2b
48f7d5aa
575bf0db
ba16f75d
1acb0b6a
77f21054
185f5867
8b292aed
b663d691
a3c89f30
2efaf88b
397ece7e
aa357504
cac1ed50
2132d39c
ca90486b
dd48195e
c52da3b1
7be30eab
9c3a2ad0
ebfef6ec
49362a65
c9cbf490
52039da2
d49648be
6728e688
16571f8b
620caaee
e0c0fee3
fd2052e9
6df17e16
00d402b7
d0178b61
62e2b46f
30c9c74c
104a79e9
4ad451fd
f6321d9a
2bae06d1
af768f5d
8c33d65d
59f090c9
2a109d9d
fb9d2d04
1a145749
3bdef8c4
7ea08bef
dfd0cd5a
edb9529b
507a2709
5e6a95a6
830d45be
06093c8a
efd75999
5efa5b12
31dae523
c12f8255
8c4ec5b8
bb5ea5bb
18b1f4c0
c375aaab
ab7ef6d9
60273eb9
cb5f7e09
71ef8abd
b54f1752
659087e7
7cc3bd65
b7f15708
9ea02ef0
fe281b12
ea6dfb02
6b556016
b9ee1a96
be25dfed
e23fbb84
14b98106
2811a481
c8883300
6e861c05
08b43c34
31bb9e4e
915b347d
3566c873
2b29ea43
1e48f387
931185d6
c072c8ab
da7864fd
5a5ca88b
d92b6184
b0ceea8c
50ee7f3e
14e2da1a
d1ed828d
7ba53614
4865fa4d
92c9548d
1013c071
14f564e6
b8b67da3
22278cf8
bab6c9f4
5b0d89d6
29511981
5a8a35a3
8bb8dd0f
7934293e
6bb04ae3
0c75f3de
8b62d4c9
2819f86a
22c1506e
b48e0408
379145e9
4cfbe20a
1065a265
cab60be5
635a9d19
59d1136c
2c7e410c
2b070840
d55c8d42
901a2a17
d255eebd
0a4b8b80
5fe69bf5
24974b4a
140bba8f
fc7eb17c
5f4984b9
7dc4b307
866171a9
de8800c0
b5aaa7d8
689ad958
b27b63c2
5de4a83a
c70dff9d
9d2d0553
be65a16b
6c8e67eb
53e30ad5
58afcf30
5499f2e0
22aeaffc
398e7357
09a83cfa
3363e50b
d8edff51
b3d22b43
81bbfc4e
9ce26bc0
adaecdcc
2e706b91
4875baf3
2fa283e1
63b769f2
0a99e5a5
dfceea32
3b71bd29
98b30685
33d78b1a
815d1488
b4381f22
04bb84a3
5383afe2
0d1fe22b
297c71d1
c7acf142
0734cb64
dac1774d
9f31d6f6
0aa9177a
2f993beb
178e4579
99f83993
c42fa7c1
32199eef
a2624f24
0396dbdd
b4255ff5
38602e74
b8c9df0f
c0db63e4
0b7d9e3b
eea6f89f
aa2eb04f
dff080a6
8504fcfc
b0bcaf97
2e179194
253a6b5a
6b6b8474
e75b6a1c
9ccbeafa
4c85caa2
b598ed41
8d352fe0
d5690e8f
ba682e2b
f10ddcec
b160d22e
1e957ea2
003002e0
a653f221
734c8b5b
62078452
996cba11
88d4b374
9e0a0855
b67c224d
ca7a7d15
1eb91de2
2d28a368
9ca0cb73
66c4771f
835a354d
e386dd92
8522efa0
f12f48f7
1903b3af
69780e96
cc58a170
dce6c52e
249c398f
197e1cf9
57daf687
fb4a22ee
72532fb0
c79b0770
c4bf7ca8
40d228b2
1b76c3e9
b46f3040
4404cb66
1ec10661
f2713e91
82ed5e80
6f96311b
2963231e
74f1d759
c8e8090c
e3fca5a5
4a897e9c
ed6f48a3
41bf5a6a
87547482
7c618d92
34796b3c
4dab05d6
d9b065cf
5c1afd4f
7ca8510f
559c9edb
4d2fdec8
edeb6dda
b68b1935
6b77c9c7
b20428b5
38331217
6ade92db
adee62a1
c43fda8b
9d6ce166
87331ec9
7bc0de3a
f7cc0cf8
a1e250ce
78803ea2
78d40679
873b8024
b1ce1227
2661e542
0f6de116
baf9a2d0
7d83e205
76dcfcf6
da8599a4
40bc89a1
7a79e355
fb6227e6
0d639110
d5392fe8
5e538b52
a89eaf50
4c6cfa74
23a99d7d
fcde73f8
c3d86f67
3186d3b2
f34978fa
81149f96
c1be7e9f
ca292653
24796fb1
8f005985
a48a4a63
b3d7dd7f
6fc3a6fa
c9c26625
a38deb7e
f6e7a4af
8733726e
a7bdd341
44785ff9
ecfe083b
bb7c0322
ebdd7dba
26b788fe
eabc9066
140df6c4
b99d049a
2283d640
15a68949
0837a913
66196f04
0ac99be8
4226ec9d
58b8ad5d
12108b87
2503ddc6
2dfe6e1d
b32b235e
e42c79aa
ddc023d5
175782c4
26899690
fd3ff897
24e7f6f3
fdb4fcae
b681b541
86226568
2898452a
d2774dea
64fd690b
d3bd2e91
943b4e2a
737a9d3f
e10c5fe9
a84bcbee
39f19b7f
73a75dfe
ead87459
c5006f0c
dfbbc1ab
d669074c
1fe0af3e
c09f959f
2c0b5c66
c66f5f4a
263289d3
c3e6edb1
ce7fb04e
e689e4fc
7887a79d
16a20c08
b2f90937
2e79bc09
41e7d6d4
f33b337f
b791d988
8868ff17
e80ff560
8c7bf684
21e70e6a
65ef9bc5
2abb12c6
c47ce1db
c839df68
b42e0153
37f5a839
2cfaefe7
63c376e1
59ff5fcd
4c9c9081
8e2ba29c
890f5f57
29a0aa67
3b613424
e0e097e9
a4632361
72caaf4b
f68b5349
902ec906
cc7d230b
05b0b0f9
4250e8d1
ab3e2061
4ddb121a
71d60a7d
9089caa3
e66ae644
496f9f4c
ee365495
348eefe4
c90eee23
3b8a793b
9699599a
c52cdf15
a41feb66
0addeaaf
fb620d97
a4271bf9
7de895f8
694e4bdd
22bbc3bc
4b95a033
f59b10af
ead8deb7
0e44bb49
0294cd2d
40ca9d08
c92b369a
88cd46e1
0a7aef4b
fc5153ce
1b2aa406
2218a9a9
b4379232
f550813f
2428acee
ca9a07ab
9fb3aa0f
3c6fa36d
e569365a
60088244
e2599db9
26f90880
d7d69ae1
aefb6340
1e34f70a
aff92e7a
6610a99e
bab1eff2
ae7ff0eb
8c4dc0d2
92679784
2a143ee2
e46d5092
e9d19886
0fa6aa34
12664b35
e0626fdd
a88a8669
e8f2e8d4
e7eb9eea
e55d7a73
068aa053
6c54e270
e51a5757
fd3caba0
f4b5b52e
03b0e0e5
15ecad11
4984f80b
7cf5ea88
ddf1fa42
dece2a08
ee70c339
fd34b9b1
7ff2a9c3
31b6cfa4
9fb24754
d253300b
b10d5cd5
2251313e
0254e5ca
bb17b0d1
9e17d773
d9c7200f
ef1094ad
9b8c217b
3a24ccc9
055e5e01
72b673bf
555c8cfa
899391b3
288c6889
442adc06
cc649d2c
e28a1262
503896ea
c74e427e
76eac828
82e78c87
7aedf111
2230690e
264e0920
3fe77a06
b4ff61bf
f33516a3
800f8174
745bada6
bec23a91
88c5eb61
25e7cbed
2e15d67a
48abb439
ddcc1b91
1755a590
14ef124e
89e0ab88
6bc0a5b5
6dbe58d4
66b1274b
67d0d5d5
cea5d51d
5e921fb6
64f275e0
5273025c
bf0e3801
95a823d7
f029505e
584bc997
2db92276
81c1c763
e0d2c6e6
dbf08159
7e41966f
0f4a62dd
d39ec3d5
4fae24b0
d34bea45
9b44ba80
06730604
b44d9c63
856a4685
03d31c6c
952581de
041b2188
5d1a1070
8108075e
91f1830b
bfa39c38
84c3e175
e63046f5
614c0f7d
19a6f7e7
0bac64aa
69e82692
d68aaeb5
d7e97c7a
d39f1be3
43fe7998
47e7c008
f3c47604
c1b802f4
3e27b849
d816448f
c6978e14
94069d3f
6332e273
3c17ad06
0ab02ce9
cdc38996
9fe42f5f
f12cc606
41ba639d
1e45ef8b
d1291b26
73fe1667
00a84d6c
11e098fb
5ccc268d
60b03cf2
f26230c8
72e70187
9c1e7f07
edc8263f
a590146d
c349437c
1a00a27d
8a9836ae
12b77bc3
fe8a041c
7096fd3d
e6986c3f
c8eb1ee8
7662b5c1
f38b3f9d
86d29a60
28aae885
5d3df3d3
8ada88a8
3a1a5029
ff60a02a
b55ab2df
a3cf1a12
7a7aca76
182e1a3a
8ca0b06d
f7f215ae
f8f0ffd5
a2d20ce7
e4de945c
42e9dd79
8388312a
959aec6a
d5d9dfdf
6c057fd0
ac2fff49
280fa043
2b47d202
a1e41b96
d8cd9227
d5282262
164ba66c
6388b167
5095a69e
8b233d3a
8ee87976
2f74a35a
afe9cd73
5a1dc630
33aea1c6
b9c5b440
bd41a0b5
bc05e4ca
bdd6ae28
a500a7f7
8c8c2b39
ebcc396e
bb3e3efa
1b9e09f4
47de18bb
47c37048
0b6cbeab
d932b2df
e1792239
1c9b916f
0dab3f0e
062fc36f
5cbfa59d
744b6932
4d108e0f
d9d0d931
d06f613d
55e9b1e5
aa1cc63e
210c426b
2af9db63
8759d35d
d74e350a
4c52029b
594671f3
fea58244
7d08d8af
c7918062
836461bc
0e627e48
6a840eab
5cda5785
dfccc5a8
823e569d
2c980db7
58be1d95
507e8eee
81f05142
65e05481
9346409f
1784b169
ef8e2604
bdf5fa47
71398a8d
f6c57800
1079072d
697baba8
b183d10e
11a04927
bb1b755b
64910d80
1e8ee781
b5150b52
997d57c7
685e4a8a
fcf1cc72
9b5e78c8
f3037f48
66d71d60
00863fb4
8195911a
8033a028
0e4048bd
333a08b1
df30d4f5
2a7d5760
3c7964dd
08e16bb3
2903d16c
5d4b2a6a
dc022842
a1ae05bd
d029cedc
d72c0e78
29382307
bc766b86
5cb89d31
28d9ef22
1b823051
4a071248
d99cc1be
5454eee7
64a4007c
d9b7b426
74094ca5
21556670
5b01aa16
c57aef58
2bf4c5bb
e79b8a25
4610a689
14a7222e
14c9371f
9eb134d8
d74961c2
1ba97dad
d739ecf1
c573de7b
0b7c76e0
a1296791
c797fabd
3119c969
27e72737
c3d3549f
e1939ad6
02f4d664
f338d70b
06abb939
564e256c
f0172476
aa8a5d5d
3a27590a
983cc67f
2745eb9c
6bdec507
ba6904e1
5bd124f9
d63fec77
6e81406b
5849c5fc
eca62657
7aea1380
d1e8917e
6ec9c92f
4f5b9342
7b3b3dd2
5a7ad1a9
5a9ee086
ffdb8be1
ea91e5f8
3cd1616d
55003721
1713fb2e
8088fbef
2c15b2ed
ef19b42b
1a8fd29a
e0160558
9d3fbc2b
2c2eca57
c5a332fa
094e74e5
26219802
9e645e9e
63254240
b7707b47
123ac64d
e30fa912
054a7b23
4818741d
c50782f7
561dd21d
2bd214db
a796ccd8
d0f2e021
72a335fd
1f97447c
7f597433
c74bed2f
b9ba9eda
e3620fc6
24bb82ad
d532a1e7
12ac640c
a0a34859
3329e88e
66ad1162
2e781216
cbc62a2a
ca1c53a7
ad07ac85
6e9d802b
13cd8696
ffff346b
97e796f5
c8dca2a2
7c8d010d
dd333ac7
903a8940
b093dbd0
2471dde6
e1355e17
798d04c1
18eefb55
8a8ef978
242221aa
53a38292
970bdda2
ab642dc7
a1e87271
97ebc803
264cd089
53d6de4a
2064e329
a3ed88d7
929fc40b
9341a51a
2c35e073
00ec8ab2
bade7175
6b967a6b
0752dc6a
6f63e580
441a7754
76b4d268
6a9c2f2e
5b98b3e8
deaf3ebc
48364b22
ccc7f0e1
12fd3708
a2f2708a
ab9696df
2df3c3e1
d6f28ad9
1a370758
03a4c3b4
5609b7e1
e0662820
5bb5490a
164f6895
1fe83615
2e79793d
79f9bdae
792b68ac
e8f63743
c4c2f0a0
021e8b40
1c2e0516
a36c2482
49b1e763
32ffe937
6a8709c1
41002a8a
58d01c01
04b9d8b5
89839cfc
208c3ce1
672989dc
6a0d32eb
7ced9b5f
d62ade82
1922a092
229fa79d
853f46f1
e77005ea
2c86d71c
821953a0
bbcc3d61
f1caa25a
5a43234e
3186a3e9
d6b4f3b2
ec815778
be6efa85
744a4a7e
40f86d32
7b84df3e
40866958
276db136
b2cebd5e
ed827411
9382e355
d0ee807f
9320abfd
712197ae
c8c3d664
d57d1b06
459d799e
d0f37ed8
e474c7e5
e245d7ed
ac885b78
32cb3af7
70e00a12
2f1bdf72
065e9c6f
96bad86e
5244b1f3
eb05a4bd
ddbd14da
1b54d557
b6dfe420
12ee2a89
7df79e5e
f3a8e3dd
f0021668
81e1bdd4
346185f3
19a80dc1
bf948f2a
32166e4c
6c51f87f
b359923e
fac62b5f
4ad7a77b
03c7de3a
5bd3f9bf
61500a5e
c3d6a68b
2a614ebf
2b347a8b
fd8171cf
a4be16a0
bec543f1
0a9c4f0b
f4917137
2e2df976
aa90058e
598abdbb
b0289dbb
454b8831
e8aa7e70
4c49d74f
6b6183ef
632bb7da
6ed1bb2d
df8cdeda
75aa70b2
95f73944
892a71b5
fd3700ab
54c8609f
86da6a74
587e1cdd
578a997c
37b2969d
c6b24eee
421e677a
1c05e1ca
d57078b1
6534a494
35e62e3c
0950ba55
267ab483
bb989808
60dec760
3cb9efe5
ad95aa79
d908348f
e2e89c76
af623cb0
15d709c8
b02d2085
b910c47b
a78f8039
acc35814
39ce2236
c62e1d2c
76f92462
f4da2085
61b62f3f
0f12e40a
d522fb82
f444c55a
f8f87a0d
e9302d5b
bfa640d8
3edd073a
40f7bd04
70f0085e
05282fc2
200211ff
d66e58ca
bfca28d4
f3b1cec7
86db55a8
b41b9d8c
bdef5745
d8c0bb27
fd191400
03f12e78
31d0b897
07716d16
2e9831c6
fd4bebf2
94f9b99a
2d974ee0
a50c5205
a93ef600
ebf1ff21
939883db
d6ae2e58
d46361eb
0096d03d
b3b63312
c869f4e3
f2078a55
419badba
0ad86a0f
4696cf85
aa25eb6b
68fdb4ab
17eac85f
db446854
514127cd
1c493836
b29c5849
a9dd5e3f
1d116a34
e3e5379a
cf6751d5
8bcf0ea3
9db0fadf
fbcb24b9
54b2486d
e61b04ae
05c78b5c
37bbcf0d
ac676824
fd643cbd
e3893051
88a4d911
e9b71774
02beff1b
ee08383f
a619e1c4
678e8b0a
83ad8152
d02ee768
93b008e3
7f3a4ecd
4abf12aa
426ecb4d
fed01d32
b7d582d5
745a39ae
d50ea7ca
92c91da2
c561c9c7
bdf36acf
d94cfeb6
a8da0a82
f99483b1
c8dc626e
7adb322a
3bfb4b7e
b9c479bb
e0a855d7
4386e03a
99349e04
255c6040
8f5f4e72
75d8b829
ab4f0b7b
495d1c21
88b4593a
8510aa81
327f0bfd
1192560e
3fa672fa
1e3aac04
bb2fb3f7
e1f75f2c
f18a2491
890d3686
10f2b793
d3db110e
22508ab1
baa038f7
44c16c86
d1a1efcd
4119c97a
bcbe7036
e4ce4aeb
c095644b
9b6f4a90
289bf31c
96a7256c
86f4625b
d37f1248
a2ef9a34
16b4d076
4ce2f929
51d4c87b
848378f1
20c583f6
6726edd3
f7767213
ca752606
7e83cb5b
fa153182
45c09fd6
5baffc6b
b724229f
da23d5aa
3daf2e56
5928c63c
a1de56cd
eb72f4f1
7b10d537
5f119979
2aa2dbc7
01f5a17e
49ad46b2
e366a8a7
83a5d87f
79460aec
15e124f2
4c41a38d
23346ff5
5e5eed22
48e9d023
617fae99
7f6dbde1
5d04194e
7e655c19
76bd54bd
b4ea9f3d
353c9c55
e7b26d9d
7926a12b
787a0a87
07d2e689
7a5b5103
3992de3f
4ab7dd5c
86888c4c
a269108e
4ed9f6eb
977b845f
9854d1b1
e3ba1781
5dbcc731
33e4b872
43558163
d87e2a65
84b42929
4c4659ac
9fe4b1bf
9d71cae9
3185a31c
05756b9c
92588b75
ee70b0ab
1e7f8f06
b137587b
84e06bc7
2c7c6c5e
d5808244
e86dce2b
a47812a9
9314102a
e4c9a091
24289141
b9e85d5a
e252c48a
a68ceccc
607f5179
21a0f76e
bb65d67e
73e54500
89648d6d
91e9020e
208024dd
296a18e0
6696f9e3
5c919b7e
98c1d683
3691e083
cd8620d2
6e2a8acc
f1551863
7b61723b
34ec368f
c0740cb6
0d2352fa
6b583dae
2e0083b8
69df772a
dc7cd43d
084fa076
a1596400
bfb8bf7a
8bcd9c54
469c6e2c
e17b8b73
7fa41577
1be7253d
41ce9910
eaaaa498
949cc44d
41be03eb
6f6cb8d1
7fe009ea
9e746d04
849a44df
65049cc1
dc321d7a
24a7dcae
374e9a48
1d666dd7
e66ae036
3d95e81e
0a7a8877
965bbca0
48afc2df
259f9de5
34bdd2a2
af6380ba
0e81592d
2a3f4b0c
7241407a
c58d9067
199f37fa
1345c9ea
65d5fecd
9f6a7459
3be13a89
edbbb50e
fae8df58
d9266480
02e7b96f
221f2bdc
99eba8af
64a04c1d
c908ca6c
c527c4b9
a6ee2945
8f1adcce
cc2519e1
4746a670
32f23d58
9ed68019
836cbe89
dcd06046
722580bd
414dfb47
3cf8ad2a
9a8d4a5d
4ac7940d
124bc280
aef06530
25e3766f
f614a2b9
61dbe31b
ddbac667
92056f12
907564ce
a9761137
be06f7e2
0c9d1c26
e6e830ae
dabc12a1
480e14e4
fb613616
a2e4eed4
bd42a8bd
4a8e481f
8a8f9746
2a264733
0bec78ec
6a28654c
c8f29e0c
10e25593
8921906a
23dd97f4
a708e80d
d62d6cbf
76659664
1c9648dc
14572d60
7167f22f
e54a65ff
49bf4592
af028056
3ea8e72d
5a375110
703ab058
cb0d0c5f
2a3d3442
e755db68
821de555
9f18b87a
8b606691
ab4f379b
fed0f7d8
48ec51c4
012ea50c
dabd9b12
94872bf1
508df6bc
b0daa4fa
cca08799
70cc0ea3
5769ffd0
5d6b59ca
fdae30b9
33cb4ace
a2719a86
dee5967d
6aab6d27
d0ec326c
e5bb3984
78b1fb55
53696ac2
31b601e0
b2ff06bd
ef396188
542cab29
b6bc0ed0
d1a767d9
e3e83ebe
f1b1866e
19eb332c
2d2bba7a
96a1a71f
ef96e65d
226cba8d
d7eabc08
29c01d83
7ab84092
1ec49417
e28b8003
04a600be
293a4c33
836317c4
8a656517
1079aeba
2dde6a2c
585a7c87
cbca8e3c
80d2b33f
a2e88aae
70dfa03e
79b0c527
71a6ca65
48b48113
d0d69a6c
12a07a71
d54601a2
16ed041d
904f7424
e1186663
0d35dc58
c040fcde
fadd6fa2
1362a358
7df03598
8410cd9d
130b7aac
a8045c6c
66e7a2df
7b96f517
01c50036
a297a3f0
07012c27
1fa7bb96
639d0d04
63adf6e0
bbe10bab
57ab7ece
6bbb6c48
cd624940
9fd0741e
5df7a237
f229ba21
b22a6023
3242b73b
646d2a88
f9994523
570afa55
183fd749
da9530a4
23103e05
e1179fea
b2f36b91
e41cb5db
0784b744
afc47fc6
a20c9675
1f03ef9e
8442e6a6
3f367e9a
e0b0f15c
be0688e3
38b0568f
91f1eeb5
5ab5800e
45b3805f
6ba4dd24
748dcc4e
476015a1
6fff64cf
9b7b45e4
983bf272
558a3ba0
ba95e352
1321844a
8557a78b
e71ba8fa
9089f56f
84368ab3
ff5d4dbd
24bd7ee1
3b46856d
89abaf8f
06ac830f
04b51c66
6c4a6a7e
6789fcea
1bd56318
0ca84f2a
494065a7
5e167883
99ad5149
a0d4d022
69847ef2
1c7e0a76
28a99024
fcf1f469
0a9f6ab5
fb9a784f
16956263
9e2cae37
14eeb16e
f9409e13
3ffa56e0
9d961d9e
15c6dd17
166b3a5b
7881bae8
4b0fe542
5a3e2ef7
11d34b38
4d6dbb34
c112055a
bf728236
ac7feceb
9a7a2882
b633f3ad
a2cc51e5
34ee5cf2
c6ac6c58
d7c6991a
4369636e
89582515
81848c72
8146931e
214a48b0
ecf894c6
4cdd7a8b
194f62d9
885d365f
8a4a1303
aa17f1d4
4faa3fc2
4b58c939
c8a1d140
2968d03e
a588402a
89dfc36a
266a9559
28ef0388
de2ebc17
4a9f2ff5
cecca962
5315990e
28c1d909
f64df008
9fdab21f
7090edd1
c340fc9f
e5ef7d62
0bc6afa7
6ef23577
72b7b019
b4da0caf
20129e1e
6220c3bd
0fedaa85
a28fcd05
bc1fb574
2da3df81
7be01051
cb60481f
96e7c5a7
8eb7e21b
bdbb35b6
