-- L0A, BCR=True, mask=13, tag=56 
82
1D
38
-- L0A, BCR=False, mask=12, tag=55 
82
0C
37
-- L0A, BCR=True, mask=11, tag=102 
82
1B
66
-- L0A, BCR=False, mask=4, tag=66 
82
04
42
-- L0A, BCR=True, mask=3, tag=57 
82
13
39
-- L0A, BCR=True, mask=13, tag=1 
82
1D
01
-- L0A, BCR=False, mask=15, tag=85 
82
0F
55
-- L0A, BCR=True, mask=7, tag=49 
82
17
31
-- L0A, BCR=False, mask=3, tag=41 
82
03
29
-- L0A, BCR=False, mask=6, tag=76 
82
06
4C
-- L0A, BCR=False, mask=9, tag=11 
82
09
0B
-- L0A, BCR=True, mask=1, tag=96 
82
11
60
-- L0A, BCR=False, mask=15, tag=114 
82
0F
72
-- L0A, BCR=False, mask=11, tag=107 
82
0B
6B
-- L0A, BCR=False, mask=2, tag=59 
82
02
3B
-- L0A, BCR=True, mask=12, tag=119 
82
1C
77
-- L0A, BCR=True, mask=2, tag=85 
82
12
55
-- L0A, BCR=False, mask=15, tag=117 
82
0F
75
-- L0A, BCR=False, mask=14, tag=117 
82
0E
75
-- L0A, BCR=True, mask=14, tag=49 
82
1E
31
-- L0A, BCR=False, mask=12, tag=15 
82
0C
0F
-- L0A, BCR=True, mask=1, tag=75 
82
11
4B
-- L0A, BCR=True, mask=15, tag=102 
82
1F
66
-- L0A, BCR=False, mask=3, tag=9 
82
03
09
-- L0A, BCR=False, mask=9, tag=19 
82
09
13
-- L0A, BCR=True, mask=11, tag=0 
82
1B
00
-- L0A, BCR=False, mask=7, tag=91 
82
07
5B
-- L0A, BCR=True, mask=15, tag=102 
82
1F
66
-- L0A, BCR=False, mask=2, tag=11 
82
02
0B
-- L0A, BCR=False, mask=4, tag=96 
82
04
60
-- L0A, BCR=True, mask=6, tag=68 
82
16
44
-- L0A, BCR=False, mask=7, tag=5 
82
07
05
-- L0A, BCR=False, mask=2, tag=68 
82
02
44
-- L0A, BCR=True, mask=13, tag=34 
82
1D
22
-- L0A, BCR=False, mask=12, tag=73 
82
0C
49
-- L0A, BCR=True, mask=14, tag=92 
82
1E
5C
-- L0A, BCR=False, mask=8, tag=60 
82
08
3C
-- L0A, BCR=False, mask=13, tag=90 
82
0D
5A
-- L0A, BCR=False, mask=9, tag=72 
82
09
48
-- L0A, BCR=False, mask=13, tag=36 
82
0D
24
