-- L0A, BCR=True, mask=13, tag=56 
3A
B8
-- L0A, BCR=False, mask=12, tag=55 
D8
56
-- L0A, BCR=True, mask=11, tag=102 
56
A6
-- L0A, BCR=False, mask=4, tag=66 
C9
72
-- L0A, BCR=True, mask=3, tag=57 
A6
39
-- L0A, BCR=True, mask=13, tag=1 
3A
71
-- L0A, BCR=False, mask=15, tag=85 
5C
95
-- L0A, BCR=True, mask=7, tag=49 
2E
B1
-- L0A, BCR=False, mask=3, tag=41 
C6
A9
-- L0A, BCR=False, mask=6, tag=76 
8D
CC
-- L0A, BCR=False, mask=9, tag=11 
D2
8B
-- L0A, BCR=True, mask=1, tag=96 
A3
63
-- L0A, BCR=False, mask=15, tag=114 
5C
B2
-- L0A, BCR=False, mask=11, tag=107 
17
2B
-- L0A, BCR=False, mask=2, tag=59 
65
5A
-- L0A, BCR=True, mask=12, tag=119 
39
56
-- L0A, BCR=True, mask=2, tag=85 
A5
95
-- L0A, BCR=False, mask=15, tag=117 
5C
35
-- L0A, BCR=False, mask=14, tag=117 
1D
35
-- L0A, BCR=True, mask=14, tag=49 
3C
B1
-- L0A, BCR=False, mask=12, tag=15 
D8
4B
-- L0A, BCR=True, mask=1, tag=75 
A3
8B
-- L0A, BCR=True, mask=15, tag=102 
66
A6
-- L0A, BCR=False, mask=3, tag=9 
C6
C9
-- L0A, BCR=False, mask=9, tag=19 
D2
93
-- L0A, BCR=True, mask=11, tag=0 
36
59
-- L0A, BCR=False, mask=7, tag=91 
4B
1B
-- L0A, BCR=True, mask=15, tag=102 
66
A6
-- L0A, BCR=False, mask=2, tag=11 
65
8B
-- L0A, BCR=False, mask=4, tag=96 
C9
63
-- L0A, BCR=True, mask=6, tag=68 
2D
65
-- L0A, BCR=False, mask=7, tag=5 
8E
C5
-- L0A, BCR=False, mask=2, tag=68 
C5
65
-- L0A, BCR=True, mask=13, tag=34 
3A
E2
-- L0A, BCR=False, mask=12, tag=73 
99
C9
-- L0A, BCR=True, mask=14, tag=92 
4D
9C
-- L0A, BCR=False, mask=8, tag=60 
53
3C
-- L0A, BCR=False, mask=13, tag=90 
1B
9A
-- L0A, BCR=False, mask=9, tag=72 
93
69
-- L0A, BCR=False, mask=13, tag=36 
9A
E4
