-- Register write (HCC), hcc_id=5, abc_id=14, register_id=192, data=3728595970 
A3
DE
3D
DC
02
C0
5E
-- Register write (HCC), hcc_id=4, abc_id=4, register_id=254, data=682082204 
A3
28
A7
BF
9C
FE
44
-- Register write (ABC), hcc_id=14, abc_id=8, register_id=60, data=1782352410 
A2
6A
3C
8A
1A
3C
E8
-- Register write (HCC), hcc_id=7, abc_id=14, register_id=15, data=2764579281 
A3
A4
C8
21
D1
0F
7E
-- Register write (HCC), hcc_id=11, abc_id=11, register_id=47, data=1946140104 
A3
73
FF
BD
C8
2F
BB
-- Register write (ABC), hcc_id=6, abc_id=8, register_id=255, data=3213771934 
A2
BF
8E
44
9E
FF
68
-- Register write (HCC), hcc_id=7, abc_id=12, register_id=45, data=3867652916 
A3
E6
87
B3
34
2D
7C
-- Register write (HCC), hcc_id=15, abc_id=6, register_id=16, data=3861449806 
A3
E6
29
0C
4E
10
F6
-- Register write (HCC), hcc_id=7, abc_id=13, register_id=29, data=3038287529 
A3
B5
18
96
A9
1D
7D
-- Register write (HCC), hcc_id=7, abc_id=14, register_id=47, data=1772388144 
A3
69
A4
7F
30
2F
7E
-- Register write (HCC), hcc_id=5, abc_id=7, register_id=89, data=2817278088 
A3
A7
EC
40
88
59
57
-- Register write (HCC), hcc_id=1, abc_id=10, register_id=33, data=4151145747 
A3
F7
6D
75
13
21
1A
-- Register write (HCC), hcc_id=8, abc_id=4, register_id=85, data=449064794 
A3
1A
C4
2F
5A
55
84
-- Register write (HCC), hcc_id=8, abc_id=3, register_id=210, data=4097358509 
A3
F4
38
BA
AD
D2
83
-- Register write (ABC), hcc_id=0, abc_id=2, register_id=50, data=2998561318 
A2
B2
BA
6A
26
32
02
