-- L0A, BCR=True, mask=9, tag=20 
B2D4
-- L0A, BCR=True, mask=2, tag=91 
A51B
-- L0A, BCR=False, mask=12, tag=126 
994E
-- L0A, BCR=False, mask=5, tag=103 
8B27
-- L0A, BCR=True, mask=9, tag=102 
33A6
-- L0A, BCR=False, mask=14, tag=102 
1DA6
-- L0A, BCR=True, mask=10, tag=14 
B48E
-- L0A, BCR=False, mask=7, tag=124 
4B3C
-- L0A, BCR=False, mask=9, tag=18 
D2D2
-- L0A, BCR=True, mask=3, tag=91 
271B
-- L0A, BCR=True, mask=2, tag=122 
A53A
-- L0A, BCR=True, mask=14, tag=12 
3CCC
-- L0A, BCR=True, mask=12, tag=39 
B827
-- L0A, BCR=False, mask=12, tag=48 
D874
-- L0A, BCR=False, mask=8, tag=36 
53E4
-- L0A, BCR=True, mask=5, tag=115 
2B33
-- L0A, BCR=True, mask=9, tag=111 
336C
-- L0A, BCR=True, mask=4, tag=18 
E8D2
-- L0A, BCR=False, mask=9, tag=112 
9374
-- L0A, BCR=True, mask=3, tag=100 
27E4
-- L0A, BCR=False, mask=1, tag=73 
C3C9
-- L0A, BCR=True, mask=12, tag=46 
B82E
-- L0A, BCR=False, mask=8, tag=64 
D159
-- L0A, BCR=True, mask=10, tag=101 
35A5
-- L0A, BCR=True, mask=6, tag=12 
ACCC
-- L0A, BCR=False, mask=13, tag=111 
1B6C
-- L0A, BCR=True, mask=10, tag=44 
B4AC
-- L0A, BCR=True, mask=2, tag=118 
A536
-- L0A, BCR=True, mask=13, tag=74 
5ACA
-- L0A, BCR=True, mask=5, tag=42 
AAAA
-- L0A, BCR=False, mask=15, tag=52 
1EB4
-- L0A, BCR=True, mask=4, tag=22 
E896
-- L0A, BCR=True, mask=14, tag=100 
4DE4
-- L0A, BCR=True, mask=14, tag=84 
4DD4
-- L0A, BCR=False, mask=2, tag=44 
65AC
-- L0A, BCR=False, mask=5, tag=30 
CA1E
-- L0A, BCR=False, mask=1, tag=7 
7287
-- L0A, BCR=True, mask=4, tag=100 
A9E4
-- L0A, BCR=False, mask=7, tag=117 
4B35
-- L0A, BCR=True, mask=11, tag=51 
3633
-- L0A, BCR=True, mask=8, tag=41 
74A9
-- L0A, BCR=False, mask=2, tag=17 
65D1
-- L0A, BCR=True, mask=11, tag=18 
36D2
-- L0A, BCR=False, mask=9, tag=64 
9359
-- L0A, BCR=False, mask=1, tag=21 
7295
-- L0A, BCR=False, mask=11, tag=83 
1793
-- L0A, BCR=True, mask=4, tag=88 
A9D8
-- L0A, BCR=False, mask=9, tag=14 
D28E
-- L0A, BCR=True, mask=14, tag=121 
4D39
-- L0A, BCR=True, mask=14, tag=73 
4DC9
-- L0A, BCR=False, mask=1, tag=69 
C3C5
-- L0A, BCR=False, mask=12, tag=118 
9936
-- L0A, BCR=False, mask=12, tag=11 
D88B
-- L0A, BCR=True, mask=5, tag=113 
2BB1
-- L0A, BCR=False, mask=1, tag=123 
C35A
-- L0A, BCR=True, mask=14, tag=107 
4D2B
-- L0A, BCR=False, mask=5, tag=86 
8B96
-- L0A, BCR=False, mask=2, tag=12 
65CC
-- L0A, BCR=True, mask=1, tag=58 
E23A
-- L0A, BCR=False, mask=6, tag=13 
CC8D
-- L0A, BCR=True, mask=5, tag=13 
AA8D
-- L0A, BCR=False, mask=8, tag=75 
D18B
-- L0A, BCR=True, mask=13, tag=22 
3A96
-- L0A, BCR=False, mask=13, tag=63 
9A66
-- L0A, BCR=True, mask=3, tag=3 
A6C3
-- L0A, BCR=True, mask=6, tag=37 
ACA5
-- L0A, BCR=True, mask=7, tag=115 
6C33
-- L0A, BCR=False, mask=14, tag=18 
9CD2
-- L0A, BCR=False, mask=3, tag=66 
8772
-- L0A, BCR=False, mask=12, tag=92 
999C
-- L0A, BCR=True, mask=11, tag=21 
3695
-- L0A, BCR=True, mask=2, tag=64 
A559
-- L0A, BCR=True, mask=9, tag=70 
33C6
-- L0A, BCR=True, mask=6, tag=18 
ACD2
-- L0A, BCR=False, mask=12, tag=5 
D8C5
-- L0A, BCR=True, mask=10, tag=124 
353C
-- L0A, BCR=False, mask=10, tag=94 
951E
-- L0A, BCR=False, mask=9, tag=106 
93AA
-- L0A, BCR=False, mask=9, tag=54 
D236
-- L0A, BCR=True, mask=12, tag=90 
399A
-- L0A, BCR=False, mask=11, tag=16 
9653
-- L0A, BCR=False, mask=11, tag=57 
9639
-- L0A, BCR=False, mask=10, tag=110 
952E
-- L0A, BCR=True, mask=6, tag=22 
AC96
-- L0A, BCR=True, mask=5, tag=17 
AAD1
-- L0A, BCR=False, mask=2, tag=37 
65A5
-- L0A, BCR=False, mask=14, tag=5 
9CC5
-- L0A, BCR=True, mask=4, tag=11 
E88B
-- L0A, BCR=False, mask=9, tag=70 
93C6
-- L0A, BCR=True, mask=1, tag=30 
E21E
-- L0A, BCR=False, mask=8, tag=101 
D1A5
-- L0A, BCR=False, mask=2, tag=32 
6563
-- L0A, BCR=False, mask=4, tag=87 
C917
-- L0A, BCR=False, mask=6, tag=74 
8DCA
-- L0A, BCR=True, mask=6, tag=81 
2DD1
-- L0A, BCR=False, mask=6, tag=104 
8DE8
-- L0A, BCR=True, mask=2, tag=105 
A5A9
-- L0A, BCR=False, mask=14, tag=105 
1DA9
-- L0A, BCR=False, mask=2, tag=87 
C517
-- L0A, BCR=True, mask=14, tag=96 
4D63
-- L0A, BCR=False, mask=11, tag=37 
96A5
-- L0A, BCR=True, mask=7, tag=70 
6CC6
-- L0A, BCR=False, mask=5, tag=121 
8B39
-- L0A, BCR=False, mask=3, tag=70 
87C6
-- L0A, BCR=True, mask=6, tag=23 
AC17
-- L0A, BCR=False, mask=12, tag=93 
991D
-- L0A, BCR=False, mask=15, tag=23 
1E17
-- L0A, BCR=False, mask=8, tag=109 
D12D
-- L0A, BCR=False, mask=5, tag=96 
8B63
-- L0A, BCR=False, mask=3, tag=49 
C6B1
-- L0A, BCR=True, mask=3, tag=33 
A6E1
-- L0A, BCR=True, mask=6, tag=92 
2D9C
-- L0A, BCR=False, mask=3, tag=29 
C61D
-- L0A, BCR=True, mask=9, tag=55 
B256
-- L0A, BCR=True, mask=10, tag=104 
35E8
-- L0A, BCR=True, mask=15, tag=10 
4ECA
-- L0A, BCR=False, mask=7, tag=43 
8E2B
-- L0A, BCR=True, mask=6, tag=115 
2D33
-- L0A, BCR=False, mask=9, tag=41 
D2A9
-- L0A, BCR=False, mask=15, tag=30 
1E1E
-- L0A, BCR=True, mask=15, tag=22 
4E96
-- L0A, BCR=True, mask=9, tag=43 
B22B
-- L0A, BCR=True, mask=1, tag=123 
A35A
-- L0A, BCR=False, mask=14, tag=53 
9C35
-- L0A, BCR=False, mask=1, tag=78 
C38E
-- L0A, BCR=False, mask=11, tag=36 
96E4
-- L0A, BCR=True, mask=10, tag=55 
B456
-- L0A, BCR=True, mask=9, tag=6 
B2C6
-- L0A, BCR=True, mask=13, tag=17 
3AD1
-- L0A, BCR=True, mask=14, tag=51 
3C33
-- L0A, BCR=True, mask=4, tag=100 
A9E4
-- L0A, BCR=True, mask=1, tag=61 
E24D
-- L0A, BCR=True, mask=1, tag=89 
A399
-- L0A, BCR=False, mask=3, tag=17 
C6D1
-- L0A, BCR=False, mask=8, tag=68 
D165
-- L0A, BCR=False, mask=4, tag=105 
C9A9
-- L0A, BCR=True, mask=5, tag=125 
2B4D
-- L0A, BCR=False, mask=1, tag=6 
72C6
-- L0A, BCR=True, mask=5, tag=39 
AA27
-- L0A, BCR=True, mask=4, tag=81 
A9D1
-- L0A, BCR=True, mask=6, tag=6 
ACC6
-- L0A, BCR=False, mask=12, tag=82 
99D2
-- L0A, BCR=False, mask=14, tag=23 
9C17
-- L0A, BCR=True, mask=6, tag=56 
ACB8
-- L0A, BCR=False, mask=3, tag=105 
87A9
-- L0A, BCR=True, mask=12, tag=96 
3963
-- L0A, BCR=True, mask=9, tag=39 
B227
-- L0A, BCR=True, mask=12, tag=29 
B81D
-- L0A, BCR=True, mask=1, tag=123 
A35A
-- L0A, BCR=True, mask=12, tag=76 
39CC
-- L0A, BCR=True, mask=6, tag=100 
2DE4
-- L0A, BCR=False, mask=1, tag=3 
72C3
-- L0A, BCR=False, mask=5, tag=80 
8B53
-- L0A, BCR=True, mask=3, tag=22 
A696
-- L0A, BCR=False, mask=1, tag=11 
728B
-- L0A, BCR=True, mask=3, tag=121 
2739
-- L0A, BCR=False, mask=4, tag=108 
C9AC
-- L0A, BCR=True, mask=6, tag=106 
2DAA
-- L0A, BCR=False, mask=1, tag=74 
C3CA
-- L0A, BCR=True, mask=14, tag=86 
4D96
-- L0A, BCR=False, mask=1, tag=98 
C3E2
-- L0A, BCR=True, mask=4, tag=16 
E853
-- L0A, BCR=True, mask=5, tag=6 
AAC6
-- L0A, BCR=False, mask=9, tag=111 
936C
-- L0A, BCR=True, mask=6, tag=101 
2DA5
-- L0A, BCR=True, mask=14, tag=3 
3CC3
-- L0A, BCR=False, mask=14, tag=58 
9C3A
-- L0A, BCR=True, mask=9, tag=25 
B299
-- L0A, BCR=True, mask=8, tag=55 
7456
-- L0A, BCR=True, mask=5, tag=82 
2BD2
-- L0A, BCR=True, mask=3, tag=107 
272B
-- L0A, BCR=True, mask=1, tag=4 
E265
-- L0A, BCR=False, mask=7, tag=61 
8E4D
-- L0A, BCR=False, mask=11, tag=54 
9636
-- L0A, BCR=True, mask=15, tag=77 
668D
-- L0A, BCR=False, mask=13, tag=103 
1B27
-- L0A, BCR=True, mask=13, tag=53 
3A35
-- L0A, BCR=False, mask=3, tag=17 
C6D1
-- L0A, BCR=False, mask=8, tag=67 
D1C3
-- L0A, BCR=True, mask=1, tag=92 
A39C
-- L0A, BCR=True, mask=4, tag=125 
A94D
-- L0A, BCR=False, mask=5, tag=3 
CAC3
-- L0A, BCR=True, mask=6, tag=48 
AC74
-- L0A, BCR=False, mask=13, tag=39 
9A27
-- L0A, BCR=True, mask=8, tag=75 
B18B
-- L0A, BCR=True, mask=7, tag=31 
2E5C
-- L0A, BCR=False, mask=11, tag=99 
17A3
-- L0A, BCR=True, mask=6, tag=42 
ACAA
-- L0A, BCR=False, mask=3, tag=89 
8799
-- L0A, BCR=False, mask=6, tag=7 
CC87
-- L0A, BCR=True, mask=4, tag=76 
A9CC
-- L0A, BCR=False, mask=12, tag=38 
D8A6
-- L0A, BCR=True, mask=8, tag=23 
7417
-- L0A, BCR=False, mask=8, tag=52 
53B4
-- L0A, BCR=False, mask=4, tag=90 
C99A
-- L0A, BCR=False, mask=3, tag=85 
8795
-- L0A, BCR=True, mask=10, tag=10 
B4CA
-- L0A, BCR=False, mask=7, tag=92 
4B9C
-- L0A, BCR=False, mask=10, tag=70 
95C6
-- L0A, BCR=False, mask=12, tag=107 
992B
