-- L0A, BCR=True, mask=9, tag=20 
1 -- BCR 
1001 -- mask
0010100 -- tag
-- L0A, BCR=True, mask=2, tag=91 
1 -- BCR 
0010 -- mask
1011011 -- tag
-- L0A, BCR=False, mask=12, tag=126 
0 -- BCR 
1100 -- mask
1111110 -- tag
-- L0A, BCR=False, mask=5, tag=103 
0 -- BCR 
0101 -- mask
1100111 -- tag
-- L0A, BCR=True, mask=9, tag=102 
1 -- BCR 
1001 -- mask
1100110 -- tag
-- L0A, BCR=False, mask=14, tag=102 
0 -- BCR 
1110 -- mask
1100110 -- tag
-- L0A, BCR=True, mask=10, tag=14 
1 -- BCR 
1010 -- mask
0001110 -- tag
-- L0A, BCR=False, mask=7, tag=124 
0 -- BCR 
0111 -- mask
1111100 -- tag
-- L0A, BCR=False, mask=9, tag=18 
0 -- BCR 
1001 -- mask
0010010 -- tag
-- L0A, BCR=True, mask=3, tag=91 
1 -- BCR 
0011 -- mask
1011011 -- tag
-- L0A, BCR=True, mask=2, tag=122 
1 -- BCR 
0010 -- mask
1111010 -- tag
-- L0A, BCR=True, mask=14, tag=12 
1 -- BCR 
1110 -- mask
0001100 -- tag
-- L0A, BCR=True, mask=12, tag=39 
1 -- BCR 
1100 -- mask
0100111 -- tag
-- L0A, BCR=False, mask=12, tag=48 
0 -- BCR 
1100 -- mask
0110000 -- tag
-- L0A, BCR=False, mask=8, tag=36 
0 -- BCR 
1000 -- mask
0100100 -- tag
-- L0A, BCR=True, mask=5, tag=115 
1 -- BCR 
0101 -- mask
1110011 -- tag
-- L0A, BCR=True, mask=9, tag=111 
1 -- BCR 
1001 -- mask
1101111 -- tag
-- L0A, BCR=True, mask=4, tag=18 
1 -- BCR 
0100 -- mask
0010010 -- tag
-- L0A, BCR=False, mask=9, tag=112 
0 -- BCR 
1001 -- mask
1110000 -- tag
-- L0A, BCR=True, mask=3, tag=100 
1 -- BCR 
0011 -- mask
1100100 -- tag
-- L0A, BCR=False, mask=1, tag=73 
0 -- BCR 
0001 -- mask
1001001 -- tag
-- L0A, BCR=True, mask=12, tag=46 
1 -- BCR 
1100 -- mask
0101110 -- tag
-- L0A, BCR=False, mask=8, tag=64 
0 -- BCR 
1000 -- mask
1000000 -- tag
-- L0A, BCR=True, mask=10, tag=101 
1 -- BCR 
1010 -- mask
1100101 -- tag
-- L0A, BCR=True, mask=6, tag=12 
1 -- BCR 
0110 -- mask
0001100 -- tag
-- L0A, BCR=False, mask=13, tag=111 
0 -- BCR 
1101 -- mask
1101111 -- tag
-- L0A, BCR=True, mask=10, tag=44 
1 -- BCR 
1010 -- mask
0101100 -- tag
-- L0A, BCR=True, mask=2, tag=118 
1 -- BCR 
0010 -- mask
1110110 -- tag
-- L0A, BCR=True, mask=13, tag=74 
1 -- BCR 
1101 -- mask
1001010 -- tag
-- L0A, BCR=True, mask=5, tag=42 
1 -- BCR 
0101 -- mask
0101010 -- tag
-- L0A, BCR=False, mask=15, tag=52 
0 -- BCR 
1111 -- mask
0110100 -- tag
-- L0A, BCR=True, mask=4, tag=22 
1 -- BCR 
0100 -- mask
0010110 -- tag
-- L0A, BCR=True, mask=14, tag=100 
1 -- BCR 
1110 -- mask
1100100 -- tag
-- L0A, BCR=True, mask=14, tag=84 
1 -- BCR 
1110 -- mask
1010100 -- tag
-- L0A, BCR=False, mask=2, tag=44 
0 -- BCR 
0010 -- mask
0101100 -- tag
-- L0A, BCR=False, mask=5, tag=30 
0 -- BCR 
0101 -- mask
0011110 -- tag
-- L0A, BCR=False, mask=1, tag=7 
0 -- BCR 
0001 -- mask
0000111 -- tag
-- L0A, BCR=True, mask=4, tag=100 
1 -- BCR 
0100 -- mask
1100100 -- tag
-- L0A, BCR=False, mask=7, tag=117 
0 -- BCR 
0111 -- mask
1110101 -- tag
-- L0A, BCR=True, mask=11, tag=51 
1 -- BCR 
1011 -- mask
0110011 -- tag
-- L0A, BCR=True, mask=8, tag=41 
1 -- BCR 
1000 -- mask
0101001 -- tag
-- L0A, BCR=False, mask=2, tag=17 
0 -- BCR 
0010 -- mask
0010001 -- tag
-- L0A, BCR=True, mask=11, tag=18 
1 -- BCR 
1011 -- mask
0010010 -- tag
-- L0A, BCR=False, mask=9, tag=64 
0 -- BCR 
1001 -- mask
1000000 -- tag
-- L0A, BCR=False, mask=1, tag=21 
0 -- BCR 
0001 -- mask
0010101 -- tag
-- L0A, BCR=False, mask=11, tag=83 
0 -- BCR 
1011 -- mask
1010011 -- tag
-- L0A, BCR=True, mask=4, tag=88 
1 -- BCR 
0100 -- mask
1011000 -- tag
-- L0A, BCR=False, mask=9, tag=14 
0 -- BCR 
1001 -- mask
0001110 -- tag
-- L0A, BCR=True, mask=14, tag=121 
1 -- BCR 
1110 -- mask
1111001 -- tag
-- L0A, BCR=True, mask=14, tag=73 
1 -- BCR 
1110 -- mask
1001001 -- tag
-- L0A, BCR=False, mask=1, tag=69 
0 -- BCR 
0001 -- mask
1000101 -- tag
-- L0A, BCR=False, mask=12, tag=118 
0 -- BCR 
1100 -- mask
1110110 -- tag
-- L0A, BCR=False, mask=12, tag=11 
0 -- BCR 
1100 -- mask
0001011 -- tag
-- L0A, BCR=True, mask=5, tag=113 
1 -- BCR 
0101 -- mask
1110001 -- tag
-- L0A, BCR=False, mask=1, tag=123 
0 -- BCR 
0001 -- mask
1111011 -- tag
-- L0A, BCR=True, mask=14, tag=107 
1 -- BCR 
1110 -- mask
1101011 -- tag
-- L0A, BCR=False, mask=5, tag=86 
0 -- BCR 
0101 -- mask
1010110 -- tag
-- L0A, BCR=False, mask=2, tag=12 
0 -- BCR 
0010 -- mask
0001100 -- tag
-- L0A, BCR=True, mask=1, tag=58 
1 -- BCR 
0001 -- mask
0111010 -- tag
-- L0A, BCR=False, mask=6, tag=13 
0 -- BCR 
0110 -- mask
0001101 -- tag
-- L0A, BCR=True, mask=5, tag=13 
1 -- BCR 
0101 -- mask
0001101 -- tag
-- L0A, BCR=False, mask=8, tag=75 
0 -- BCR 
1000 -- mask
1001011 -- tag
-- L0A, BCR=True, mask=13, tag=22 
1 -- BCR 
1101 -- mask
0010110 -- tag
-- L0A, BCR=False, mask=13, tag=63 
0 -- BCR 
1101 -- mask
0111111 -- tag
-- L0A, BCR=True, mask=3, tag=3 
1 -- BCR 
0011 -- mask
0000011 -- tag
-- L0A, BCR=True, mask=6, tag=37 
1 -- BCR 
0110 -- mask
0100101 -- tag
-- L0A, BCR=True, mask=7, tag=115 
1 -- BCR 
0111 -- mask
1110011 -- tag
-- L0A, BCR=False, mask=14, tag=18 
0 -- BCR 
1110 -- mask
0010010 -- tag
-- L0A, BCR=False, mask=3, tag=66 
0 -- BCR 
0011 -- mask
1000010 -- tag
-- L0A, BCR=False, mask=12, tag=92 
0 -- BCR 
1100 -- mask
1011100 -- tag
-- L0A, BCR=True, mask=11, tag=21 
1 -- BCR 
1011 -- mask
0010101 -- tag
-- L0A, BCR=True, mask=2, tag=64 
1 -- BCR 
0010 -- mask
1000000 -- tag
-- L0A, BCR=True, mask=9, tag=70 
1 -- BCR 
1001 -- mask
1000110 -- tag
-- L0A, BCR=True, mask=6, tag=18 
1 -- BCR 
0110 -- mask
0010010 -- tag
-- L0A, BCR=False, mask=12, tag=5 
0 -- BCR 
1100 -- mask
0000101 -- tag
-- L0A, BCR=True, mask=10, tag=124 
1 -- BCR 
1010 -- mask
1111100 -- tag
-- L0A, BCR=False, mask=10, tag=94 
0 -- BCR 
1010 -- mask
1011110 -- tag
-- L0A, BCR=False, mask=9, tag=106 
0 -- BCR 
1001 -- mask
1101010 -- tag
-- L0A, BCR=False, mask=9, tag=54 
0 -- BCR 
1001 -- mask
0110110 -- tag
-- L0A, BCR=True, mask=12, tag=90 
1 -- BCR 
1100 -- mask
1011010 -- tag
-- L0A, BCR=False, mask=11, tag=16 
0 -- BCR 
1011 -- mask
0010000 -- tag
-- L0A, BCR=False, mask=11, tag=57 
0 -- BCR 
1011 -- mask
0111001 -- tag
-- L0A, BCR=False, mask=10, tag=110 
0 -- BCR 
1010 -- mask
1101110 -- tag
-- L0A, BCR=True, mask=6, tag=22 
1 -- BCR 
0110 -- mask
0010110 -- tag
-- L0A, BCR=True, mask=5, tag=17 
1 -- BCR 
0101 -- mask
0010001 -- tag
-- L0A, BCR=False, mask=2, tag=37 
0 -- BCR 
0010 -- mask
0100101 -- tag
-- L0A, BCR=False, mask=14, tag=5 
0 -- BCR 
1110 -- mask
0000101 -- tag
-- L0A, BCR=True, mask=4, tag=11 
1 -- BCR 
0100 -- mask
0001011 -- tag
-- L0A, BCR=False, mask=9, tag=70 
0 -- BCR 
1001 -- mask
1000110 -- tag
-- L0A, BCR=True, mask=1, tag=30 
1 -- BCR 
0001 -- mask
0011110 -- tag
-- L0A, BCR=False, mask=8, tag=101 
0 -- BCR 
1000 -- mask
1100101 -- tag
-- L0A, BCR=False, mask=2, tag=32 
0 -- BCR 
0010 -- mask
0100000 -- tag
-- L0A, BCR=False, mask=4, tag=87 
0 -- BCR 
0100 -- mask
1010111 -- tag
-- L0A, BCR=False, mask=6, tag=74 
0 -- BCR 
0110 -- mask
1001010 -- tag
-- L0A, BCR=True, mask=6, tag=81 
1 -- BCR 
0110 -- mask
1010001 -- tag
-- L0A, BCR=False, mask=6, tag=104 
0 -- BCR 
0110 -- mask
1101000 -- tag
-- L0A, BCR=True, mask=2, tag=105 
1 -- BCR 
0010 -- mask
1101001 -- tag
-- L0A, BCR=False, mask=14, tag=105 
0 -- BCR 
1110 -- mask
1101001 -- tag
-- L0A, BCR=False, mask=2, tag=87 
0 -- BCR 
0010 -- mask
1010111 -- tag
-- L0A, BCR=True, mask=14, tag=96 
1 -- BCR 
1110 -- mask
1100000 -- tag
-- L0A, BCR=False, mask=11, tag=37 
0 -- BCR 
1011 -- mask
0100101 -- tag
-- L0A, BCR=True, mask=7, tag=70 
1 -- BCR 
0111 -- mask
1000110 -- tag
-- L0A, BCR=False, mask=5, tag=121 
0 -- BCR 
0101 -- mask
1111001 -- tag
-- L0A, BCR=False, mask=3, tag=70 
0 -- BCR 
0011 -- mask
1000110 -- tag
-- L0A, BCR=True, mask=6, tag=23 
1 -- BCR 
0110 -- mask
0010111 -- tag
-- L0A, BCR=False, mask=12, tag=93 
0 -- BCR 
1100 -- mask
1011101 -- tag
-- L0A, BCR=False, mask=15, tag=23 
0 -- BCR 
1111 -- mask
0010111 -- tag
-- L0A, BCR=False, mask=8, tag=109 
0 -- BCR 
1000 -- mask
1101101 -- tag
-- L0A, BCR=False, mask=5, tag=96 
0 -- BCR 
0101 -- mask
1100000 -- tag
-- L0A, BCR=False, mask=3, tag=49 
0 -- BCR 
0011 -- mask
0110001 -- tag
-- L0A, BCR=True, mask=3, tag=33 
1 -- BCR 
0011 -- mask
0100001 -- tag
-- L0A, BCR=True, mask=6, tag=92 
1 -- BCR 
0110 -- mask
1011100 -- tag
-- L0A, BCR=False, mask=3, tag=29 
0 -- BCR 
0011 -- mask
0011101 -- tag
-- L0A, BCR=True, mask=9, tag=55 
1 -- BCR 
1001 -- mask
0110111 -- tag
-- L0A, BCR=True, mask=10, tag=104 
1 -- BCR 
1010 -- mask
1101000 -- tag
-- L0A, BCR=True, mask=15, tag=10 
1 -- BCR 
1111 -- mask
0001010 -- tag
-- L0A, BCR=False, mask=7, tag=43 
0 -- BCR 
0111 -- mask
0101011 -- tag
-- L0A, BCR=True, mask=6, tag=115 
1 -- BCR 
0110 -- mask
1110011 -- tag
-- L0A, BCR=False, mask=9, tag=41 
0 -- BCR 
1001 -- mask
0101001 -- tag
-- L0A, BCR=False, mask=15, tag=30 
0 -- BCR 
1111 -- mask
0011110 -- tag
-- L0A, BCR=True, mask=15, tag=22 
1 -- BCR 
1111 -- mask
0010110 -- tag
-- L0A, BCR=True, mask=9, tag=43 
1 -- BCR 
1001 -- mask
0101011 -- tag
-- L0A, BCR=True, mask=1, tag=123 
1 -- BCR 
0001 -- mask
1111011 -- tag
-- L0A, BCR=False, mask=14, tag=53 
0 -- BCR 
1110 -- mask
0110101 -- tag
-- L0A, BCR=False, mask=1, tag=78 
0 -- BCR 
0001 -- mask
1001110 -- tag
-- L0A, BCR=False, mask=11, tag=36 
0 -- BCR 
1011 -- mask
0100100 -- tag
-- L0A, BCR=True, mask=10, tag=55 
1 -- BCR 
1010 -- mask
0110111 -- tag
-- L0A, BCR=True, mask=9, tag=6 
1 -- BCR 
1001 -- mask
0000110 -- tag
-- L0A, BCR=True, mask=13, tag=17 
1 -- BCR 
1101 -- mask
0010001 -- tag
-- L0A, BCR=True, mask=14, tag=51 
1 -- BCR 
1110 -- mask
0110011 -- tag
-- L0A, BCR=True, mask=4, tag=100 
1 -- BCR 
0100 -- mask
1100100 -- tag
-- L0A, BCR=True, mask=1, tag=61 
1 -- BCR 
0001 -- mask
0111101 -- tag
-- L0A, BCR=True, mask=1, tag=89 
1 -- BCR 
0001 -- mask
1011001 -- tag
-- L0A, BCR=False, mask=3, tag=17 
0 -- BCR 
0011 -- mask
0010001 -- tag
-- L0A, BCR=False, mask=8, tag=68 
0 -- BCR 
1000 -- mask
1000100 -- tag
-- L0A, BCR=False, mask=4, tag=105 
0 -- BCR 
0100 -- mask
1101001 -- tag
-- L0A, BCR=True, mask=5, tag=125 
1 -- BCR 
0101 -- mask
1111101 -- tag
-- L0A, BCR=False, mask=1, tag=6 
0 -- BCR 
0001 -- mask
0000110 -- tag
-- L0A, BCR=True, mask=5, tag=39 
1 -- BCR 
0101 -- mask
0100111 -- tag
-- L0A, BCR=True, mask=4, tag=81 
1 -- BCR 
0100 -- mask
1010001 -- tag
-- L0A, BCR=True, mask=6, tag=6 
1 -- BCR 
0110 -- mask
0000110 -- tag
-- L0A, BCR=False, mask=12, tag=82 
0 -- BCR 
1100 -- mask
1010010 -- tag
-- L0A, BCR=False, mask=14, tag=23 
0 -- BCR 
1110 -- mask
0010111 -- tag
-- L0A, BCR=True, mask=6, tag=56 
1 -- BCR 
0110 -- mask
0111000 -- tag
-- L0A, BCR=False, mask=3, tag=105 
0 -- BCR 
0011 -- mask
1101001 -- tag
-- L0A, BCR=True, mask=12, tag=96 
1 -- BCR 
1100 -- mask
1100000 -- tag
-- L0A, BCR=True, mask=9, tag=39 
1 -- BCR 
1001 -- mask
0100111 -- tag
-- L0A, BCR=True, mask=12, tag=29 
1 -- BCR 
1100 -- mask
0011101 -- tag
-- L0A, BCR=True, mask=1, tag=123 
1 -- BCR 
0001 -- mask
1111011 -- tag
-- L0A, BCR=True, mask=12, tag=76 
1 -- BCR 
1100 -- mask
1001100 -- tag
-- L0A, BCR=True, mask=6, tag=100 
1 -- BCR 
0110 -- mask
1100100 -- tag
-- L0A, BCR=False, mask=1, tag=3 
0 -- BCR 
0001 -- mask
0000011 -- tag
-- L0A, BCR=False, mask=5, tag=80 
0 -- BCR 
0101 -- mask
1010000 -- tag
-- L0A, BCR=True, mask=3, tag=22 
1 -- BCR 
0011 -- mask
0010110 -- tag
-- L0A, BCR=False, mask=1, tag=11 
0 -- BCR 
0001 -- mask
0001011 -- tag
-- L0A, BCR=True, mask=3, tag=121 
1 -- BCR 
0011 -- mask
1111001 -- tag
-- L0A, BCR=False, mask=4, tag=108 
0 -- BCR 
0100 -- mask
1101100 -- tag
-- L0A, BCR=True, mask=6, tag=106 
1 -- BCR 
0110 -- mask
1101010 -- tag
-- L0A, BCR=False, mask=1, tag=74 
0 -- BCR 
0001 -- mask
1001010 -- tag
-- L0A, BCR=True, mask=14, tag=86 
1 -- BCR 
1110 -- mask
1010110 -- tag
-- L0A, BCR=False, mask=1, tag=98 
0 -- BCR 
0001 -- mask
1100010 -- tag
-- L0A, BCR=True, mask=4, tag=16 
1 -- BCR 
0100 -- mask
0010000 -- tag
-- L0A, BCR=True, mask=5, tag=6 
1 -- BCR 
0101 -- mask
0000110 -- tag
-- L0A, BCR=False, mask=9, tag=111 
0 -- BCR 
1001 -- mask
1101111 -- tag
-- L0A, BCR=True, mask=6, tag=101 
1 -- BCR 
0110 -- mask
1100101 -- tag
-- L0A, BCR=True, mask=14, tag=3 
1 -- BCR 
1110 -- mask
0000011 -- tag
-- L0A, BCR=False, mask=14, tag=58 
0 -- BCR 
1110 -- mask
0111010 -- tag
-- L0A, BCR=True, mask=9, tag=25 
1 -- BCR 
1001 -- mask
0011001 -- tag
-- L0A, BCR=True, mask=8, tag=55 
1 -- BCR 
1000 -- mask
0110111 -- tag
-- L0A, BCR=True, mask=5, tag=82 
1 -- BCR 
0101 -- mask
1010010 -- tag
-- L0A, BCR=True, mask=3, tag=107 
1 -- BCR 
0011 -- mask
1101011 -- tag
-- L0A, BCR=True, mask=1, tag=4 
1 -- BCR 
0001 -- mask
0000100 -- tag
-- L0A, BCR=False, mask=7, tag=61 
0 -- BCR 
0111 -- mask
0111101 -- tag
-- L0A, BCR=False, mask=11, tag=54 
0 -- BCR 
1011 -- mask
0110110 -- tag
-- L0A, BCR=True, mask=15, tag=77 
1 -- BCR 
1111 -- mask
1001101 -- tag
-- L0A, BCR=False, mask=13, tag=103 
0 -- BCR 
1101 -- mask
1100111 -- tag
-- L0A, BCR=True, mask=13, tag=53 
1 -- BCR 
1101 -- mask
0110101 -- tag
-- L0A, BCR=False, mask=3, tag=17 
0 -- BCR 
0011 -- mask
0010001 -- tag
-- L0A, BCR=False, mask=8, tag=67 
0 -- BCR 
1000 -- mask
1000011 -- tag
-- L0A, BCR=True, mask=1, tag=92 
1 -- BCR 
0001 -- mask
1011100 -- tag
-- L0A, BCR=True, mask=4, tag=125 
1 -- BCR 
0100 -- mask
1111101 -- tag
-- L0A, BCR=False, mask=5, tag=3 
0 -- BCR 
0101 -- mask
0000011 -- tag
-- L0A, BCR=True, mask=6, tag=48 
1 -- BCR 
0110 -- mask
0110000 -- tag
-- L0A, BCR=False, mask=13, tag=39 
0 -- BCR 
1101 -- mask
0100111 -- tag
-- L0A, BCR=True, mask=8, tag=75 
1 -- BCR 
1000 -- mask
1001011 -- tag
-- L0A, BCR=True, mask=7, tag=31 
1 -- BCR 
0111 -- mask
0011111 -- tag
-- L0A, BCR=False, mask=11, tag=99 
0 -- BCR 
1011 -- mask
1100011 -- tag
-- L0A, BCR=True, mask=6, tag=42 
1 -- BCR 
0110 -- mask
0101010 -- tag
-- L0A, BCR=False, mask=3, tag=89 
0 -- BCR 
0011 -- mask
1011001 -- tag
-- L0A, BCR=False, mask=6, tag=7 
0 -- BCR 
0110 -- mask
0000111 -- tag
-- L0A, BCR=True, mask=4, tag=76 
1 -- BCR 
0100 -- mask
1001100 -- tag
-- L0A, BCR=False, mask=12, tag=38 
0 -- BCR 
1100 -- mask
0100110 -- tag
-- L0A, BCR=True, mask=8, tag=23 
1 -- BCR 
1000 -- mask
0010111 -- tag
-- L0A, BCR=False, mask=8, tag=52 
0 -- BCR 
1000 -- mask
0110100 -- tag
-- L0A, BCR=False, mask=4, tag=90 
0 -- BCR 
0100 -- mask
1011010 -- tag
-- L0A, BCR=False, mask=3, tag=85 
0 -- BCR 
0011 -- mask
1010101 -- tag
-- L0A, BCR=True, mask=10, tag=10 
1 -- BCR 
1010 -- mask
0001010 -- tag
-- L0A, BCR=False, mask=7, tag=92 
0 -- BCR 
0111 -- mask
1011100 -- tag
-- L0A, BCR=False, mask=10, tag=70 
0 -- BCR 
1010 -- mask
1000110 -- tag
-- L0A, BCR=False, mask=12, tag=107 
0 -- BCR 
1100 -- mask
1101011 -- tag
